{
    "constraints": [{
            "first_node": 1,
            "max_duration": 137.2201768825808,
            "min_duration": 129.54273690336856,
            "second_node": 2,
            "type": "stcu"
        }, {
            "first_node": 3,
            "max_duration": 19.980899839807023,
            "min_duration": 8.881330205478866,
            "second_node": 4,
            "type": "stcu"
        }, {
            "first_node": 5,
            "max_duration": 24.99379095424163,
            "min_duration": 6.238907786260793,
            "second_node": 6,
            "type": "stcu"
        }, {
            "first_node": 7,
            "max_duration": 21.914879949801875,
            "min_duration": 1.3713452730748465,
            "second_node": 8,
            "type": "stcu"
        }, {
            "first_node": 2,
            "max_duration": "inf",
            "min_duration": 0.0,
            "second_node": 3,
            "type": "stc"
        }, {
            "first_node": 4,
            "max_duration": "inf",
            "min_duration": 0.0,
            "second_node": 5,
            "type": "stc"
        }, {
            "first_node": 6,
            "max_duration": "inf",
            "min_duration": 0.0,
            "second_node": 7,
            "type": "stc"
        }, {
            "first_node": 9,
            "max_duration": 139.1554974842277,
            "min_duration": 128.7692678136526,
            "second_node": 10,
            "type": "stcu"
        }, {
            "first_node": 11,
            "max_duration": 23.75147589435579,
            "min_duration": 1.9617880694064853,
            "second_node": 12,
            "type": "stcu"
        }, {
            "first_node": 13,
            "max_duration": 16.112636334367153,
            "min_duration": 3.4803819833909078,
            "second_node": 14,
            "type": "stcu"
        }, {
            "first_node": 15,
            "max_duration": 14.534776847595813,
            "min_duration": 7.195641806192627,
            "second_node": 16,
            "type": "stcu"
        }, {
            "first_node": 10,
            "max_duration": "inf",
            "min_duration": 0.0,
            "second_node": 11,
            "type": "stc"
        }, {
            "first_node": 12,
            "max_duration": "inf",
            "min_duration": 0.0,
            "second_node": 13,
            "type": "stc"
        }, {
            "first_node": 14,
            "max_duration": "inf",
            "min_duration": 0.0,
            "second_node": 15,
            "type": "stc"
        }, {
            "first_node": 7,
            "max_duration": "inf",
            "min_duration": 0.0,
            "second_node": 9,
            "type": "stc"
        }, {
            "first_node": 17,
            "max_duration": 55.679640295248554,
            "min_duration": 42.878143575091805,
            "second_node": 18,
            "type": "stcu"
        }, {
            "first_node": 19,
            "max_duration": 7.985837012286548,
            "min_duration": 5.885779501327307,
            "second_node": 20,
            "type": "stcu"
        }, {
            "first_node": 15,
            "max_duration": "inf",
            "min_duration": 0.0,
            "second_node": 17,
            "type": "stc"
        }, {
            "first_node": 18,
            "max_duration": "inf",
            "min_duration": 0.0,
            "second_node": 19,
            "type": "stc"
        }, {
            "first_node": 21,
            "max_duration": "inf",
            "min_duration": 0.0,
            "second_node": 1,
            "type": "stc"
        }, {
            "first_node": 20,
            "max_duration": "inf",
            "min_duration": 0.0,
            "second_node": 22,
            "type": "stc"
        }, {
            "first_node": 23,
            "max_duration": 24.604761469281044,
            "min_duration": 12.724455980465121,
            "second_node": 24,
            "type": "stcu"
        }, {
            "first_node": 25,
            "max_duration": 20.610606218582436,
            "min_duration": 3.9329188153343972,
            "second_node": 26,
            "type": "stcu"
        }, {
            "first_node": 27,
            "max_duration": 31.211696437380294,
            "min_duration": 9.187428998833344,
            "second_node": 28,
            "type": "stcu"
        }, {
            "first_node": 29,
            "max_duration": 29.18357814346171,
            "min_duration": 6.480624989354415,
            "second_node": 30,
            "type": "stcu"
        }, {
            "first_node": 24,
            "max_duration": "inf",
            "min_duration": 0.0,
            "second_node": 25,
            "type": "stc"
        }, {
            "first_node": 26,
            "max_duration": "inf",
            "min_duration": 0.0,
            "second_node": 27,
            "type": "stc"
        }, {
            "first_node": 28,
            "max_duration": "inf",
            "min_duration": 0.0,
            "second_node": 29,
            "type": "stc"
        }, {
            "first_node": 31,
            "max_duration": 73.8177954975333,
            "min_duration": 61.06155109902662,
            "second_node": 32,
            "type": "stcu"
        }, {
            "first_node": 33,
            "max_duration": 22.5513074761486,
            "min_duration": 6.206611416403156,
            "second_node": 34,
            "type": "stcu"
        }, {
            "first_node": 35,
            "max_duration": 14.542417611495353,
            "min_duration": 5.086254628774269,
            "second_node": 36,
            "type": "stcu"
        }, {
            "first_node": 37,
            "max_duration": 19.22288565314612,
            "min_duration": 5.343121933953649,
            "second_node": 38,
            "type": "stcu"
        }, {
            "first_node": 32,
            "max_duration": "inf",
            "min_duration": 0.0,
            "second_node": 33,
            "type": "stc"
        }, {
            "first_node": 34,
            "max_duration": "inf",
            "min_duration": 0.0,
            "second_node": 35,
            "type": "stc"
        }, {
            "first_node": 36,
            "max_duration": "inf",
            "min_duration": 0.0,
            "second_node": 37,
            "type": "stc"
        }, {
            "first_node": 29,
            "max_duration": "inf",
            "min_duration": 0.0,
            "second_node": 31,
            "type": "stc"
        }, {
            "first_node": 39,
            "max_duration": 52.66566718976951,
            "min_duration": 41.1469813862697,
            "second_node": 40,
            "type": "stcu"
        }, {
            "first_node": 41,
            "max_duration": 10.514685019994094,
            "min_duration": 7.317216620897475,
            "second_node": 42,
            "type": "stcu"
        }, {
            "first_node": 37,
            "max_duration": "inf",
            "min_duration": 0.0,
            "second_node": 39,
            "type": "stc"
        }, {
            "first_node": 40,
            "max_duration": "inf",
            "min_duration": 0.0,
            "second_node": 41,
            "type": "stc"
        }, {
            "first_node": 21,
            "max_duration": "inf",
            "min_duration": 0.0,
            "second_node": 23,
            "type": "stc"
        }, {
            "first_node": 42,
            "max_duration": "inf",
            "min_duration": 0.0,
            "second_node": 22,
            "type": "stc"
        }, {
            "first_node": 43,
            "max_duration": 105.69505548417813,
            "min_duration": 95.52149235145158,
            "second_node": 44,
            "type": "stcu"
        }, {
            "first_node": 45,
            "max_duration": 12.377726147692222,
            "min_duration": 3.461109343714134,
            "second_node": 46,
            "type": "stcu"
        }, {
            "first_node": 47,
            "max_duration": 17.617660309978262,
            "min_duration": 2.9111446306864566,
            "second_node": 48,
            "type": "stcu"
        }, {
            "first_node": 49,
            "max_duration": 15.347176202716271,
            "min_duration": 5.195646735885415,
            "second_node": 50,
            "type": "stcu"
        }, {
            "first_node": 44,
            "max_duration": "inf",
            "min_duration": 0.0,
            "second_node": 45,
            "type": "stc"
        }, {
            "first_node": 46,
            "max_duration": "inf",
            "min_duration": 0.0,
            "second_node": 47,
            "type": "stc"
        }, {
            "first_node": 48,
            "max_duration": "inf",
            "min_duration": 0.0,
            "second_node": 49,
            "type": "stc"
        }, {
            "first_node": 51,
            "max_duration": 141.97139016333608,
            "min_duration": 131.65669334259326,
            "second_node": 52,
            "type": "stcu"
        }, {
            "first_node": 53,
            "max_duration": 8.45529118241071,
            "min_duration": 5.202483346137977,
            "second_node": 54,
            "type": "stcu"
        }, {
            "first_node": 49,
            "max_duration": "inf",
            "min_duration": 0.0,
            "second_node": 51,
            "type": "stc"
        }, {
            "first_node": 52,
            "max_duration": "inf",
            "min_duration": 0.0,
            "second_node": 53,
            "type": "stc"
        }, {
            "first_node": 21,
            "max_duration": "inf",
            "min_duration": 0.0,
            "second_node": 43,
            "type": "stc"
        }, {
            "first_node": 54,
            "max_duration": "inf",
            "min_duration": 0.0,
            "second_node": 22,
            "type": "stc"
        }, {
            "first_node": 55,
            "max_duration": 103.40394995328965,
            "min_duration": 96.265032752594,
            "second_node": 56,
            "type": "stcu"
        }, {
            "first_node": 57,
            "max_duration": 26.975620407773373,
            "min_duration": 7.978164901266339,
            "second_node": 58,
            "type": "stcu"
        }, {
            "first_node": 59,
            "max_duration": 11.155486738979569,
            "min_duration": 5.239045734675116,
            "second_node": 60,
            "type": "stcu"
        }, {
            "first_node": 61,
            "max_duration": 19.65294492591448,
            "min_duration": 6.753918082118797,
            "second_node": 62,
            "type": "stcu"
        }, {
            "first_node": 56,
            "max_duration": "inf",
            "min_duration": 0.0,
            "second_node": 57,
            "type": "stc"
        }, {
            "first_node": 58,
            "max_duration": "inf",
            "min_duration": 0.0,
            "second_node": 59,
            "type": "stc"
        }, {
            "first_node": 60,
            "max_duration": "inf",
            "min_duration": 0.0,
            "second_node": 61,
            "type": "stc"
        }, {
            "first_node": 63,
            "max_duration": 36.852536966168444,
            "min_duration": 26.354428262917295,
            "second_node": 64,
            "type": "stcu"
        }, {
            "first_node": 65,
            "max_duration": 17.109320612992406,
            "min_duration": 3.33094671725976,
            "second_node": 66,
            "type": "stcu"
        }, {
            "first_node": 67,
            "max_duration": 19.05162636574976,
            "min_duration": 3.808737805131166,
            "second_node": 68,
            "type": "stcu"
        }, {
            "first_node": 69,
            "max_duration": 18.31122777300532,
            "min_duration": 1.681890997683035,
            "second_node": 70,
            "type": "stcu"
        }, {
            "first_node": 64,
            "max_duration": "inf",
            "min_duration": 0.0,
            "second_node": 65,
            "type": "stc"
        }, {
            "first_node": 66,
            "max_duration": "inf",
            "min_duration": 0.0,
            "second_node": 67,
            "type": "stc"
        }, {
            "first_node": 68,
            "max_duration": "inf",
            "min_duration": 0.0,
            "second_node": 69,
            "type": "stc"
        }, {
            "first_node": 61,
            "max_duration": "inf",
            "min_duration": 0.0,
            "second_node": 63,
            "type": "stc"
        }, {
            "first_node": 71,
            "max_duration": 37.8008878107448,
            "min_duration": 27.28432635799369,
            "second_node": 72,
            "type": "stcu"
        }, {
            "first_node": 73,
            "max_duration": 7.742339034332623,
            "min_duration": 4.827698650411745,
            "second_node": 74,
            "type": "stcu"
        }, {
            "first_node": 69,
            "max_duration": "inf",
            "min_duration": 0.0,
            "second_node": 71,
            "type": "stc"
        }, {
            "first_node": 72,
            "max_duration": "inf",
            "min_duration": 0.0,
            "second_node": 73,
            "type": "stc"
        }, {
            "first_node": 21,
            "max_duration": "inf",
            "min_duration": 0.0,
            "second_node": 55,
            "type": "stc"
        }, {
            "first_node": 74,
            "max_duration": "inf",
            "min_duration": 0.0,
            "second_node": 22,
            "type": "stc"
        }, {
            "first_node": 75,
            "max_duration": 121.19683023221165,
            "min_duration": 107.93091356214856,
            "second_node": 76,
            "type": "stcu"
        }, {
            "first_node": 77,
            "max_duration": 20.87504981559836,
            "min_duration": 4.850003897510676,
            "second_node": 78,
            "type": "stcu"
        }, {
            "first_node": 79,
            "max_duration": 23.911343690277363,
            "min_duration": 4.542174215760262,
            "second_node": 80,
            "type": "stcu"
        }, {
            "first_node": 81,
            "max_duration": 21.49198035872966,
            "min_duration": 6.332440831280667,
            "second_node": 82,
            "type": "stcu"
        }, {
            "first_node": 76,
            "max_duration": "inf",
            "min_duration": 0.0,
            "second_node": 77,
            "type": "stc"
        }, {
            "first_node": 78,
            "max_duration": "inf",
            "min_duration": 0.0,
            "second_node": 79,
            "type": "stc"
        }, {
            "first_node": 80,
            "max_duration": "inf",
            "min_duration": 0.0,
            "second_node": 81,
            "type": "stc"
        }, {
            "first_node": 83,
            "max_duration": 88.2269562412478,
            "min_duration": 76.15717595943867,
            "second_node": 84,
            "type": "stcu"
        }, {
            "first_node": 85,
            "max_duration": 4.288676208378335,
            "min_duration": 2.029245673554743,
            "second_node": 86,
            "type": "stcu"
        }, {
            "first_node": 81,
            "max_duration": "inf",
            "min_duration": 0.0,
            "second_node": 83,
            "type": "stc"
        }, {
            "first_node": 84,
            "max_duration": "inf",
            "min_duration": 0.0,
            "second_node": 85,
            "type": "stc"
        }, {
            "first_node": 21,
            "max_duration": "inf",
            "min_duration": 0.0,
            "second_node": 75,
            "type": "stc"
        }, {
            "first_node": 86,
            "max_duration": "inf",
            "min_duration": 0.0,
            "second_node": 22,
            "type": "stc"
        }, {
            "first_node": 74,
            "max_duration": 3.259282027466112,
            "min_duration": 0.0,
            "second_node": 19,
            "type": "stc"
        }, {
            "first_node": 20,
            "max_duration": 5.019967520950249,
            "min_duration": 0.0,
            "second_node": 41,
            "type": "stc"
        }, {
            "first_node": 42,
            "max_duration": 3.0188553838715806,
            "min_duration": 0.0,
            "second_node": 85,
            "type": "stc"
        }, {
            "first_node": 86,
            "max_duration": 4.068082253551633,
            "min_duration": 0.0,
            "second_node": 53,
            "type": "stc"
        }, {
            "first_node": 21,
            "max_duration": "inf",
            "min_duration": 918.6351358533989,
            "second_node": 73,
            "type": "stc"
        }, {
            "first_node": 21,
            "max_duration": 1298.2688723786746,
            "min_duration": 0.0,
            "second_node": 54,
            "type": "stc"
        }],
    "nodes": [{
            "node_id": 1
        }, {
            "node_id": 2
        }, {
            "node_id": 3
        }, {
            "node_id": 4
        }, {
            "node_id": 5
        }, {
            "node_id": 6
        }, {
            "node_id": 7
        }, {
            "node_id": 8
        }, {
            "node_id": 9
        }, {
            "node_id": 10
        }, {
            "node_id": 11
        }, {
            "node_id": 12
        }, {
            "node_id": 13
        }, {
            "node_id": 14
        }, {
            "node_id": 15
        }, {
            "node_id": 16
        }, {
            "node_id": 17
        }, {
            "node_id": 18
        }, {
            "node_id": 19
        }, {
            "node_id": 20
        }, {
            "node_id": 21
        }, {
            "node_id": 22
        }, {
            "node_id": 23
        }, {
            "node_id": 24
        }, {
            "node_id": 25
        }, {
            "node_id": 26
        }, {
            "node_id": 27
        }, {
            "node_id": 28
        }, {
            "node_id": 29
        }, {
            "node_id": 30
        }, {
            "node_id": 31
        }, {
            "node_id": 32
        }, {
            "node_id": 33
        }, {
            "node_id": 34
        }, {
            "node_id": 35
        }, {
            "node_id": 36
        }, {
            "node_id": 37
        }, {
            "node_id": 38
        }, {
            "node_id": 39
        }, {
            "node_id": 40
        }, {
            "node_id": 41
        }, {
            "node_id": 42
        }, {
            "node_id": 43
        }, {
            "node_id": 44
        }, {
            "node_id": 45
        }, {
            "node_id": 46
        }, {
            "node_id": 47
        }, {
            "node_id": 48
        }, {
            "node_id": 49
        }, {
            "node_id": 50
        }, {
            "node_id": 51
        }, {
            "node_id": 52
        }, {
            "node_id": 53
        }, {
            "node_id": 54
        }, {
            "node_id": 55
        }, {
            "node_id": 56
        }, {
            "node_id": 57
        }, {
            "node_id": 58
        }, {
            "node_id": 59
        }, {
            "node_id": 60
        }, {
            "node_id": 61
        }, {
            "node_id": 62
        }, {
            "node_id": 63
        }, {
            "node_id": 64
        }, {
            "node_id": 65
        }, {
            "node_id": 66
        }, {
            "node_id": 67
        }, {
            "node_id": 68
        }, {
            "node_id": 69
        }, {
            "node_id": 70
        }, {
            "node_id": 71
        }, {
            "node_id": 72
        }, {
            "node_id": 73
        }, {
            "node_id": 74
        }, {
            "node_id": 75
        }, {
            "node_id": 76
        }, {
            "node_id": 77
        }, {
            "node_id": 78
        }, {
            "node_id": 79
        }, {
            "node_id": 80
        }, {
            "node_id": 81
        }, {
            "node_id": 82
        }, {
            "node_id": 83
        }, {
            "node_id": 84
        }, {
            "node_id": 85
        }, {
            "node_id": 86
        }]
}