{
    "constraints": [{
            "first_node": 1,
            "max_duration": 86.12251838684018,
            "min_duration": 72.4024478737217,
            "second_node": 2,
            "type": "stcu"
        }, {
            "first_node": 3,
            "max_duration": 21.119671608350746,
            "min_duration": 8.872732929918872,
            "second_node": 4,
            "type": "stcu"
        }, {
            "first_node": 5,
            "max_duration": 16.904525285682947,
            "min_duration": 6.812630909000605,
            "second_node": 6,
            "type": "stcu"
        }, {
            "first_node": 7,
            "max_duration": 26.93343939796465,
            "min_duration": 7.167658510545155,
            "second_node": 8,
            "type": "stcu"
        }, {
            "first_node": 2,
            "max_duration": "inf",
            "min_duration": 0.0,
            "second_node": 3,
            "type": "stc"
        }, {
            "first_node": 4,
            "max_duration": "inf",
            "min_duration": 0.0,
            "second_node": 5,
            "type": "stc"
        }, {
            "first_node": 6,
            "max_duration": "inf",
            "min_duration": 0.0,
            "second_node": 7,
            "type": "stc"
        }, {
            "first_node": 9,
            "max_duration": 115.14522851550198,
            "min_duration": 102.43135081759921,
            "second_node": 10,
            "type": "stcu"
        }, {
            "first_node": 11,
            "max_duration": 15.421733669750076,
            "min_duration": 3.311419953358556,
            "second_node": 12,
            "type": "stcu"
        }, {
            "first_node": 13,
            "max_duration": 19.136283065003127,
            "min_duration": 3.3043268305657945,
            "second_node": 14,
            "type": "stcu"
        }, {
            "first_node": 15,
            "max_duration": 7.548069198915125,
            "min_duration": 0.6237114285670318,
            "second_node": 16,
            "type": "stcu"
        }, {
            "first_node": 10,
            "max_duration": "inf",
            "min_duration": 0.0,
            "second_node": 11,
            "type": "stc"
        }, {
            "first_node": 12,
            "max_duration": "inf",
            "min_duration": 0.0,
            "second_node": 13,
            "type": "stc"
        }, {
            "first_node": 14,
            "max_duration": "inf",
            "min_duration": 0.0,
            "second_node": 15,
            "type": "stc"
        }, {
            "first_node": 7,
            "max_duration": "inf",
            "min_duration": 0.0,
            "second_node": 9,
            "type": "stc"
        }, {
            "first_node": 17,
            "max_duration": 117.21010877070336,
            "min_duration": 106.56599919296914,
            "second_node": 18,
            "type": "stcu"
        }, {
            "first_node": 19,
            "max_duration": 8.89312737891614,
            "min_duration": 5.85839305608831,
            "second_node": 20,
            "type": "stcu"
        }, {
            "first_node": 15,
            "max_duration": "inf",
            "min_duration": 0.0,
            "second_node": 17,
            "type": "stc"
        }, {
            "first_node": 18,
            "max_duration": "inf",
            "min_duration": 0.0,
            "second_node": 19,
            "type": "stc"
        }, {
            "first_node": 21,
            "max_duration": "inf",
            "min_duration": 0.0,
            "second_node": 1,
            "type": "stc"
        }, {
            "first_node": 20,
            "max_duration": "inf",
            "min_duration": 0.0,
            "second_node": 22,
            "type": "stc"
        }, {
            "first_node": 23,
            "max_duration": 48.616949352700374,
            "min_duration": 35.53872342629586,
            "second_node": 24,
            "type": "stcu"
        }, {
            "first_node": 25,
            "max_duration": 25.374436587739986,
            "min_duration": 4.584147719335194,
            "second_node": 26,
            "type": "stcu"
        }, {
            "first_node": 27,
            "max_duration": 15.34851296416132,
            "min_duration": 0.9169431906754051,
            "second_node": 28,
            "type": "stcu"
        }, {
            "first_node": 29,
            "max_duration": 17.219181476139923,
            "min_duration": 8.426365141215545,
            "second_node": 30,
            "type": "stcu"
        }, {
            "first_node": 24,
            "max_duration": "inf",
            "min_duration": 0.0,
            "second_node": 25,
            "type": "stc"
        }, {
            "first_node": 26,
            "max_duration": "inf",
            "min_duration": 0.0,
            "second_node": 27,
            "type": "stc"
        }, {
            "first_node": 28,
            "max_duration": "inf",
            "min_duration": 0.0,
            "second_node": 29,
            "type": "stc"
        }, {
            "first_node": 31,
            "max_duration": 58.36271513763863,
            "min_duration": 49.55068156362883,
            "second_node": 32,
            "type": "stcu"
        }, {
            "first_node": 33,
            "max_duration": 6.914731884626735,
            "min_duration": 2.957620061996851,
            "second_node": 34,
            "type": "stcu"
        }, {
            "first_node": 29,
            "max_duration": "inf",
            "min_duration": 0.0,
            "second_node": 31,
            "type": "stc"
        }, {
            "first_node": 32,
            "max_duration": "inf",
            "min_duration": 0.0,
            "second_node": 33,
            "type": "stc"
        }, {
            "first_node": 21,
            "max_duration": "inf",
            "min_duration": 0.0,
            "second_node": 23,
            "type": "stc"
        }, {
            "first_node": 34,
            "max_duration": "inf",
            "min_duration": 0.0,
            "second_node": 22,
            "type": "stc"
        }, {
            "first_node": 35,
            "max_duration": 78.11984631828113,
            "min_duration": 67.31632392417762,
            "second_node": 36,
            "type": "stcu"
        }, {
            "first_node": 37,
            "max_duration": 27.095127632208417,
            "min_duration": 4.629328141146718,
            "second_node": 38,
            "type": "stcu"
        }, {
            "first_node": 39,
            "max_duration": 18.259575313630332,
            "min_duration": 5.885254828431537,
            "second_node": 40,
            "type": "stcu"
        }, {
            "first_node": 41,
            "max_duration": 23.204234432496428,
            "min_duration": 5.141887173072499,
            "second_node": 42,
            "type": "stcu"
        }, {
            "first_node": 36,
            "max_duration": "inf",
            "min_duration": 0.0,
            "second_node": 37,
            "type": "stc"
        }, {
            "first_node": 38,
            "max_duration": "inf",
            "min_duration": 0.0,
            "second_node": 39,
            "type": "stc"
        }, {
            "first_node": 40,
            "max_duration": "inf",
            "min_duration": 0.0,
            "second_node": 41,
            "type": "stc"
        }, {
            "first_node": 43,
            "max_duration": 38.237472556578474,
            "min_duration": 29.382242898176635,
            "second_node": 44,
            "type": "stcu"
        }, {
            "first_node": 45,
            "max_duration": 22.659922344050727,
            "min_duration": 6.359306601671152,
            "second_node": 46,
            "type": "stcu"
        }, {
            "first_node": 47,
            "max_duration": 23.99125284602193,
            "min_duration": 8.384455790166102,
            "second_node": 48,
            "type": "stcu"
        }, {
            "first_node": 49,
            "max_duration": 14.64151161723894,
            "min_duration": 5.818310463546487,
            "second_node": 50,
            "type": "stcu"
        }, {
            "first_node": 44,
            "max_duration": "inf",
            "min_duration": 0.0,
            "second_node": 45,
            "type": "stc"
        }, {
            "first_node": 46,
            "max_duration": "inf",
            "min_duration": 0.0,
            "second_node": 47,
            "type": "stc"
        }, {
            "first_node": 48,
            "max_duration": "inf",
            "min_duration": 0.0,
            "second_node": 49,
            "type": "stc"
        }, {
            "first_node": 41,
            "max_duration": "inf",
            "min_duration": 0.0,
            "second_node": 43,
            "type": "stc"
        }, {
            "first_node": 51,
            "max_duration": 100.36051651555573,
            "min_duration": 92.61887054392858,
            "second_node": 52,
            "type": "stcu"
        }, {
            "first_node": 53,
            "max_duration": 9.680717676494751,
            "min_duration": 7.887836831473007,
            "second_node": 54,
            "type": "stcu"
        }, {
            "first_node": 49,
            "max_duration": "inf",
            "min_duration": 0.0,
            "second_node": 51,
            "type": "stc"
        }, {
            "first_node": 52,
            "max_duration": "inf",
            "min_duration": 0.0,
            "second_node": 53,
            "type": "stc"
        }, {
            "first_node": 21,
            "max_duration": "inf",
            "min_duration": 0.0,
            "second_node": 35,
            "type": "stc"
        }, {
            "first_node": 54,
            "max_duration": "inf",
            "min_duration": 0.0,
            "second_node": 22,
            "type": "stc"
        }, {
            "first_node": 55,
            "max_duration": 87.17932209781844,
            "min_duration": 74.51870716949259,
            "second_node": 56,
            "type": "stcu"
        }, {
            "first_node": 57,
            "max_duration": 17.378260809094304,
            "min_duration": 3.8832347221166943,
            "second_node": 58,
            "type": "stcu"
        }, {
            "first_node": 59,
            "max_duration": 16.41545511027988,
            "min_duration": 5.01745062586864,
            "second_node": 60,
            "type": "stcu"
        }, {
            "first_node": 61,
            "max_duration": 28.295253006403875,
            "min_duration": 7.00644594541267,
            "second_node": 62,
            "type": "stcu"
        }, {
            "first_node": 56,
            "max_duration": "inf",
            "min_duration": 0.0,
            "second_node": 57,
            "type": "stc"
        }, {
            "first_node": 58,
            "max_duration": "inf",
            "min_duration": 0.0,
            "second_node": 59,
            "type": "stc"
        }, {
            "first_node": 60,
            "max_duration": "inf",
            "min_duration": 0.0,
            "second_node": 61,
            "type": "stc"
        }, {
            "first_node": 63,
            "max_duration": 63.802977721329526,
            "min_duration": 53.38788425244705,
            "second_node": 64,
            "type": "stcu"
        }, {
            "first_node": 65,
            "max_duration": 22.740257629922567,
            "min_duration": 5.89677372269762,
            "second_node": 66,
            "type": "stcu"
        }, {
            "first_node": 67,
            "max_duration": 24.28772540475189,
            "min_duration": 7.589763327201505,
            "second_node": 68,
            "type": "stcu"
        }, {
            "first_node": 69,
            "max_duration": 19.301545673636383,
            "min_duration": 6.555573918364061,
            "second_node": 70,
            "type": "stcu"
        }, {
            "first_node": 64,
            "max_duration": "inf",
            "min_duration": 0.0,
            "second_node": 65,
            "type": "stc"
        }, {
            "first_node": 66,
            "max_duration": "inf",
            "min_duration": 0.0,
            "second_node": 67,
            "type": "stc"
        }, {
            "first_node": 68,
            "max_duration": "inf",
            "min_duration": 0.0,
            "second_node": 69,
            "type": "stc"
        }, {
            "first_node": 61,
            "max_duration": "inf",
            "min_duration": 0.0,
            "second_node": 63,
            "type": "stc"
        }, {
            "first_node": 71,
            "max_duration": 152.70803559999612,
            "min_duration": 139.747596703313,
            "second_node": 72,
            "type": "stcu"
        }, {
            "first_node": 73,
            "max_duration": 5.523710373884624,
            "min_duration": 2.4134379259015257,
            "second_node": 74,
            "type": "stcu"
        }, {
            "first_node": 69,
            "max_duration": "inf",
            "min_duration": 0.0,
            "second_node": 71,
            "type": "stc"
        }, {
            "first_node": 72,
            "max_duration": "inf",
            "min_duration": 0.0,
            "second_node": 73,
            "type": "stc"
        }, {
            "first_node": 21,
            "max_duration": "inf",
            "min_duration": 0.0,
            "second_node": 55,
            "type": "stc"
        }, {
            "first_node": 74,
            "max_duration": "inf",
            "min_duration": 0.0,
            "second_node": 22,
            "type": "stc"
        }, {
            "first_node": 34,
            "max_duration": 4.935761789446078,
            "min_duration": 0.0,
            "second_node": 19,
            "type": "stc"
        }, {
            "first_node": 20,
            "max_duration": 0.8941399031447066,
            "min_duration": 0.0,
            "second_node": 73,
            "type": "stc"
        }, {
            "first_node": 74,
            "max_duration": 5.056414071612334,
            "min_duration": 0.0,
            "second_node": 53,
            "type": "stc"
        }, {
            "first_node": 21,
            "max_duration": "inf",
            "min_duration": 667.3232274737333,
            "second_node": 33,
            "type": "stc"
        }, {
            "first_node": 21,
            "max_duration": 1067.48481663949,
            "min_duration": 0.0,
            "second_node": 54,
            "type": "stc"
        }],
    "nodes": [{
            "node_id": 1
        }, {
            "node_id": 2
        }, {
            "node_id": 3
        }, {
            "node_id": 4
        }, {
            "node_id": 5
        }, {
            "node_id": 6
        }, {
            "node_id": 7
        }, {
            "node_id": 8
        }, {
            "node_id": 9
        }, {
            "node_id": 10
        }, {
            "node_id": 11
        }, {
            "node_id": 12
        }, {
            "node_id": 13
        }, {
            "node_id": 14
        }, {
            "node_id": 15
        }, {
            "node_id": 16
        }, {
            "node_id": 17
        }, {
            "node_id": 18
        }, {
            "node_id": 19
        }, {
            "node_id": 20
        }, {
            "node_id": 21
        }, {
            "node_id": 22
        }, {
            "node_id": 23
        }, {
            "node_id": 24
        }, {
            "node_id": 25
        }, {
            "node_id": 26
        }, {
            "node_id": 27
        }, {
            "node_id": 28
        }, {
            "node_id": 29
        }, {
            "node_id": 30
        }, {
            "node_id": 31
        }, {
            "node_id": 32
        }, {
            "node_id": 33
        }, {
            "node_id": 34
        }, {
            "node_id": 35
        }, {
            "node_id": 36
        }, {
            "node_id": 37
        }, {
            "node_id": 38
        }, {
            "node_id": 39
        }, {
            "node_id": 40
        }, {
            "node_id": 41
        }, {
            "node_id": 42
        }, {
            "node_id": 43
        }, {
            "node_id": 44
        }, {
            "node_id": 45
        }, {
            "node_id": 46
        }, {
            "node_id": 47
        }, {
            "node_id": 48
        }, {
            "node_id": 49
        }, {
            "node_id": 50
        }, {
            "node_id": 51
        }, {
            "node_id": 52
        }, {
            "node_id": 53
        }, {
            "node_id": 54
        }, {
            "node_id": 55
        }, {
            "node_id": 56
        }, {
            "node_id": 57
        }, {
            "node_id": 58
        }, {
            "node_id": 59
        }, {
            "node_id": 60
        }, {
            "node_id": 61
        }, {
            "node_id": 62
        }, {
            "node_id": 63
        }, {
            "node_id": 64
        }, {
            "node_id": 65
        }, {
            "node_id": 66
        }, {
            "node_id": 67
        }, {
            "node_id": 68
        }, {
            "node_id": 69
        }, {
            "node_id": 70
        }, {
            "node_id": 71
        }, {
            "node_id": 72
        }, {
            "node_id": 73
        }, {
            "node_id": 74
        }]
}