{
    "constraints": [{
            "first_node": 1,
            "max_duration": 94.34545002533903,
            "min_duration": 84.89748679527861,
            "second_node": 2,
            "type": "stcu"
        }, {
            "first_node": 3,
            "max_duration": 24.579269943400746,
            "min_duration": 4.725783932797103,
            "second_node": 4,
            "type": "stcu"
        }, {
            "first_node": 5,
            "max_duration": 21.78649040840429,
            "min_duration": 5.726526581833037,
            "second_node": 6,
            "type": "stcu"
        }, {
            "first_node": 7,
            "max_duration": 18.79065376854746,
            "min_duration": 2.9331821508235687,
            "second_node": 8,
            "type": "stcu"
        }, {
            "first_node": 2,
            "max_duration": "inf",
            "min_duration": 0.0,
            "second_node": 3,
            "type": "stc"
        }, {
            "first_node": 4,
            "max_duration": "inf",
            "min_duration": 0.0,
            "second_node": 5,
            "type": "stc"
        }, {
            "first_node": 6,
            "max_duration": "inf",
            "min_duration": 0.0,
            "second_node": 7,
            "type": "stc"
        }, {
            "first_node": 9,
            "max_duration": 28.627821022212014,
            "min_duration": 16.003948072874056,
            "second_node": 10,
            "type": "stcu"
        }, {
            "first_node": 11,
            "max_duration": 18.349386136690587,
            "min_duration": 7.005198934586806,
            "second_node": 12,
            "type": "stcu"
        }, {
            "first_node": 13,
            "max_duration": 13.584958883295723,
            "min_duration": 4.366239122817549,
            "second_node": 14,
            "type": "stcu"
        }, {
            "first_node": 15,
            "max_duration": 21.853387674403994,
            "min_duration": 3.866392238494722,
            "second_node": 16,
            "type": "stcu"
        }, {
            "first_node": 10,
            "max_duration": "inf",
            "min_duration": 0.0,
            "second_node": 11,
            "type": "stc"
        }, {
            "first_node": 12,
            "max_duration": "inf",
            "min_duration": 0.0,
            "second_node": 13,
            "type": "stc"
        }, {
            "first_node": 14,
            "max_duration": "inf",
            "min_duration": 0.0,
            "second_node": 15,
            "type": "stc"
        }, {
            "first_node": 7,
            "max_duration": "inf",
            "min_duration": 0.0,
            "second_node": 9,
            "type": "stc"
        }, {
            "first_node": 17,
            "max_duration": 78.60356060909605,
            "min_duration": 65.59613868187351,
            "second_node": 18,
            "type": "stcu"
        }, {
            "first_node": 19,
            "max_duration": 8.792670385814134,
            "min_duration": 6.270105757650035,
            "second_node": 20,
            "type": "stcu"
        }, {
            "first_node": 15,
            "max_duration": "inf",
            "min_duration": 0.0,
            "second_node": 17,
            "type": "stc"
        }, {
            "first_node": 18,
            "max_duration": "inf",
            "min_duration": 0.0,
            "second_node": 19,
            "type": "stc"
        }, {
            "first_node": 21,
            "max_duration": "inf",
            "min_duration": 0.0,
            "second_node": 1,
            "type": "stc"
        }, {
            "first_node": 20,
            "max_duration": "inf",
            "min_duration": 0.0,
            "second_node": 22,
            "type": "stc"
        }, {
            "first_node": 23,
            "max_duration": 26.052710368062492,
            "min_duration": 15.65325569795641,
            "second_node": 24,
            "type": "stcu"
        }, {
            "first_node": 25,
            "max_duration": 19.837155753773644,
            "min_duration": 3.919780842076854,
            "second_node": 26,
            "type": "stcu"
        }, {
            "first_node": 27,
            "max_duration": 21.118672685202853,
            "min_duration": 5.121496366200026,
            "second_node": 28,
            "type": "stcu"
        }, {
            "first_node": 29,
            "max_duration": 15.264209415020632,
            "min_duration": 4.25566847843654,
            "second_node": 30,
            "type": "stcu"
        }, {
            "first_node": 24,
            "max_duration": "inf",
            "min_duration": 0.0,
            "second_node": 25,
            "type": "stc"
        }, {
            "first_node": 26,
            "max_duration": "inf",
            "min_duration": 0.0,
            "second_node": 27,
            "type": "stc"
        }, {
            "first_node": 28,
            "max_duration": "inf",
            "min_duration": 0.0,
            "second_node": 29,
            "type": "stc"
        }, {
            "first_node": 31,
            "max_duration": 197.20401014484779,
            "min_duration": 185.91486024072807,
            "second_node": 32,
            "type": "stcu"
        }, {
            "first_node": 33,
            "max_duration": 24.715617627508905,
            "min_duration": 5.080610219202839,
            "second_node": 34,
            "type": "stcu"
        }, {
            "first_node": 35,
            "max_duration": 17.84051793910868,
            "min_duration": 4.122530203462094,
            "second_node": 36,
            "type": "stcu"
        }, {
            "first_node": 37,
            "max_duration": 26.408634376696284,
            "min_duration": 6.610078632361555,
            "second_node": 38,
            "type": "stcu"
        }, {
            "first_node": 32,
            "max_duration": "inf",
            "min_duration": 0.0,
            "second_node": 33,
            "type": "stc"
        }, {
            "first_node": 34,
            "max_duration": "inf",
            "min_duration": 0.0,
            "second_node": 35,
            "type": "stc"
        }, {
            "first_node": 36,
            "max_duration": "inf",
            "min_duration": 0.0,
            "second_node": 37,
            "type": "stc"
        }, {
            "first_node": 29,
            "max_duration": "inf",
            "min_duration": 0.0,
            "second_node": 31,
            "type": "stc"
        }, {
            "first_node": 39,
            "max_duration": 79.2396098207803,
            "min_duration": 63.496281083638095,
            "second_node": 40,
            "type": "stcu"
        }, {
            "first_node": 41,
            "max_duration": 5.7371531862654885,
            "min_duration": 3.135792315855971,
            "second_node": 42,
            "type": "stcu"
        }, {
            "first_node": 37,
            "max_duration": "inf",
            "min_duration": 0.0,
            "second_node": 39,
            "type": "stc"
        }, {
            "first_node": 40,
            "max_duration": "inf",
            "min_duration": 0.0,
            "second_node": 41,
            "type": "stc"
        }, {
            "first_node": 21,
            "max_duration": "inf",
            "min_duration": 0.0,
            "second_node": 23,
            "type": "stc"
        }, {
            "first_node": 42,
            "max_duration": "inf",
            "min_duration": 0.0,
            "second_node": 22,
            "type": "stc"
        }, {
            "first_node": 43,
            "max_duration": 97.87018257464426,
            "min_duration": 83.90874951434186,
            "second_node": 44,
            "type": "stcu"
        }, {
            "first_node": 45,
            "max_duration": 19.14043812443076,
            "min_duration": 3.456468277787957,
            "second_node": 46,
            "type": "stcu"
        }, {
            "first_node": 47,
            "max_duration": 14.206492437828434,
            "min_duration": 2.7636115436299837,
            "second_node": 48,
            "type": "stcu"
        }, {
            "first_node": 49,
            "max_duration": 24.28211960594756,
            "min_duration": 4.206306284030204,
            "second_node": 50,
            "type": "stcu"
        }, {
            "first_node": 44,
            "max_duration": "inf",
            "min_duration": 0.0,
            "second_node": 45,
            "type": "stc"
        }, {
            "first_node": 46,
            "max_duration": "inf",
            "min_duration": 0.0,
            "second_node": 47,
            "type": "stc"
        }, {
            "first_node": 48,
            "max_duration": "inf",
            "min_duration": 0.0,
            "second_node": 49,
            "type": "stc"
        }, {
            "first_node": 51,
            "max_duration": 110.9101839157593,
            "min_duration": 98.70371734711877,
            "second_node": 52,
            "type": "stcu"
        }, {
            "first_node": 53,
            "max_duration": 12.62963487717495,
            "min_duration": 4.90066616380528,
            "second_node": 54,
            "type": "stcu"
        }, {
            "first_node": 55,
            "max_duration": 20.362627662058877,
            "min_duration": 3.5492709545501366,
            "second_node": 56,
            "type": "stcu"
        }, {
            "first_node": 57,
            "max_duration": 18.391129551974245,
            "min_duration": 5.347363639253664,
            "second_node": 58,
            "type": "stcu"
        }, {
            "first_node": 52,
            "max_duration": "inf",
            "min_duration": 0.0,
            "second_node": 53,
            "type": "stc"
        }, {
            "first_node": 54,
            "max_duration": "inf",
            "min_duration": 0.0,
            "second_node": 55,
            "type": "stc"
        }, {
            "first_node": 56,
            "max_duration": "inf",
            "min_duration": 0.0,
            "second_node": 57,
            "type": "stc"
        }, {
            "first_node": 49,
            "max_duration": "inf",
            "min_duration": 0.0,
            "second_node": 51,
            "type": "stc"
        }, {
            "first_node": 59,
            "max_duration": 63.57615573381675,
            "min_duration": 55.97389007916614,
            "second_node": 60,
            "type": "stcu"
        }, {
            "first_node": 61,
            "max_duration": 4.716681000349576,
            "min_duration": 1.3121398351128444,
            "second_node": 62,
            "type": "stcu"
        }, {
            "first_node": 57,
            "max_duration": "inf",
            "min_duration": 0.0,
            "second_node": 59,
            "type": "stc"
        }, {
            "first_node": 60,
            "max_duration": "inf",
            "min_duration": 0.0,
            "second_node": 61,
            "type": "stc"
        }, {
            "first_node": 21,
            "max_duration": "inf",
            "min_duration": 0.0,
            "second_node": 43,
            "type": "stc"
        }, {
            "first_node": 62,
            "max_duration": "inf",
            "min_duration": 0.0,
            "second_node": 22,
            "type": "stc"
        }, {
            "first_node": 63,
            "max_duration": 91.89883532038712,
            "min_duration": 78.39794547006346,
            "second_node": 64,
            "type": "stcu"
        }, {
            "first_node": 65,
            "max_duration": 13.329909089662683,
            "min_duration": 4.385177383205685,
            "second_node": 66,
            "type": "stcu"
        }, {
            "first_node": 67,
            "max_duration": 31.05711709782731,
            "min_duration": 6.873739907134388,
            "second_node": 68,
            "type": "stcu"
        }, {
            "first_node": 69,
            "max_duration": 13.881247409082185,
            "min_duration": 6.693082322375627,
            "second_node": 70,
            "type": "stcu"
        }, {
            "first_node": 64,
            "max_duration": "inf",
            "min_duration": 0.0,
            "second_node": 65,
            "type": "stc"
        }, {
            "first_node": 66,
            "max_duration": "inf",
            "min_duration": 0.0,
            "second_node": 67,
            "type": "stc"
        }, {
            "first_node": 68,
            "max_duration": "inf",
            "min_duration": 0.0,
            "second_node": 69,
            "type": "stc"
        }, {
            "first_node": 71,
            "max_duration": 87.68738354786619,
            "min_duration": 80.83138325154327,
            "second_node": 72,
            "type": "stcu"
        }, {
            "first_node": 73,
            "max_duration": 8.319238562087053,
            "min_duration": 5.438044659646595,
            "second_node": 74,
            "type": "stcu"
        }, {
            "first_node": 69,
            "max_duration": "inf",
            "min_duration": 0.0,
            "second_node": 71,
            "type": "stc"
        }, {
            "first_node": 72,
            "max_duration": "inf",
            "min_duration": 0.0,
            "second_node": 73,
            "type": "stc"
        }, {
            "first_node": 21,
            "max_duration": "inf",
            "min_duration": 0.0,
            "second_node": 63,
            "type": "stc"
        }, {
            "first_node": 74,
            "max_duration": "inf",
            "min_duration": 0.0,
            "second_node": 22,
            "type": "stc"
        }, {
            "first_node": 75,
            "max_duration": 106.17722493694322,
            "min_duration": 96.97015065679537,
            "second_node": 76,
            "type": "stcu"
        }, {
            "first_node": 77,
            "max_duration": 17.408539413685467,
            "min_duration": 5.87045763335421,
            "second_node": 78,
            "type": "stcu"
        }, {
            "first_node": 79,
            "max_duration": 25.478253296034218,
            "min_duration": 3.137099380014884,
            "second_node": 80,
            "type": "stcu"
        }, {
            "first_node": 81,
            "max_duration": 22.03593131651976,
            "min_duration": 4.646943588062958,
            "second_node": 82,
            "type": "stcu"
        }, {
            "first_node": 76,
            "max_duration": "inf",
            "min_duration": 0.0,
            "second_node": 77,
            "type": "stc"
        }, {
            "first_node": 78,
            "max_duration": "inf",
            "min_duration": 0.0,
            "second_node": 79,
            "type": "stc"
        }, {
            "first_node": 80,
            "max_duration": "inf",
            "min_duration": 0.0,
            "second_node": 81,
            "type": "stc"
        }, {
            "first_node": 83,
            "max_duration": 45.3601639727224,
            "min_duration": 35.82606931218019,
            "second_node": 84,
            "type": "stcu"
        }, {
            "first_node": 85,
            "max_duration": 6.372903933338607,
            "min_duration": 3.255305591039524,
            "second_node": 86,
            "type": "stcu"
        }, {
            "first_node": 81,
            "max_duration": "inf",
            "min_duration": 0.0,
            "second_node": 83,
            "type": "stc"
        }, {
            "first_node": 84,
            "max_duration": "inf",
            "min_duration": 0.0,
            "second_node": 85,
            "type": "stc"
        }, {
            "first_node": 21,
            "max_duration": "inf",
            "min_duration": 0.0,
            "second_node": 75,
            "type": "stc"
        }, {
            "first_node": 86,
            "max_duration": "inf",
            "min_duration": 0.0,
            "second_node": 22,
            "type": "stc"
        }, {
            "first_node": 87,
            "max_duration": 44.15381562963859,
            "min_duration": 30.505246481002267,
            "second_node": 88,
            "type": "stcu"
        }, {
            "first_node": 89,
            "max_duration": 31.57877610696935,
            "min_duration": 4.418631989903247,
            "second_node": 90,
            "type": "stcu"
        }, {
            "first_node": 91,
            "max_duration": 31.618383903950804,
            "min_duration": 7.594780108885775,
            "second_node": 92,
            "type": "stcu"
        }, {
            "first_node": 93,
            "max_duration": 20.209183994641673,
            "min_duration": 6.216895105680875,
            "second_node": 94,
            "type": "stcu"
        }, {
            "first_node": 88,
            "max_duration": "inf",
            "min_duration": 0.0,
            "second_node": 89,
            "type": "stc"
        }, {
            "first_node": 90,
            "max_duration": "inf",
            "min_duration": 0.0,
            "second_node": 91,
            "type": "stc"
        }, {
            "first_node": 92,
            "max_duration": "inf",
            "min_duration": 0.0,
            "second_node": 93,
            "type": "stc"
        }, {
            "first_node": 95,
            "max_duration": 94.37993130072199,
            "min_duration": 82.12871941580592,
            "second_node": 96,
            "type": "stcu"
        }, {
            "first_node": 97,
            "max_duration": 17.20606873838026,
            "min_duration": 4.20230062570552,
            "second_node": 98,
            "type": "stcu"
        }, {
            "first_node": 99,
            "max_duration": 28.55819071222767,
            "min_duration": 5.953645398704625,
            "second_node": 100,
            "type": "stcu"
        }, {
            "first_node": 101,
            "max_duration": 14.082218379201382,
            "min_duration": 3.506364799136277,
            "second_node": 102,
            "type": "stcu"
        }, {
            "first_node": 96,
            "max_duration": "inf",
            "min_duration": 0.0,
            "second_node": 97,
            "type": "stc"
        }, {
            "first_node": 98,
            "max_duration": "inf",
            "min_duration": 0.0,
            "second_node": 99,
            "type": "stc"
        }, {
            "first_node": 100,
            "max_duration": "inf",
            "min_duration": 0.0,
            "second_node": 101,
            "type": "stc"
        }, {
            "first_node": 93,
            "max_duration": "inf",
            "min_duration": 0.0,
            "second_node": 95,
            "type": "stc"
        }, {
            "first_node": 103,
            "max_duration": 126.03900828902049,
            "min_duration": 115.22594329593879,
            "second_node": 104,
            "type": "stcu"
        }, {
            "first_node": 105,
            "max_duration": 8.653625801131522,
            "min_duration": 5.821859301787078,
            "second_node": 106,
            "type": "stcu"
        }, {
            "first_node": 101,
            "max_duration": "inf",
            "min_duration": 0.0,
            "second_node": 103,
            "type": "stc"
        }, {
            "first_node": 104,
            "max_duration": "inf",
            "min_duration": 0.0,
            "second_node": 105,
            "type": "stc"
        }, {
            "first_node": 21,
            "max_duration": "inf",
            "min_duration": 0.0,
            "second_node": 87,
            "type": "stc"
        }, {
            "first_node": 106,
            "max_duration": "inf",
            "min_duration": 0.0,
            "second_node": 22,
            "type": "stc"
        }, {
            "first_node": 106,
            "max_duration": 3.7706751505339646,
            "min_duration": 0.0,
            "second_node": 61,
            "type": "stc"
        }, {
            "first_node": 62,
            "max_duration": 2.911052208670454,
            "min_duration": 0.0,
            "second_node": 41,
            "type": "stc"
        }, {
            "first_node": 42,
            "max_duration": 2.92807126874251,
            "min_duration": 0.0,
            "second_node": 73,
            "type": "stc"
        }, {
            "first_node": 74,
            "max_duration": 3.094389147376265,
            "min_duration": 0.0,
            "second_node": 85,
            "type": "stc"
        }, {
            "first_node": 86,
            "max_duration": 2.4512477297462953,
            "min_duration": 0.0,
            "second_node": 19,
            "type": "stc"
        }, {
            "first_node": 21,
            "max_duration": "inf",
            "min_duration": 941.6526564355997,
            "second_node": 105,
            "type": "stc"
        }, {
            "first_node": 21,
            "max_duration": 1302.3006416790117,
            "min_duration": 0.0,
            "second_node": 20,
            "type": "stc"
        }],
    "nodes": [{
            "node_id": 1
        }, {
            "node_id": 2
        }, {
            "node_id": 3
        }, {
            "node_id": 4
        }, {
            "node_id": 5
        }, {
            "node_id": 6
        }, {
            "node_id": 7
        }, {
            "node_id": 8
        }, {
            "node_id": 9
        }, {
            "node_id": 10
        }, {
            "node_id": 11
        }, {
            "node_id": 12
        }, {
            "node_id": 13
        }, {
            "node_id": 14
        }, {
            "node_id": 15
        }, {
            "node_id": 16
        }, {
            "node_id": 17
        }, {
            "node_id": 18
        }, {
            "node_id": 19
        }, {
            "node_id": 20
        }, {
            "node_id": 21
        }, {
            "node_id": 22
        }, {
            "node_id": 23
        }, {
            "node_id": 24
        }, {
            "node_id": 25
        }, {
            "node_id": 26
        }, {
            "node_id": 27
        }, {
            "node_id": 28
        }, {
            "node_id": 29
        }, {
            "node_id": 30
        }, {
            "node_id": 31
        }, {
            "node_id": 32
        }, {
            "node_id": 33
        }, {
            "node_id": 34
        }, {
            "node_id": 35
        }, {
            "node_id": 36
        }, {
            "node_id": 37
        }, {
            "node_id": 38
        }, {
            "node_id": 39
        }, {
            "node_id": 40
        }, {
            "node_id": 41
        }, {
            "node_id": 42
        }, {
            "node_id": 43
        }, {
            "node_id": 44
        }, {
            "node_id": 45
        }, {
            "node_id": 46
        }, {
            "node_id": 47
        }, {
            "node_id": 48
        }, {
            "node_id": 49
        }, {
            "node_id": 50
        }, {
            "node_id": 51
        }, {
            "node_id": 52
        }, {
            "node_id": 53
        }, {
            "node_id": 54
        }, {
            "node_id": 55
        }, {
            "node_id": 56
        }, {
            "node_id": 57
        }, {
            "node_id": 58
        }, {
            "node_id": 59
        }, {
            "node_id": 60
        }, {
            "node_id": 61
        }, {
            "node_id": 62
        }, {
            "node_id": 63
        }, {
            "node_id": 64
        }, {
            "node_id": 65
        }, {
            "node_id": 66
        }, {
            "node_id": 67
        }, {
            "node_id": 68
        }, {
            "node_id": 69
        }, {
            "node_id": 70
        }, {
            "node_id": 71
        }, {
            "node_id": 72
        }, {
            "node_id": 73
        }, {
            "node_id": 74
        }, {
            "node_id": 75
        }, {
            "node_id": 76
        }, {
            "node_id": 77
        }, {
            "node_id": 78
        }, {
            "node_id": 79
        }, {
            "node_id": 80
        }, {
            "node_id": 81
        }, {
            "node_id": 82
        }, {
            "node_id": 83
        }, {
            "node_id": 84
        }, {
            "node_id": 85
        }, {
            "node_id": 86
        }, {
            "node_id": 87
        }, {
            "node_id": 88
        }, {
            "node_id": 89
        }, {
            "node_id": 90
        }, {
            "node_id": 91
        }, {
            "node_id": 92
        }, {
            "node_id": 93
        }, {
            "node_id": 94
        }, {
            "node_id": 95
        }, {
            "node_id": 96
        }, {
            "node_id": 97
        }, {
            "node_id": 98
        }, {
            "node_id": 99
        }, {
            "node_id": 100
        }, {
            "node_id": 101
        }, {
            "node_id": 102
        }, {
            "node_id": 103
        }, {
            "node_id": 104
        }, {
            "node_id": 105
        }, {
            "node_id": 106
        }]
}