{
    "constraints": [
        {
            "first_node": 2,
            "max_duration": 22.8,
            "min_duration": 4.4,
            "second_node": 3,
            "type": "stc"
        },
        {
            "first_node": 1,
            "max_duration": 113.2,
            "min_duration": 55.2,
            "second_node": 4,
            "type": "stc"
        },
        {
            "first_node": 1,
            "max_duration": 68.0,
            "min_duration": 34.3,
            "second_node": 2,
            "type": "stcu_ordinary",
            "ProbabilityDistribution": {
                "343": 0.007189216175736395,
                "344": 0.005391912131802297,
                "345": 0.006689965052421368,
                "346": 0.00888666999500749,
                "347": 0.008187718422366451,
                "348": 0.0072890664003994006,
                "349": 0.007788317523714428,
                "350": 0.0070893659510733896,
                "351": 0.009186220668996506,
                "352": 0.007588617074388417,
                "353": 0.0068896655017473786,
                "354": 0.009385921118322517,
                "355": 0.008686969545681478,
                "356": 0.00619071392910634,
                "357": 0.008786819770344484,
                "358": 0.0068896655017473786,
                "359": 0.0072890664003994006,
                "360": 0.009186220668996506,
                "361": 0.009385921118322517,
                "362": 0.00888666999500749,
                "363": 0.008387418871692462,
                "364": 0.0074887668497254116,
                "365": 0.009186220668996506,
                "366": 0.0076884672990514226,
                "367": 0.007888167748377434,
                "368": 0.0076884672990514226,
                "369": 0.007788317523714428,
                "370": 0.0074887668497254116,
                "371": 0.007588617074388417,
                "372": 0.008187718422366451,
                "373": 0.008087868197703445,
                "374": 0.008287568647029456,
                "375": 0.007588617074388417,
                "376": 0.007189216175736395,
                "377": 0.008686969545681478,
                "378": 0.008487269096355467,
                "379": 0.008587119321018473,
                "380": 0.007588617074388417,
                "381": 0.006290564153769346,
                "382": 0.008587119321018473,
                "383": 0.006689965052421368,
                "384": 0.006789815277084373,
                "385": 0.006390414378432351,
                "386": 0.008986520219670495,
                "387": 0.007388916625062406,
                "388": 0.007588617074388417,
                "389": 0.007588617074388417,
                "390": 0.007788317523714428,
                "391": 0.008287568647029456,
                "392": 0.007888167748377434,
                "393": 0.005192211682476286,
                "394": 0.0070893659510733896,
                "395": 0.0058911632551173244,
                "396": 0.008986520219670495,
                "397": 0.0054917623564653024,
                "398": 0.006290564153769346,
                "399": 0.0072890664003994006,
                "400": 0.006989515726410384,
                "401": 0.008187718422366451,
                "402": 0.006989515726410384,
                "403": 0.0070893659510733896,
                "404": 0.0076884672990514226,
                "405": 0.00888666999500749,
                "406": 0.005991013479780329,
                "407": 0.006989515726410384,
                "408": 0.007388916625062406,
                "409": 0.007388916625062406,
                "410": 0.007189216175736395,
                "411": 0.006090863704443335,
                "412": 0.0072890664003994006,
                "413": 0.006689965052421368,
                "414": 0.006689965052421368,
                "415": 0.005791313030454319,
                "416": 0.006590114827758362,
                "417": 0.006290564153769346,
                "418": 0.0070893659510733896,
                "419": 0.006689965052421368,
                "420": 0.006290564153769346,
                "421": 0.0058911632551173244,
                "422": 0.006290564153769346,
                "423": 0.006390414378432351,
                "424": 0.006290564153769346,
                "425": 0.006689965052421368,
                "426": 0.0070893659510733896,
                "427": 0.0046929605591612585,
                "428": 0.005591612581128308,
                "429": 0.006490264603095357,
                "430": 0.005391912131802297,
                "431": 0.006290564153769346,
                "432": 0.0052920619071392914,
                "433": 0.0056914628057913134,
                "434": 0.0042935596605092365,
                "435": 0.0052920619071392914,
                "436": 0.005192211682476286,
                "437": 0.00399400898652022,
                "438": 0.005991013479780329,
                "439": 0.004393409885172242,
                "440": 0.0044932601098352475,
                "441": 0.0044932601098352475,
                "442": 0.0044932601098352475,
                "443": 0.005192211682476286,
                "444": 0.005391912131802297,
                "445": 0.005391912131802297,
                "446": 0.004393409885172242,
                "447": 0.003894158761857214,
                "448": 0.004393409885172242,
                "449": 0.004193709435846231,
                "450": 0.005192211682476286,
                "451": 0.0044932601098352475,
                "452": 0.004593110334498253,
                "453": 0.004593110334498253,
                "454": 0.004593110334498253,
                "455": 0.0035946080878681975,
                "456": 0.0037943085371942085,
                "457": 0.0040938592111832255,
                "458": 0.0042935596605092365,
                "459": 0.004593110334498253,
                "460": 0.003494757863205192,
                "461": 0.0042935596605092365,
                "462": 0.003894158761857214,
                "463": 0.0044932601098352475,
                "464": 0.00399400898652022,
                "465": 0.0031952071892161755,
                "466": 0.0048926610084872695,
                "467": 0.0040938592111832255,
                "468": 0.0026959560659011485,
                "469": 0.003694458312531203,
                "470": 0.0033949076385421865,
                "471": 0.002396405391912132,
                "472": 0.00309535696455317,
                "473": 0.0031952071892161755,
                "474": 0.002795806290564154,
                "475": 0.0026959560659011485,
                "476": 0.0035946080878681975,
                "477": 0.002795806290564154,
                "478": 0.002795806290564154,
                "479": 0.0044932601098352475,
                "480": 0.00309535696455317,
                "481": 0.002396405391912132,
                "482": 0.0024962556165751375,
                "483": 0.0029955067398901645,
                "484": 0.0031952071892161755,
                "485": 0.0033949076385421865,
                "486": 0.00399400898652022,
                "487": 0.0033949076385421865,
                "488": 0.002596105841238143,
                "489": 0.0024962556165751375,
                "490": 0.0029955067398901645,
                "491": 0.0024962556165751375,
                "492": 0.002196704942586121,
                "493": 0.002596105841238143,
                "494": 0.0018971542685971043,
                "495": 0.002396405391912132,
                "496": 0.0018971542685971043,
                "497": 0.002596105841238143,
                "498": 0.002596105841238143,
                "499": 0.0026959560659011485,
                "500": 0.0024962556165751375,
                "501": 0.00309535696455317,
                "502": 0.00199700449326011,
                "503": 0.001397903145282077,
                "504": 0.0020968547179231155,
                "505": 0.0018971542685971043,
                "506": 0.0020968547179231155,
                "507": 0.0016974538192710933,
                "508": 0.0024962556165751375,
                "509": 0.0020968547179231155,
                "510": 0.0024962556165751375,
                "511": 0.00199700449326011,
                "512": 0.0015976035946080878,
                "513": 0.0016974538192710933,
                "514": 0.0018971542685971043,
                "515": 0.002396405391912132,
                "516": 0.001397903145282077,
                "517": 0.001397903145282077,
                "518": 0.001397903145282077,
                "519": 0.0016974538192710933,
                "520": 0.001397903145282077,
                "521": 0.001198202695956066,
                "522": 0.0014977533699450823,
                "523": 0.0016974538192710933,
                "524": 0.0006989515726410385,
                "525": 0.0007988017973040439,
                "526": 0.0017973040439340988,
                "527": 0.0014977533699450823,
                "528": 0.002596105841238143,
                "529": 0.0006989515726410385,
                "530": 0.0012980529206190715,
                "531": 0.0006989515726410385,
                "532": 0.0012980529206190715,
                "533": 0.0007988017973040439,
                "534": 0.0006989515726410385,
                "535": 0.0008986520219670494,
                "536": 0.001198202695956066,
                "537": 0.0008986520219670494,
                "538": 0.0008986520219670494,
                "539": 0.0010983524712930605,
                "540": 0.0007988017973040439,
                "541": 0.0008986520219670494,
                "542": 0.0004992511233150275,
                "543": 0.000599101347978033,
                "544": 0.0008986520219670494,
                "545": 0.0010983524712930605,
                "546": 0.0006989515726410385,
                "547": 0.000599101347978033,
                "548": 0.0012980529206190715,
                "549": 0.0004992511233150275,
                "550": 0.0007988017973040439,
                "551": 0.000998502246630055,
                "552": 0.0004992511233150275,
                "553": 0.0007988017973040439,
                "554": 0.0002995506739890165,
                "555": 0.00039940089865202194,
                "556": 0.0006989515726410385,
                "557": 0.0002995506739890165,
                "558": 0.000599101347978033,
                "559": 0.000599101347978033,
                "560": 0.0002995506739890165,
                "561": 0.0007988017973040439,
                "562": 0.0006989515726410385,
                "563": 0.0007988017973040439,
                "564": 0.000599101347978033,
                "565": 0.0007988017973040439,
                "566": 0.0004992511233150275,
                "567": 0.0006989515726410385,
                "568": 0.00039940089865202194,
                "569": 0.00039940089865202194,
                "570": 0.000599101347978033,
                "571": 0.0002995506739890165,
                "572": 0.00039940089865202194,
                "573": 0.0002995506739890165,
                "574": 0.0004992511233150275,
                "575": 0.0002995506739890165,
                "576": 0.0004992511233150275,
                "577": 0.00019970044932601097,
                "578": 0.0004992511233150275,
                "579": 0.00019970044932601097,
                "580": 0.00019970044932601097,
                "581": 0.00019970044932601097,
                "582": 0.00019970044932601097,
                "583": 0.0002995506739890165,
                "584": 9.985022466300549e-05,
                "585": 0.0002995506739890165,
                "586": 0.00019970044932601097,
                "587": 0.00019970044932601097,
                "588": 0.00019970044932601097,
                "589": 0.0004992511233150275,
                "590": 9.985022466300549e-05,
                "591": 0.00019970044932601097,
                "592": 9.985022466300549e-05,
                "593": 0.0002995506739890165,
                "594": 9.985022466300549e-05,
                "595": 0.0,
                "596": 9.985022466300549e-05,
                "597": 0.00019970044932601097,
                "598": 9.985022466300549e-05,
                "599": 9.985022466300549e-05,
                "600": 9.985022466300549e-05,
                "601": 9.985022466300549e-05,
                "602": 0.0,
                "603": 9.985022466300549e-05,
                "604": 9.985022466300549e-05,
                "605": 9.985022466300549e-05,
                "606": 0.0004992511233150275,
                "607": 9.985022466300549e-05,
                "608": 9.985022466300549e-05,
                "609": 0.0,
                "610": 9.985022466300549e-05,
                "611": 9.985022466300549e-05,
                "612": 9.985022466300549e-05,
                "613": 9.985022466300549e-05,
                "614": 0.0,
                "615": 9.985022466300549e-05,
                "616": 0.0,
                "617": 0.00019970044932601097,
                "618": 0.00039940089865202194,
                "619": 0.0,
                "620": 0.00019970044932601097,
                "621": 9.985022466300549e-05,
                "622": 0.0,
                "623": 0.0,
                "624": 0.0002995506739890165,
                "625": 0.00019970044932601097,
                "626": 0.0,
                "627": 0.0,
                "628": 9.985022466300549e-05,
                "629": 0.0,
                "630": 0.00019970044932601097,
                "631": 0.0,
                "632": 9.985022466300549e-05,
                "633": 0.0,
                "634": 0.0,
                "635": 0.0,
                "636": 0.00019970044932601097,
                "637": 9.985022466300549e-05,
                "638": 9.985022466300549e-05,
                "639": 0.0,
                "640": 0.0,
                "641": 0.0,
                "642": 0.0,
                "643": 0.0,
                "644": 0.0,
                "645": 0.0,
                "646": 0.0,
                "647": 0.0,
                "648": 0.0,
                "649": 9.985022466300549e-05,
                "650": 0.0,
                "651": 0.0,
                "652": 9.985022466300549e-05,
                "653": 0.0,
                "654": 0.0,
                "655": 0.0,
                "656": 0.0,
                "657": 0.0,
                "658": 0.0,
                "659": 0.0,
                "660": 0.0,
                "661": 9.985022466300549e-05,
                "662": 9.985022466300549e-05,
                "663": 0.0,
                "664": 0.0,
                "665": 0.0,
                "666": 0.0,
                "667": 0.0,
                "668": 0.0,
                "669": 0.0,
                "670": 0.0,
                "671": 0.0,
                "672": 0.0,
                "673": 0.0,
                "674": 0.0,
                "675": 0.0,
                "676": 0.0,
                "677": 0.0,
                "678": 0.0,
                "679": 0.0,
                "680": 0.0
            }
        },
        {
            "first_node": 3,
            "max_duration": 68.0,
            "min_duration": 34.3,
            "second_node": 4,
            "type": "stcu_ordinary",
            "ProbabilityDistribution": {
                "343": 0.0043859649122807015,
                "344": 0.004934210526315789,
                "345": 0.005560776942355889,
                "346": 0.005560776942355889,
                "347": 0.004934210526315789,
                "348": 0.005012531328320802,
                "349": 0.006030701754385965,
                "350": 0.005090852130325814,
                "351": 0.005090852130325814,
                "352": 0.005247493734335839,
                "353": 0.005639097744360902,
                "354": 0.004934210526315789,
                "355": 0.005012531328320802,
                "356": 0.006109022556390977,
                "357": 0.0057174185463659145,
                "358": 0.005325814536340852,
                "359": 0.006578947368421052,
                "360": 0.005012531328320802,
                "361": 0.005639097744360902,
                "362": 0.0057174185463659145,
                "363": 0.005247493734335839,
                "364": 0.006422305764411027,
                "365": 0.005404135338345864,
                "366": 0.006735588972431077,
                "367": 0.005795739348370927,
                "368": 0.005952380952380952,
                "369": 0.00618734335839599,
                "370": 0.004934210526315789,
                "371": 0.004777568922305764,
                "372": 0.007048872180451127,
                "373": 0.006109022556390977,
                "374": 0.0072055137844611525,
                "375": 0.00744047619047619,
                "376": 0.005795739348370927,
                "377": 0.005639097744360902,
                "378": 0.005404135338345864,
                "379": 0.0058740601503759395,
                "380": 0.004934210526315789,
                "381": 0.005247493734335839,
                "382": 0.005247493734335839,
                "383": 0.0058740601503759395,
                "384": 0.00744047619047619,
                "385": 0.005404135338345864,
                "386": 0.00681390977443609,
                "387": 0.007048872180451127,
                "388": 0.006970551378446115,
                "389": 0.005482456140350877,
                "390": 0.0073621553884711775,
                "391": 0.006030701754385965,
                "392": 0.006030701754385965,
                "393": 0.0057174185463659145,
                "394": 0.005560776942355889,
                "395": 0.0057174185463659145,
                "396": 0.006422305764411027,
                "397": 0.007988721804511278,
                "398": 0.00650062656641604,
                "399": 0.0058740601503759395,
                "400": 0.005560776942355889,
                "401": 0.0058740601503759395,
                "402": 0.006030701754385965,
                "403": 0.0057174185463659145,
                "404": 0.005639097744360902,
                "405": 0.00775375939849624,
                "406": 0.00650062656641604,
                "407": 0.0057174185463659145,
                "408": 0.0058740601503759395,
                "409": 0.00618734335839599,
                "410": 0.0057174185463659145,
                "411": 0.006578947368421052,
                "412": 0.005952380952380952,
                "413": 0.006109022556390977,
                "414": 0.006578947368421052,
                "415": 0.006030701754385965,
                "416": 0.005482456140350877,
                "417": 0.00650062656641604,
                "418": 0.00618734335839599,
                "419": 0.006109022556390977,
                "420": 0.005795739348370927,
                "421": 0.007048872180451127,
                "422": 0.005404135338345864,
                "423": 0.005560776942355889,
                "424": 0.0045426065162907266,
                "425": 0.0058740601503759395,
                "426": 0.00650062656641604,
                "427": 0.005639097744360902,
                "428": 0.005482456140350877,
                "429": 0.0058740601503759395,
                "430": 0.00618734335839599,
                "431": 0.006422305764411027,
                "432": 0.006265664160401002,
                "433": 0.0057174185463659145,
                "434": 0.005325814536340852,
                "435": 0.0058740601503759395,
                "436": 0.005795739348370927,
                "437": 0.005952380952380952,
                "438": 0.004934210526315789,
                "439": 0.004934210526315789,
                "440": 0.005482456140350877,
                "441": 0.005560776942355889,
                "442": 0.005325814536340852,
                "443": 0.00618734335839599,
                "444": 0.005482456140350877,
                "445": 0.005169172932330827,
                "446": 0.0058740601503759395,
                "447": 0.006109022556390977,
                "448": 0.005325814536340852,
                "449": 0.0058740601503759395,
                "450": 0.006343984962406015,
                "451": 0.005325814536340852,
                "452": 0.005169172932330827,
                "453": 0.005952380952380952,
                "454": 0.005169172932330827,
                "455": 0.004777568922305764,
                "456": 0.005247493734335839,
                "457": 0.006265664160401002,
                "458": 0.004699248120300752,
                "459": 0.005325814536340852,
                "460": 0.005012531328320802,
                "461": 0.0045426065162907266,
                "462": 0.0036810776942355888,
                "463": 0.0043859649122807015,
                "464": 0.005090852130325814,
                "465": 0.004464285714285714,
                "466": 0.004464285714285714,
                "467": 0.005404135338345864,
                "468": 0.005560776942355889,
                "469": 0.0042293233082706765,
                "470": 0.005247493734335839,
                "471": 0.004464285714285714,
                "472": 0.004855889724310777,
                "473": 0.004777568922305764,
                "474": 0.0036810776942355888,
                "475": 0.0035244360902255637,
                "476": 0.0042293233082706765,
                "477": 0.004934210526315789,
                "478": 0.004699248120300752,
                "479": 0.003916040100250626,
                "480": 0.004072681704260651,
                "481": 0.003916040100250626,
                "482": 0.003132832080200501,
                "483": 0.003837719298245614,
                "484": 0.003837719298245614,
                "485": 0.0037593984962406013,
                "486": 0.0036810776942355888,
                "487": 0.004072681704260651,
                "488": 0.0035244360902255637,
                "489": 0.002976190476190476,
                "490": 0.003289473684210526,
                "491": 0.004307644110275689,
                "492": 0.0032111528822055136,
                "493": 0.003446115288220551,
                "494": 0.0033677944862155387,
                "495": 0.003289473684210526,
                "496": 0.0025845864661654134,
                "497": 0.0028978696741854635,
                "498": 0.002819548872180451,
                "499": 0.002506265664160401,
                "500": 0.0025845864661654134,
                "501": 0.0028978696741854635,
                "502": 0.0036027568922305762,
                "503": 0.002819548872180451,
                "504": 0.002976190476190476,
                "505": 0.002662907268170426,
                "506": 0.003132832080200501,
                "507": 0.0021929824561403508,
                "508": 0.002349624060150376,
                "509": 0.002819548872180451,
                "510": 0.002819548872180451,
                "511": 0.003837719298245614,
                "512": 0.0020363408521303257,
                "513": 0.002976190476190476,
                "514": 0.0028978696741854635,
                "515": 0.0021146616541353382,
                "516": 0.0027412280701754384,
                "517": 0.0027412280701754384,
                "518": 0.0018013784461152881,
                "519": 0.0024279448621553883,
                "520": 0.002506265664160401,
                "521": 0.0024279448621553883,
                "522": 0.0018796992481203006,
                "523": 0.0018013784461152881,
                "524": 0.0021929824561403508,
                "525": 0.0025845864661654134,
                "526": 0.0020363408521303257,
                "527": 0.001644736842105263,
                "528": 0.002349624060150376,
                "529": 0.0020363408521303257,
                "530": 0.0021929824561403508,
                "531": 0.0028978696741854635,
                "532": 0.0021929824561403508,
                "533": 0.001331453634085213,
                "534": 0.0018013784461152881,
                "535": 0.0015664160401002505,
                "536": 0.0018796992481203006,
                "537": 0.0021929824561403508,
                "538": 0.001644736842105263,
                "539": 0.001331453634085213,
                "540": 0.0009398496240601503,
                "541": 0.0009398496240601503,
                "542": 0.001644736842105263,
                "543": 0.001958020050125313,
                "544": 0.0018013784461152881,
                "545": 0.001488095238095238,
                "546": 0.0008615288220551378,
                "547": 0.0007048872180451127,
                "548": 0.0014097744360902255,
                "549": 0.001644736842105263,
                "550": 0.001174812030075188,
                "551": 0.001488095238095238,
                "552": 0.0015664160401002505,
                "553": 0.0015664160401002505,
                "554": 0.0014097744360902255,
                "555": 0.0007048872180451127,
                "556": 0.0010964912280701754,
                "557": 0.0008615288220551378,
                "558": 0.001331453634085213,
                "559": 0.001174812030075188,
                "560": 0.0010964912280701754,
                "561": 0.0010964912280701754,
                "562": 0.00039160401002506263,
                "563": 0.0008615288220551378,
                "564": 0.0005482456140350877,
                "565": 0.001174812030075188,
                "566": 0.00046992481203007516,
                "567": 0.0009398496240601503,
                "568": 0.0009398496240601503,
                "569": 0.0006265664160401002,
                "570": 0.0007048872180451127,
                "571": 0.00046992481203007516,
                "572": 0.0005482456140350877,
                "573": 0.0006265664160401002,
                "574": 0.0008615288220551378,
                "575": 0.0006265664160401002,
                "576": 0.00015664160401002505,
                "577": 0.0006265664160401002,
                "578": 0.00039160401002506263,
                "579": 0.0007832080200501253,
                "580": 0.001331453634085213,
                "581": 0.0007048872180451127,
                "582": 0.0008615288220551378,
                "583": 0.00039160401002506263,
                "584": 0.00046992481203007516,
                "585": 0.00046992481203007516,
                "586": 0.0007832080200501253,
                "587": 0.00046992481203007516,
                "588": 0.0007832080200501253,
                "589": 0.0009398496240601503,
                "590": 0.0005482456140350877,
                "591": 0.0008615288220551378,
                "592": 0.00015664160401002505,
                "593": 0.0005482456140350877,
                "594": 0.0005482456140350877,
                "595": 0.0003132832080200501,
                "596": 0.00023496240601503758,
                "597": 0.00023496240601503758,
                "598": 0.00015664160401002505,
                "599": 0.00046992481203007516,
                "600": 0.0007048872180451127,
                "601": 0.0006265664160401002,
                "602": 0.00046992481203007516,
                "603": 7.832080200501253e-05,
                "604": 0.00015664160401002505,
                "605": 0.0005482456140350877,
                "606": 0.0003132832080200501,
                "607": 0.0003132832080200501,
                "608": 0.0003132832080200501,
                "609": 0.0003132832080200501,
                "610": 0.0007048872180451127,
                "611": 7.832080200501253e-05,
                "612": 0.00023496240601503758,
                "613": 0.0,
                "614": 0.0003132832080200501,
                "615": 0.0003132832080200501,
                "616": 0.00015664160401002505,
                "617": 0.00015664160401002505,
                "618": 0.00015664160401002505,
                "619": 0.00046992481203007516,
                "620": 0.0003132832080200501,
                "621": 0.00023496240601503758,
                "622": 0.0003132832080200501,
                "623": 0.0003132832080200501,
                "624": 0.00015664160401002505,
                "625": 0.0003132832080200501,
                "626": 0.00023496240601503758,
                "627": 0.00023496240601503758,
                "628": 0.00015664160401002505,
                "629": 7.832080200501253e-05,
                "630": 0.00015664160401002505,
                "631": 0.00023496240601503758,
                "632": 7.832080200501253e-05,
                "633": 0.00023496240601503758,
                "634": 0.00023496240601503758,
                "635": 7.832080200501253e-05,
                "636": 0.00023496240601503758,
                "637": 7.832080200501253e-05,
                "638": 0.00039160401002506263,
                "639": 7.832080200501253e-05,
                "640": 0.00023496240601503758,
                "641": 7.832080200501253e-05,
                "642": 0.00015664160401002505,
                "643": 0.00015664160401002505,
                "644": 0.0,
                "645": 0.0,
                "646": 0.00015664160401002505,
                "647": 0.00015664160401002505,
                "648": 0.00023496240601503758,
                "649": 7.832080200501253e-05,
                "650": 0.0,
                "651": 0.0,
                "652": 7.832080200501253e-05,
                "653": 0.0,
                "654": 0.0,
                "655": 7.832080200501253e-05,
                "656": 0.0,
                "657": 0.0,
                "658": 0.0,
                "659": 0.0,
                "660": 7.832080200501253e-05,
                "661": 0.0,
                "662": 0.00015664160401002505,
                "663": 0.00039160401002506263,
                "664": 0.00015664160401002505,
                "665": 0.0,
                "666": 7.832080200501253e-05,
                "667": 7.832080200501253e-05,
                "668": 7.832080200501253e-05,
                "669": 0.0,
                "670": 0.0,
                "671": 7.832080200501253e-05,
                "672": 0.0,
                "673": 7.832080200501253e-05,
                "674": 7.832080200501253e-05,
                "675": 0.0,
                "676": 7.832080200501253e-05,
                "677": 0.0,
                "678": 0.0,
                "679": 0.0,
                "680": 0.0
            }
        }
    ],
    "nodes": [
        {
            "node_id": 1
        },
        {
            "node_id": 2
        },
        {
            "node_id": 3
        },
        {
            "node_id": 4
        }
    ],
    "n_decimals": 1
}