{
    "constraints": [
        {
            "first_node": 1,
            "max_duration": 30.8,
            "min_duration": 27.9,
            "second_node": 2,
            "type": "stcu_ordinary",
            "ProbabilityDistribution": {
                "279": 0.0015420200462606013,
                "280": 0.0015420200462606013,
                "281": 0.002313030069390902,
                "282": 0.0030840400925212026,
                "283": 0.006939090208172706,
                "284": 0.010023130300693909,
                "285": 0.01079414032382421,
                "286": 0.02313030069390902,
                "287": 0.01927525057825752,
                "288": 0.029298380878951428,
                "289": 0.02081727062451812,
                "290": 0.029298380878951428,
                "291": 0.026985350809560524,
                "292": 0.03700848111025443,
                "293": 0.04548959136468774,
                "294": 0.05011565150346955,
                "295": 0.04934464148033924,
                "296": 0.05628373168851195,
                "297": 0.06630686198920586,
                "298": 0.05551272166538165,
                "299": 0.05011565150346955,
                "300": 0.05782575173477255,
                "301": 0.047802621434078645,
                "302": 0.06399383191981496,
                "303": 0.05397070161912105,
                "304": 0.05088666152659985,
                "305": 0.04240555127216654,
                "306": 0.03084040092521203,
                "307": 0.026985350809560524,
                "308": 0.030069390902081727
            }
        },
        {
            "first_node": 3,
            "max_duration": 35.3,
            "min_duration": 31.9,
            "second_node": 4,
            "type": "stcu_ordinary",
            "ProbabilityDistribution": {
                "319": 0.10058479532163743,
                "320": 0.09707602339181287,
                "321": 0.07134502923976609,
                "322": 0.08771929824561403,
                "323": 0.08187134502923976,
                "324": 0.07017543859649122,
                "325": 0.06783625730994151,
                "326": 0.0608187134502924,
                "327": 0.05146198830409357,
                "328": 0.05964912280701754,
                "329": 0.03274853801169591,
                "330": 0.05380116959064327,
                "331": 0.04093567251461988,
                "332": 0.023391812865497075,
                "333": 0.021052631578947368,
                "334": 0.021052631578947368,
                "335": 0.017543859649122806,
                "336": 0.014035087719298246,
                "337": 0.011695906432748537,
                "338": 0.007017543859649123,
                "339": 0.0023391812865497076,
                "340": 0.0035087719298245615,
                "341": 0.0,
                "342": 0.0,
                "343": 0.0023391812865497076,
                "344": 0.0,
                "345": 0.0,
                "346": 0.0,
                "347": 0.0,
                "348": 0.0,
                "349": 0.0,
                "350": 0.0,
                "351": 0.0,
                "352": 0.0,
                "353": 0.0
            }
        },
        {
            "first_node": 5,
            "max_duration": 61.3,
            "min_duration": 55.4,
            "second_node": 6,
            "type": "stcu_ordinary",
            "ProbabilityDistribution": {
                "554": 0.00039184952978056425,
                "555": 0.00039184952978056425,
                "556": 0.0,
                "557": 0.001959247648902821,
                "558": 0.0011755485893416929,
                "559": 0.0023510971786833857,
                "560": 0.001959247648902821,
                "561": 0.0023510971786833857,
                "562": 0.00274294670846395,
                "563": 0.003134796238244514,
                "564": 0.0035266457680250786,
                "565": 0.004310344827586207,
                "566": 0.0054858934169279,
                "567": 0.003918495297805642,
                "568": 0.007053291536050157,
                "569": 0.005094043887147335,
                "570": 0.005094043887147335,
                "571": 0.009796238244514107,
                "572": 0.006269592476489028,
                "573": 0.006269592476489028,
                "574": 0.005094043887147335,
                "575": 0.011363636363636364,
                "576": 0.01293103448275862,
                "577": 0.014498432601880877,
                "578": 0.012539184952978056,
                "579": 0.014498432601880877,
                "580": 0.016849529780564265,
                "581": 0.019984326018808778,
                "582": 0.019984326018808778,
                "583": 0.0219435736677116,
                "584": 0.0274294670846395,
                "585": 0.019984326018808778,
                "586": 0.024294670846394983,
                "587": 0.02860501567398119,
                "588": 0.0274294670846395,
                "589": 0.02860501567398119,
                "590": 0.02037617554858934,
                "591": 0.03330721003134796,
                "592": 0.029780564263322883,
                "593": 0.026253918495297807,
                "594": 0.030564263322884012,
                "595": 0.03213166144200627,
                "596": 0.03330721003134796,
                "597": 0.03134796238244514,
                "598": 0.03017241379310345,
                "599": 0.02860501567398119,
                "600": 0.0219435736677116,
                "601": 0.027821316614420062,
                "602": 0.023510971786833857,
                "603": 0.03017241379310345,
                "604": 0.025078369905956112,
                "605": 0.031739811912225704,
                "606": 0.02233542319749216,
                "607": 0.023510971786833857,
                "608": 0.02390282131661442,
                "609": 0.026253918495297807,
                "610": 0.02233542319749216,
                "611": 0.014106583072100314,
                "612": 0.016457680250783698,
                "613": 0.01567398119122257
            }
        },
        {
            "first_node": 7,
            "max_duration": 22.6,
            "min_duration": 20.4,
            "second_node": 8,
            "type": "stcu_ordinary",
            "ProbabilityDistribution": {
                "204": 0.005708848715509039,
                "205": 0.010466222645099905,
                "206": 0.019029495718363463,
                "207": 0.016175071360608945,
                "208": 0.019029495718363463,
                "209": 0.03425309229305423,
                "210": 0.04091341579448145,
                "211": 0.047573739295908656,
                "212": 0.04567078972407231,
                "213": 0.0390104662226451,
                "214": 0.06945765937202664,
                "215": 0.06660323501427212,
                "216": 0.07421503330161751,
                "217": 0.07706945765937202,
                "218": 0.071360608943863,
                "219": 0.07326355851569934,
                "220": 0.071360608943863,
                "221": 0.05042816365366318,
                "222": 0.039961941008563276,
                "223": 0.049476688867745006,
                "224": 0.038058991436726926,
                "225": 0.019980970504281638,
                "226": 0.02093244529019981
            }
        },
        {
            "first_node": 9,
            "max_duration": 33.0,
            "min_duration": 29.9,
            "second_node": 10,
            "type": "stcu_ordinary",
            "ProbabilityDistribution": {
                "299": 0.0014925373134328358,
                "300": 0.0007462686567164179,
                "301": 0.0014925373134328358,
                "302": 0.0052238805970149255,
                "303": 0.0037313432835820895,
                "304": 0.0052238805970149255,
                "305": 0.008208955223880597,
                "306": 0.012686567164179104,
                "307": 0.011940298507462687,
                "308": 0.013432835820895522,
                "309": 0.019402985074626865,
                "310": 0.016417910447761194,
                "311": 0.022388059701492536,
                "312": 0.033582089552238806,
                "313": 0.029850746268656716,
                "314": 0.04029850746268657,
                "315": 0.04701492537313433,
                "316": 0.041791044776119404,
                "317": 0.04776119402985075,
                "318": 0.06044776119402985,
                "319": 0.058208955223880594,
                "320": 0.050746268656716415,
                "321": 0.04701492537313433,
                "322": 0.06567164179104477,
                "323": 0.050746268656716415,
                "324": 0.05298507462686567,
                "325": 0.04552238805970149,
                "326": 0.05223880597014925,
                "327": 0.041791044776119404,
                "328": 0.04477611940298507,
                "329": 0.03283582089552239,
                "330": 0.034328358208955224
            }
        },
        {
            "first_node": 11,
            "max_duration": 1000000.0,
            "min_duration": 0.0,
            "second_node": 12,
            "type": "stc"
        },
        {
            "first_node": 13,
            "max_duration": 39.9,
            "min_duration": 36.1,
            "second_node": 14,
            "type": "stcu_ordinary",
            "ProbabilityDistribution": {
                "361": 0.07443682664054849,
                "362": 0.07639569049951028,
                "363": 0.06562193927522038,
                "364": 0.08619000979431929,
                "365": 0.08227228207639568,
                "366": 0.06953966699314397,
                "367": 0.07247796278158668,
                "368": 0.04407443682664055,
                "369": 0.05778648383937316,
                "370": 0.05680705190989226,
                "371": 0.050930460333006855,
                "372": 0.030362389813907934,
                "373": 0.039177277179236046,
                "374": 0.03330068560235064,
                "375": 0.02840352595494613,
                "376": 0.029382957884427033,
                "377": 0.01665034280117532,
                "378": 0.015670910871694418,
                "379": 0.014691478942213516,
                "380": 0.009794319294809012,
                "381": 0.010773751224289911,
                "382": 0.010773751224289911,
                "383": 0.0039177277179236044,
                "384": 0.00881488736532811,
                "385": 0.0019588638589618022,
                "386": 0.0019588638589618022,
                "387": 0.0,
                "388": 0.002938295788442703,
                "389": 0.002938295788442703,
                "390": 0.0,
                "391": 0.0,
                "392": 0.0,
                "393": 0.0009794319294809011,
                "394": 0.0,
                "395": 0.0,
                "396": 0.0009794319294809011,
                "397": 0.0,
                "398": 0.0,
                "399": 0.0
            }
        },
        {
            "first_node": 7,
            "max_duration": 1000000.0,
            "min_duration": 0.0,
            "second_node": 4,
            "type": "stc"
        },
        {
            "first_node": 7,
            "max_duration": 197.2,
            "min_duration": 60.0,
            "second_node": 10,
            "type": "stc"
        },
        {
            "first_node": 15,
            "max_duration": 35.2,
            "min_duration": 31.9,
            "second_node": 12,
            "type": "stcu_ordinary",
            "ProbabilityDistribution": {
                "319": 0.0014265335235378032,
                "320": 0.0014265335235378032,
                "321": 0.003566333808844508,
                "322": 0.0028530670470756064,
                "323": 0.0028530670470756064,
                "324": 0.0042796005706134095,
                "325": 0.004992867332382311,
                "326": 0.007132667617689016,
                "327": 0.014265335235378032,
                "328": 0.012125534950071327,
                "329": 0.012838801711840228,
                "330": 0.011412268188302425,
                "331": 0.014265335235378032,
                "332": 0.021398002853067047,
                "333": 0.02781740370898716,
                "334": 0.028530670470756064,
                "335": 0.03566333808844508,
                "336": 0.03495007132667618,
                "337": 0.037089871611982884,
                "338": 0.04778887303851641,
                "339": 0.047075606276747506,
                "340": 0.05420827389443652,
                "341": 0.042796005706134094,
                "342": 0.05563480741797432,
                "343": 0.0442225392296719,
                "344": 0.05492154065620542,
                "345": 0.05206847360912981,
                "346": 0.047075606276747506,
                "347": 0.05492154065620542,
                "348": 0.04992867332382311,
                "349": 0.05492154065620542,
                "350": 0.03851640513552068,
                "351": 0.039942938659058486,
                "352": 0.037089871611982884
            }
        },
        {
            "first_node": 11,
            "max_duration": 150.2,
            "min_duration": 60.0,
            "second_node": 16,
            "type": "stc"
        },
        {
            "first_node": 17,
            "max_duration": 137.8,
            "min_duration": 60.0,
            "second_node": 18,
            "type": "stc"
        },
        {
            "first_node": 19,
            "max_duration": 36.4,
            "min_duration": 32.9,
            "second_node": 20,
            "type": "stcu_ordinary",
            "ProbabilityDistribution": {
                "329": 0.040123456790123455,
                "330": 0.05324074074074074,
                "331": 0.04938271604938271,
                "332": 0.05632716049382716,
                "333": 0.05478395061728395,
                "334": 0.06558641975308642,
                "335": 0.05864197530864197,
                "336": 0.05478395061728395,
                "337": 0.05709876543209876,
                "338": 0.04552469135802469,
                "339": 0.05709876543209876,
                "340": 0.06018518518518518,
                "341": 0.047839506172839504,
                "342": 0.041666666666666664,
                "343": 0.033179012345679014,
                "344": 0.031635802469135804,
                "345": 0.022376543209876542,
                "346": 0.037037037037037035,
                "347": 0.023148148148148147,
                "348": 0.022376543209876542,
                "349": 0.019290123456790122,
                "350": 0.010802469135802469,
                "351": 0.012345679012345678,
                "352": 0.006944444444444444,
                "353": 0.013117283950617283,
                "354": 0.007716049382716049,
                "355": 0.0038580246913580245,
                "356": 0.0030864197530864196,
                "357": 0.0023148148148148147,
                "358": 0.0015432098765432098,
                "359": 0.0023148148148148147,
                "360": 0.0023148148148148147,
                "361": 0.0015432098765432098,
                "362": 0.0,
                "363": 0.0,
                "364": 0.0007716049382716049
            }
        },
        {
            "first_node": 13,
            "max_duration": 234.2,
            "min_duration": 60.0,
            "second_node": 4,
            "type": "stc"
        },
        {
            "first_node": 17,
            "max_duration": 14.8,
            "min_duration": 13.4,
            "second_node": 21,
            "type": "stcu_ordinary",
            "ProbabilityDistribution": {
                "134": 0.0,
                "135": 0.0,
                "136": 0.0028089887640449437,
                "137": 0.0028089887640449437,
                "138": 0.0028089887640449437,
                "139": 0.011235955056179775,
                "140": 0.0056179775280898875,
                "141": 0.028089887640449437,
                "142": 0.047752808988764044,
                "143": 0.05898876404494382,
                "144": 0.0702247191011236,
                "145": 0.14325842696629212,
                "146": 0.19662921348314608,
                "147": 0.19662921348314608,
                "148": 0.23314606741573032
            }
        },
        {
            "first_node": 13,
            "max_duration": 1000000.0,
            "min_duration": 0.0,
            "second_node": 16,
            "type": "stc"
        },
        {
            "first_node": 14,
            "max_duration": 19.1,
            "min_duration": 7.7,
            "second_node": 22,
            "type": "stc"
        },
        {
            "first_node": 11,
            "max_duration": 41.0,
            "min_duration": 37.1,
            "second_node": 23,
            "type": "stcu_ordinary",
            "ProbabilityDistribution": {
                "371": 0.0007575757575757576,
                "372": 0.0,
                "373": 0.0,
                "374": 0.0,
                "375": 0.0,
                "376": 0.0,
                "377": 0.0015151515151515152,
                "378": 0.0022727272727272726,
                "379": 0.0030303030303030303,
                "380": 0.0007575757575757576,
                "381": 0.0022727272727272726,
                "382": 0.003787878787878788,
                "383": 0.004545454545454545,
                "384": 0.005303030303030303,
                "385": 0.00909090909090909,
                "386": 0.009848484848484848,
                "387": 0.00909090909090909,
                "388": 0.012878787878787878,
                "389": 0.012878787878787878,
                "390": 0.015909090909090907,
                "391": 0.02196969696969697,
                "392": 0.02803030303030303,
                "393": 0.024242424242424242,
                "394": 0.025757575757575757,
                "395": 0.02803030303030303,
                "396": 0.035606060606060606,
                "397": 0.04621212121212121,
                "398": 0.03333333333333333,
                "399": 0.038636363636363635,
                "400": 0.04621212121212121,
                "401": 0.0446969696969697,
                "402": 0.06515151515151515,
                "403": 0.04696969696969697,
                "404": 0.058333333333333334,
                "405": 0.05303030303030303,
                "406": 0.06742424242424243,
                "407": 0.06136363636363636,
                "408": 0.05378787878787879,
                "409": 0.059848484848484845,
                "410": 0.06742424242424243
            }
        },
        {
            "first_node": 23,
            "max_duration": 15.2,
            "min_duration": 3.5,
            "second_node": 24,
            "type": "stc"
        },
        {
            "first_node": 25,
            "max_duration": 162.6,
            "min_duration": 60.0,
            "second_node": 12,
            "type": "stc"
        },
        {
            "first_node": 26,
            "max_duration": 20.6,
            "min_duration": 18.7,
            "second_node": 27,
            "type": "stcu_ordinary",
            "ProbabilityDistribution": {
                "187": 0.05764705882352941,
                "188": 0.06235294117647059,
                "189": 0.06705882352941177,
                "190": 0.07882352941176471,
                "191": 0.08823529411764706,
                "192": 0.08823529411764706,
                "193": 0.07764705882352942,
                "194": 0.07058823529411765,
                "195": 0.0811764705882353,
                "196": 0.07764705882352942,
                "197": 0.05529411764705883,
                "198": 0.05058823529411765,
                "199": 0.04,
                "200": 0.03764705882352941,
                "201": 0.023529411764705882,
                "202": 0.018823529411764704,
                "203": 0.010588235294117647,
                "204": 0.007058823529411765,
                "205": 0.0035294117647058825,
                "206": 0.0035294117647058825
            }
        },
        {
            "first_node": 28,
            "max_duration": 16.0,
            "min_duration": 1.6,
            "second_node": 1,
            "type": "stc"
        },
        {
            "first_node": 25,
            "max_duration": 50.7,
            "min_duration": 45.8,
            "second_node": 28,
            "type": "stcu_ordinary",
            "ProbabilityDistribution": {
                "458": 0.009122502172024326,
                "459": 0.01216333622936577,
                "460": 0.010425716768027803,
                "461": 0.015204170286707211,
                "462": 0.016507384882710686,
                "463": 0.013900955690703735,
                "464": 0.020851433536055605,
                "465": 0.018679409209383144,
                "466": 0.020851433536055605,
                "467": 0.02693310165073849,
                "468": 0.023892267593397045,
                "469": 0.023892267593397045,
                "470": 0.0317115551694179,
                "471": 0.03388357949609035,
                "472": 0.03127715030408341,
                "473": 0.03344917463075586,
                "474": 0.028670721112076455,
                "475": 0.0317115551694179,
                "476": 0.03475238922675934,
                "477": 0.036490008688097306,
                "478": 0.03431798436142485,
                "479": 0.029105125977410946,
                "480": 0.03127715030408341,
                "481": 0.02780191138140747,
                "482": 0.03258036490008688,
                "483": 0.03301476976542137,
                "484": 0.03258036490008688,
                "485": 0.02997393570807993,
                "486": 0.022589052997393572,
                "487": 0.02432667245873154,
                "488": 0.02041702867072111,
                "489": 0.02041702867072111,
                "490": 0.022589052997393572,
                "491": 0.021720243266724587,
                "492": 0.015204170286707211,
                "493": 0.019113814074717638,
                "494": 0.014769765421372719,
                "495": 0.010425716768027803,
                "496": 0.013466550825369244,
                "497": 0.011728931364031277,
                "498": 0.006081668114682885,
                "499": 0.00999131190269331,
                "500": 0.005647263249348393,
                "501": 0.008253692441355343,
                "502": 0.006081668114682885,
                "503": 0.005647263249348393,
                "504": 0.0069504778453518675,
                "505": 0.0030408340573414424,
                "506": 0.0026064291920069507,
                "507": 0.003909643788010426
            }
        },
        {
            "first_node": 21,
            "max_duration": 13.4,
            "min_duration": 9.2,
            "second_node": 5,
            "type": "stc"
        },
        {
            "first_node": 25,
            "max_duration": 1000000.0,
            "min_duration": 0.0,
            "second_node": 18,
            "type": "stc"
        },
        {
            "first_node": 8,
            "max_duration": 12.6,
            "min_duration": 6.2,
            "second_node": 19,
            "type": "stc"
        },
        {
            "first_node": 17,
            "max_duration": 1440.0,
            "min_duration": 0.0,
            "second_node": 10,
            "type": "stc"
        },
        {
            "first_node": 20,
            "max_duration": 19.5,
            "min_duration": 9.1,
            "second_node": 9,
            "type": "stc"
        },
        {
            "first_node": 22,
            "max_duration": 16.8,
            "min_duration": 15.2,
            "second_node": 29,
            "type": "stcu_ordinary",
            "ProbabilityDistribution": {
                "152": 0.151183970856102,
                "153": 0.13296903460837886,
                "154": 0.12021857923497267,
                "155": 0.13296903460837886,
                "156": 0.14025500910746813,
                "157": 0.07650273224043716,
                "158": 0.07468123861566485,
                "159": 0.08378870673952642,
                "160": 0.030965391621129327,
                "161": 0.0273224043715847,
                "162": 0.0036429872495446266,
                "163": 0.014571948998178506,
                "164": 0.00546448087431694,
                "165": 0.0036429872495446266,
                "166": 0.0,
                "167": 0.0,
                "168": 0.0018214936247723133
            }
        },
        {
            "first_node": 29,
            "max_duration": 8.9,
            "min_duration": 4.1,
            "second_node": 26,
            "type": "stc"
        },
        {
            "first_node": 30,
            "max_duration": 49.7,
            "min_duration": 45.0,
            "second_node": 18,
            "type": "stcu_ordinary",
            "ProbabilityDistribution": {
                "450": 0.00048638132295719845,
                "451": 0.00048638132295719845,
                "452": 0.0014591439688715954,
                "453": 0.0009727626459143969,
                "454": 0.0024319066147859923,
                "455": 0.0024319066147859923,
                "456": 0.0029182879377431907,
                "457": 0.0029182879377431907,
                "458": 0.007295719844357977,
                "459": 0.0038910505836575876,
                "460": 0.00632295719844358,
                "461": 0.005836575875486381,
                "462": 0.005350194552529183,
                "463": 0.007782101167315175,
                "464": 0.006809338521400778,
                "465": 0.010214007782101167,
                "466": 0.012159533073929961,
                "467": 0.015077821011673152,
                "468": 0.01556420233463035,
                "469": 0.016536964980544747,
                "470": 0.021400778210116732,
                "471": 0.02480544747081712,
                "472": 0.02091439688715953,
                "473": 0.028696498054474707,
                "474": 0.02529182879377432,
                "475": 0.0311284046692607,
                "476": 0.025778210116731516,
                "477": 0.03356031128404669,
                "478": 0.03356031128404669,
                "479": 0.038910505836575876,
                "480": 0.04182879377431906,
                "481": 0.04377431906614786,
                "482": 0.032101167315175094,
                "483": 0.037937743190661476,
                "484": 0.038910505836575876,
                "485": 0.03696498054474708,
                "486": 0.03939688715953307,
                "487": 0.04231517509727627,
                "488": 0.03988326848249027,
                "489": 0.029182879377431907,
                "490": 0.030155642023346304,
                "491": 0.0325875486381323,
                "492": 0.0306420233463035,
                "493": 0.029182879377431907,
                "494": 0.017023346303501944,
                "495": 0.026750972762645913,
                "496": 0.022859922178988325,
                "497": 0.017509727626459144
            }
        },
        {
            "first_node": 24,
            "max_duration": 41.0,
            "min_duration": 37.1,
            "second_node": 16,
            "type": "stcu_ordinary",
            "ProbabilityDistribution": {
                "371": 0.0010869565217391304,
                "372": 0.005434782608695652,
                "373": 0.007065217391304348,
                "374": 0.004347826086956522,
                "375": 0.005434782608695652,
                "376": 0.013043478260869565,
                "377": 0.007065217391304348,
                "378": 0.010326086956521738,
                "379": 0.019021739130434784,
                "380": 0.015217391304347827,
                "381": 0.021195652173913043,
                "382": 0.01684782608695652,
                "383": 0.035869565217391305,
                "384": 0.02391304347826087,
                "385": 0.02282608695652174,
                "386": 0.028804347826086957,
                "387": 0.03804347826086957,
                "388": 0.0391304347826087,
                "389": 0.04456521739130435,
                "390": 0.03369565217391304,
                "391": 0.0391304347826087,
                "392": 0.03260869565217391,
                "393": 0.04184782608695652,
                "394": 0.04456521739130435,
                "395": 0.03804347826086957,
                "396": 0.043478260869565216,
                "397": 0.04565217391304348,
                "398": 0.04076086956521739,
                "399": 0.044021739130434785,
                "400": 0.029347826086956522,
                "401": 0.029347826086956522,
                "402": 0.035869565217391305,
                "403": 0.026630434782608695,
                "404": 0.03097826086956522,
                "405": 0.01576086956521739,
                "406": 0.01684782608695652,
                "407": 0.01576086956521739,
                "408": 0.014130434782608696,
                "409": 0.01141304347826087,
                "410": 0.010869565217391304
            }
        },
        {
            "first_node": 27,
            "max_duration": 9.4,
            "min_duration": 3.5,
            "second_node": 3,
            "type": "stc"
        },
        {
            "first_node": 2,
            "max_duration": 10.1,
            "min_duration": 1.3,
            "second_node": 15,
            "type": "stc"
        },
        {
            "first_node": 6,
            "max_duration": 26.7,
            "min_duration": 9.2,
            "second_node": 30,
            "type": "stc"
        }
    ],
    "nodes": [
        {
            "node_id": 1
        },
        {
            "node_id": 2
        },
        {
            "node_id": 3
        },
        {
            "node_id": 4
        },
        {
            "node_id": 5
        },
        {
            "node_id": 6
        },
        {
            "node_id": 7
        },
        {
            "node_id": 8
        },
        {
            "node_id": 9
        },
        {
            "node_id": 10
        },
        {
            "node_id": 11
        },
        {
            "node_id": 12
        },
        {
            "node_id": 13
        },
        {
            "node_id": 14
        },
        {
            "node_id": 15
        },
        {
            "node_id": 16
        },
        {
            "node_id": 17
        },
        {
            "node_id": 18
        },
        {
            "node_id": 19
        },
        {
            "node_id": 20
        },
        {
            "node_id": 21
        },
        {
            "node_id": 22
        },
        {
            "node_id": 23
        },
        {
            "node_id": 24
        },
        {
            "node_id": 25
        },
        {
            "node_id": 26
        },
        {
            "node_id": 27
        },
        {
            "node_id": 28
        },
        {
            "node_id": 29
        },
        {
            "node_id": 30
        }
    ],
    "n_decimals": 1
}