{
    "constraints": [
        {
            "first_node": 1,
            "max_duration": 141.5,
            "min_duration": 60.0,
            "second_node": 2,
            "type": "stc"
        },
        {
            "first_node": 3,
            "max_duration": 36.9,
            "min_duration": 33.4,
            "second_node": 4,
            "type": "stcu_ordinary",
            "ProbabilityDistribution": {
                "334": 0.001455604075691412,
                "335": 0.0,
                "336": 0.0,
                "337": 0.000727802037845706,
                "338": 0.0,
                "339": 0.002911208151382824,
                "340": 0.002911208151382824,
                "341": 0.00363901018922853,
                "342": 0.004366812227074236,
                "343": 0.004366812227074236,
                "344": 0.005822416302765648,
                "345": 0.006550218340611353,
                "346": 0.009461426491994178,
                "347": 0.013828238719068414,
                "348": 0.011644832605531296,
                "349": 0.021106259097525473,
                "350": 0.019650655021834062,
                "351": 0.024745269286754003,
                "352": 0.021106259097525473,
                "353": 0.03056768558951965,
                "354": 0.03711790393013101,
                "355": 0.03857350800582242,
                "356": 0.04512372634643377,
                "357": 0.049490538573508006,
                "358": 0.05240174672489083,
                "359": 0.05749636098981077,
                "360": 0.053857350800582245,
                "361": 0.06040756914119359,
                "362": 0.04148471615720524,
                "363": 0.05167394468704512,
                "364": 0.06331877729257641,
                "365": 0.06914119359534207,
                "366": 0.050946142649199416,
                "367": 0.053857350800582245,
                "368": 0.04585152838427948,
                "369": 0.04439592430858806
            }
        },
        {
            "first_node": 5,
            "max_duration": 66.8,
            "min_duration": 60.5,
            "second_node": 6,
            "type": "stcu_ordinary",
            "ProbabilityDistribution": {
                "605": 0.0,
                "606": 0.00047664442326024784,
                "607": 0.00047664442326024784,
                "608": 0.0,
                "609": 0.0,
                "610": 0.0,
                "611": 0.0,
                "612": 0.0,
                "613": 0.0,
                "614": 0.0,
                "615": 0.00047664442326024784,
                "616": 0.0014299332697807435,
                "617": 0.0009532888465204957,
                "618": 0.0009532888465204957,
                "619": 0.0014299332697807435,
                "620": 0.003336510962821735,
                "621": 0.00047664442326024784,
                "622": 0.003336510962821735,
                "623": 0.0023832221163012394,
                "624": 0.002859866539561487,
                "625": 0.0019065776930409914,
                "626": 0.004289799809342231,
                "627": 0.0038131553860819827,
                "628": 0.002859866539561487,
                "629": 0.004289799809342231,
                "630": 0.003336510962821735,
                "631": 0.004289799809342231,
                "632": 0.0038131553860819827,
                "633": 0.008102955195424213,
                "634": 0.005243088655862726,
                "635": 0.008579599618684462,
                "636": 0.012869399428026692,
                "637": 0.006196377502383222,
                "638": 0.012392755004766444,
                "639": 0.014299332697807437,
                "640": 0.016682554814108675,
                "641": 0.01811248808388942,
                "642": 0.01811248808388942,
                "643": 0.01572926596758818,
                "644": 0.029075309818875118,
                "645": 0.030505243088655862,
                "646": 0.0219256434699714,
                "647": 0.019542421353670163,
                "648": 0.026215443279313633,
                "649": 0.023355576739752144,
                "650": 0.027645376549094377,
                "651": 0.028122020972354625,
                "652": 0.03527168732125834,
                "653": 0.029551954242135366,
                "654": 0.028122020972354625,
                "655": 0.029075309818875118,
                "656": 0.034318398474737846,
                "657": 0.03956148713060057,
                "658": 0.03670162059103908,
                "659": 0.043374642516682556,
                "660": 0.033841754051477595,
                "661": 0.04432793136320305,
                "662": 0.03813155386081983,
                "663": 0.03765490943755958,
                "664": 0.03479504289799809,
                "665": 0.03813155386081983,
                "666": 0.033841754051477595,
                "667": 0.037178265014299335,
                "668": 0.03622497616777884
            }
        },
        {
            "first_node": 7,
            "max_duration": 14.2,
            "min_duration": 12.9,
            "second_node": 8,
            "type": "stcu_ordinary",
            "ProbabilityDistribution": {
                "129": 0.0024752475247524753,
                "130": 0.0,
                "131": 0.0024752475247524753,
                "132": 0.007425742574257425,
                "133": 0.01485148514851485,
                "134": 0.024752475247524754,
                "135": 0.034653465346534656,
                "136": 0.04950495049504951,
                "137": 0.06188118811881188,
                "138": 0.10891089108910891,
                "139": 0.1485148514851485,
                "140": 0.1782178217821782,
                "141": 0.1782178217821782,
                "142": 0.18811881188118812
            }
        },
        {
            "first_node": 9,
            "max_duration": 17.7,
            "min_duration": 7.4,
            "second_node": 10,
            "type": "stc"
        },
        {
            "first_node": 11,
            "max_duration": 175.3,
            "min_duration": 60.0,
            "second_node": 12,
            "type": "stc"
        },
        {
            "first_node": 13,
            "max_duration": 56.2,
            "min_duration": 50.9,
            "second_node": 14,
            "type": "stcu_ordinary",
            "ProbabilityDistribution": {
                "509": 0.044061302681992334,
                "510": 0.05363984674329502,
                "511": 0.04533844189016603,
                "512": 0.04342273307790549,
                "513": 0.04789272030651341,
                "514": 0.05044699872286079,
                "515": 0.05236270753512133,
                "516": 0.05747126436781609,
                "517": 0.04853128991060025,
                "518": 0.05427841634738186,
                "519": 0.05236270753512133,
                "520": 0.04086845466155811,
                "521": 0.03959131545338442,
                "522": 0.044061302681992334,
                "523": 0.033205619412515965,
                "524": 0.027458492975734355,
                "525": 0.027458492975734355,
                "526": 0.031928480204342274,
                "527": 0.026181353767560665,
                "528": 0.0210727969348659,
                "529": 0.016602809706257982,
                "530": 0.017241379310344827,
                "531": 0.010855683269476373,
                "532": 0.010855683269476373,
                "533": 0.015964240102171137,
                "534": 0.01532567049808429,
                "535": 0.008301404853128991,
                "536": 0.011494252873563218,
                "537": 0.008301404853128991,
                "538": 0.009578544061302681,
                "539": 0.007662835249042145,
                "540": 0.005747126436781609,
                "541": 0.002554278416347382,
                "542": 0.001277139208173691,
                "543": 0.001277139208173691,
                "544": 0.0006385696040868455,
                "545": 0.001277139208173691,
                "546": 0.0019157088122605363,
                "547": 0.0019157088122605363,
                "548": 0.0031928480204342275,
                "549": 0.0006385696040868455,
                "550": 0.0,
                "551": 0.0006385696040868455,
                "552": 0.0006385696040868455,
                "553": 0.0019157088122605363,
                "554": 0.0006385696040868455,
                "555": 0.0006385696040868455,
                "556": 0.0006385696040868455,
                "557": 0.0,
                "558": 0.0,
                "559": 0.0,
                "560": 0.0006385696040868455,
                "561": 0.0,
                "562": 0.0
            }
        },
        {
            "first_node": 15,
            "max_duration": 18.6,
            "min_duration": 1.9,
            "second_node": 16,
            "type": "stc"
        },
        {
            "first_node": 17,
            "max_duration": 28.9,
            "min_duration": 26.2,
            "second_node": 2,
            "type": "stcu_ordinary",
            "ProbabilityDistribution": {
                "262": 0.012568735271013355,
                "263": 0.012568735271013355,
                "264": 0.014925373134328358,
                "265": 0.022780832678711706,
                "266": 0.036920659858601726,
                "267": 0.032992930086410056,
                "268": 0.04241948153967007,
                "269": 0.04241948153967007,
                "270": 0.04477611940298507,
                "271": 0.05263157894736842,
                "272": 0.05577376276512176,
                "273": 0.05263157894736842,
                "274": 0.06755695208169678,
                "275": 0.05106048703849175,
                "276": 0.06598586017282011,
                "277": 0.05341712490180676,
                "278": 0.06441476826394343,
                "279": 0.051846032992930086,
                "280": 0.04241948153967007,
                "281": 0.03220738413197172,
                "282": 0.02749410840534171,
                "283": 0.037706205813040065,
                "284": 0.02356637863315004,
                "285": 0.01728201099764336,
                "286": 0.015710919088766692,
                "287": 0.010997643362136685,
                "288": 0.01021209740769835,
                "289": 0.004713275726630008
            }
        },
        {
            "first_node": 18,
            "max_duration": 18.3,
            "min_duration": 5.1,
            "second_node": 19,
            "type": "stc"
        },
        {
            "first_node": 20,
            "max_duration": 213.9,
            "min_duration": 60.0,
            "second_node": 14,
            "type": "stc"
        },
        {
            "first_node": 16,
            "max_duration": 58.4,
            "min_duration": 52.8,
            "second_node": 12,
            "type": "stcu_ordinary",
            "ProbabilityDistribution": {
                "528": 0.010168165819319515,
                "529": 0.009385999217833398,
                "530": 0.012905748924520923,
                "531": 0.018771998435666796,
                "532": 0.015252248728979272,
                "533": 0.019163081736409855,
                "534": 0.021509581540868204,
                "535": 0.02033633163863903,
                "536": 0.025029331247555728,
                "537": 0.026202581149784906,
                "538": 0.022291748142354323,
                "539": 0.026202581149784906,
                "540": 0.01759874853343762,
                "541": 0.028549080954243255,
                "542": 0.025811497849041846,
                "543": 0.02894016425498631,
                "544": 0.02894016425498631,
                "545": 0.02972233085647243,
                "546": 0.03441533046538913,
                "547": 0.03128666405944466,
                "548": 0.028157997653500196,
                "549": 0.028157997653500196,
                "550": 0.024247164646069613,
                "551": 0.035588580367618305,
                "552": 0.02933124755572937,
                "553": 0.03128666405944466,
                "554": 0.028549080954243255,
                "555": 0.025811497849041846,
                "556": 0.02894016425498631,
                "557": 0.02737583105201408,
                "558": 0.030504497457958545,
                "559": 0.023856081345326553,
                "560": 0.02033633163863903,
                "561": 0.018771998435666796,
                "562": 0.014861165428236215,
                "563": 0.01994524833789597,
                "564": 0.014861165428236215,
                "565": 0.014470082127493155,
                "566": 0.009777082518576457,
                "567": 0.014078998826750098,
                "568": 0.011732499022291749,
                "569": 0.010559249120062574,
                "570": 0.00899491591709034,
                "571": 0.005475166210402816,
                "572": 0.007430582714118107,
                "573": 0.005866249511145874,
                "574": 0.006257332811888932,
                "575": 0.005084082909659757,
                "576": 0.0011732499022291747,
                "577": 0.004301916308173641,
                "578": 0.001564333202972233,
                "579": 0.003128666405944466,
                "580": 0.0007821666014861165,
                "581": 0.003910833007430583,
                "582": 0.0,
                "583": 0.0007821666014861165,
                "584": 0.001564333202972233
            }
        },
        {
            "first_node": 10,
            "max_duration": 74.4,
            "min_duration": 67.3,
            "second_node": 21,
            "type": "stcu_ordinary",
            "ProbabilityDistribution": {
                "673": 0.0,
                "674": 0.0003595828838547285,
                "675": 0.0,
                "676": 0.0,
                "677": 0.0003595828838547285,
                "678": 0.0,
                "679": 0.0003595828838547285,
                "680": 0.000719165767709457,
                "681": 0.000719165767709457,
                "682": 0.0003595828838547285,
                "683": 0.0003595828838547285,
                "684": 0.001438331535418914,
                "685": 0.0003595828838547285,
                "686": 0.0017979144192736426,
                "687": 0.0017979144192736426,
                "688": 0.003236245954692557,
                "689": 0.001438331535418914,
                "690": 0.0017979144192736426,
                "691": 0.003595828838547285,
                "692": 0.0025170801869830997,
                "693": 0.0025170801869830997,
                "694": 0.003595828838547285,
                "695": 0.002157497303128371,
                "696": 0.006112909025530385,
                "697": 0.003595828838547285,
                "698": 0.006472491909385114,
                "699": 0.005393743257820928,
                "700": 0.005753326141675656,
                "701": 0.004674577490111471,
                "702": 0.0068320747932398415,
                "703": 0.010427903631787127,
                "704": 0.011866235167206042,
                "705": 0.011506652283351312,
                "706": 0.01222581805106077,
                "707": 0.012585400934915498,
                "708": 0.01654081265731751,
                "709": 0.016181229773462782,
                "710": 0.016181229773462782,
                "711": 0.01438331535418914,
                "712": 0.020496224379719527,
                "713": 0.015462064005753326,
                "714": 0.02229413879899317,
                "715": 0.02193455591513844,
                "716": 0.018698309960445882,
                "717": 0.020496224379719527,
                "718": 0.02445163610212154,
                "719": 0.02481121898597627,
                "720": 0.02409205321826681,
                "721": 0.02660913340524991,
                "722": 0.027328299172959366,
                "723": 0.030564545127651922,
                "724": 0.023013304566702624,
                "725": 0.025530384753685725,
                "726": 0.02660913340524991,
                "727": 0.02229413879899317,
                "728": 0.02660913340524991,
                "729": 0.023372887450557354,
                "730": 0.029485796476087737,
                "731": 0.02840704782452355,
                "732": 0.025889967637540454,
                "733": 0.027687882056814096,
                "734": 0.02409205321826681,
                "735": 0.029485796476087737,
                "736": 0.02660913340524991,
                "737": 0.032362459546925564,
                "738": 0.02660913340524991,
                "739": 0.02193455591513844,
                "740": 0.021215390147428983,
                "741": 0.020855807263574253,
                "742": 0.027328299172959366,
                "743": 0.02229413879899317,
                "744": 0.020855807263574253
            }
        },
        {
            "first_node": 22,
            "max_duration": 24.6,
            "min_duration": 9.7,
            "second_node": 17,
            "type": "stc"
        },
        {
            "first_node": 11,
            "max_duration": 58.4,
            "min_duration": 52.8,
            "second_node": 15,
            "type": "stcu_ordinary",
            "ProbabilityDistribution": {
                "528": 0.010542168674698794,
                "529": 0.008283132530120483,
                "530": 0.008283132530120483,
                "531": 0.013177710843373495,
                "532": 0.011295180722891566,
                "533": 0.01581325301204819,
                "534": 0.016566265060240965,
                "535": 0.01430722891566265,
                "536": 0.02033132530120482,
                "537": 0.017695783132530122,
                "538": 0.028990963855421686,
                "539": 0.021460843373493976,
                "540": 0.022213855421686746,
                "541": 0.02033132530120482,
                "542": 0.02296686746987952,
                "543": 0.025225903614457833,
                "544": 0.024849397590361446,
                "545": 0.02635542168674699,
                "546": 0.025978915662650603,
                "547": 0.029743975903614456,
                "548": 0.026731927710843373,
                "549": 0.03049698795180723,
                "550": 0.040286144578313254,
                "551": 0.0286144578313253,
                "552": 0.03125,
                "553": 0.030873493975903613,
                "554": 0.025225903614457833,
                "555": 0.026731927710843373,
                "556": 0.02786144578313253,
                "557": 0.030120481927710843,
                "558": 0.027484939759036143,
                "559": 0.023343373493975902,
                "560": 0.02371987951807229,
                "561": 0.02371987951807229,
                "562": 0.025602409638554216,
                "563": 0.02371987951807229,
                "564": 0.015060240963855422,
                "565": 0.01581325301204819,
                "566": 0.016566265060240965,
                "567": 0.010542168674698794,
                "568": 0.015060240963855422,
                "569": 0.01581325301204819,
                "570": 0.008283132530120483,
                "571": 0.00941265060240964,
                "572": 0.010542168674698794,
                "573": 0.00677710843373494,
                "574": 0.006024096385542169,
                "575": 0.006024096385542169,
                "576": 0.007906626506024096,
                "577": 0.006400602409638554,
                "578": 0.00338855421686747,
                "579": 0.004141566265060241,
                "580": 0.00338855421686747,
                "581": 0.002259036144578313,
                "582": 0.0015060240963855422,
                "583": 0.0030120481927710845,
                "584": 0.0018825301204819277
            }
        },
        {
            "first_node": 7,
            "max_duration": 1440.0,
            "min_duration": 0.0,
            "second_node": 4,
            "type": "stc"
        },
        {
            "first_node": 23,
            "max_duration": 6.8,
            "min_duration": 6.2,
            "second_node": 24,
            "type": "stcu_ordinary",
            "ProbabilityDistribution": {
                "62": 0.0,
                "63": 0.0,
                "64": 0.05045871559633028,
                "65": 0.0871559633027523,
                "66": 0.21559633027522937,
                "67": 0.30275229357798167,
                "68": 0.3440366972477064
            }
        },
        {
            "first_node": 8,
            "max_duration": 12.6,
            "min_duration": 8.5,
            "second_node": 25,
            "type": "stc"
        },
        {
            "first_node": 26,
            "max_duration": 66.8,
            "min_duration": 60.5,
            "second_node": 27,
            "type": "stcu_ordinary",
            "ProbabilityDistribution": {
                "605": 0.024179620034542316,
                "606": 0.023747841105354058,
                "607": 0.03151986183074266,
                "608": 0.028065630397236616,
                "609": 0.034974093264248704,
                "610": 0.02936096718480138,
                "611": 0.03151986183074266,
                "612": 0.034110535405872194,
                "613": 0.028929188255613126,
                "614": 0.037132987910189985,
                "615": 0.028929188255613126,
                "616": 0.02677029360967185,
                "617": 0.04058721934369603,
                "618": 0.02936096718480138,
                "619": 0.03842832469775475,
                "620": 0.03065630397236615,
                "621": 0.03540587219343696,
                "622": 0.034110535405872194,
                "623": 0.033246977547495685,
                "624": 0.028065630397236616,
                "625": 0.02677029360967185,
                "626": 0.031088082901554404,
                "627": 0.02461139896373057,
                "628": 0.029792746113989636,
                "629": 0.02461139896373057,
                "630": 0.017271157167530225,
                "631": 0.018134715025906734,
                "632": 0.018566493955094993,
                "633": 0.022884283246977548,
                "634": 0.012953367875647668,
                "635": 0.014248704663212436,
                "636": 0.008635578583765112,
                "637": 0.017271157167530225,
                "638": 0.01468048359240069,
                "639": 0.011226252158894647,
                "640": 0.009067357512953367,
                "641": 0.008635578583765112,
                "642": 0.0069084628670120895,
                "643": 0.008203799654576857,
                "644": 0.0069084628670120895,
                "645": 0.004317789291882556,
                "646": 0.0038860103626943004,
                "647": 0.002158894645941278,
                "648": 0.004749568221070812,
                "649": 0.0034542314335060447,
                "650": 0.004317789291882556,
                "651": 0.0025906735751295338,
                "652": 0.0025906735751295338,
                "653": 0.0030224525043177895,
                "654": 0.0004317789291882556,
                "655": 0.0008635578583765112,
                "656": 0.0008635578583765112,
                "657": 0.0012953367875647669,
                "658": 0.0012953367875647669,
                "659": 0.0012953367875647669,
                "660": 0.0004317789291882556,
                "661": 0.0,
                "662": 0.0,
                "663": 0.0004317789291882556,
                "664": 0.0,
                "665": 0.0004317789291882556,
                "666": 0.0,
                "667": 0.0,
                "668": 0.0
            }
        },
        {
            "first_node": 25,
            "max_duration": 44.4,
            "min_duration": 40.2,
            "second_node": 28,
            "type": "stcu_ordinary",
            "ProbabilityDistribution": {
                "402": 0.05877742946708464,
                "403": 0.07053291536050156,
                "404": 0.05877742946708464,
                "405": 0.07445141065830721,
                "406": 0.050940438871473356,
                "407": 0.05721003134796238,
                "408": 0.06191222570532915,
                "409": 0.05721003134796238,
                "410": 0.04780564263322884,
                "411": 0.05172413793103448,
                "412": 0.041536050156739814,
                "413": 0.04780564263322884,
                "414": 0.03683385579937304,
                "415": 0.039968652037617555,
                "416": 0.0274294670846395,
                "417": 0.03526645768025078,
                "418": 0.025078369905956112,
                "419": 0.02586206896551724,
                "420": 0.02115987460815047,
                "421": 0.02115987460815047,
                "422": 0.017241379310344827,
                "423": 0.01018808777429467,
                "424": 0.009404388714733543,
                "425": 0.011755485893416929,
                "426": 0.009404388714733543,
                "427": 0.006269592476489028,
                "428": 0.0054858934169279,
                "429": 0.001567398119122257,
                "430": 0.003134796238244514,
                "431": 0.003918495297805642,
                "432": 0.0023510971786833857,
                "433": 0.001567398119122257,
                "434": 0.001567398119122257,
                "435": 0.003134796238244514,
                "436": 0.0,
                "437": 0.0007836990595611285,
                "438": 0.0,
                "439": 0.0,
                "440": 0.0007836990595611285,
                "441": 0.0,
                "442": 0.0,
                "443": 0.0,
                "444": 0.0
            }
        },
        {
            "first_node": 20,
            "max_duration": 35.8,
            "min_duration": 32.4,
            "second_node": 9,
            "type": "stcu_ordinary",
            "ProbabilityDistribution": {
                "324": 0.04938271604938271,
                "325": 0.06613756613756613,
                "326": 0.07671957671957672,
                "327": 0.07495590828924162,
                "328": 0.05555555555555555,
                "329": 0.06966490299823633,
                "330": 0.07848324514991181,
                "331": 0.06790123456790123,
                "332": 0.05026455026455026,
                "333": 0.05731922398589065,
                "334": 0.04585537918871252,
                "335": 0.04585537918871252,
                "336": 0.03439153439153439,
                "337": 0.037037037037037035,
                "338": 0.03439153439153439,
                "339": 0.029982363315696647,
                "340": 0.030864197530864196,
                "341": 0.021164021164021163,
                "342": 0.01763668430335097,
                "343": 0.010582010582010581,
                "344": 0.013227513227513227,
                "345": 0.009700176366843033,
                "346": 0.006172839506172839,
                "347": 0.005291005291005291,
                "348": 0.005291005291005291,
                "349": 0.001763668430335097,
                "350": 0.0008818342151675485,
                "351": 0.001763668430335097,
                "352": 0.001763668430335097,
                "353": 0.0,
                "354": 0.0,
                "355": 0.0,
                "356": 0.0,
                "357": 0.0,
                "358": 0.0
            }
        },
        {
            "first_node": 19,
            "max_duration": 52.2,
            "min_duration": 47.2,
            "second_node": 22,
            "type": "stcu_ordinary",
            "ProbabilityDistribution": {
                "472": 0.03993250843644545,
                "473": 0.045556805399325086,
                "474": 0.04161979752530934,
                "475": 0.047806524184476944,
                "476": 0.04274465691788527,
                "477": 0.05455568053993251,
                "478": 0.0421822272215973,
                "479": 0.0359955005624297,
                "480": 0.046681664791901015,
                "481": 0.04049493813273341,
                "482": 0.04049493813273341,
                "483": 0.04161979752530934,
                "484": 0.04105736782902137,
                "485": 0.04611923509561305,
                "486": 0.03768278965129359,
                "487": 0.02924634420697413,
                "488": 0.033183352080989874,
                "489": 0.0359955005624297,
                "490": 0.03093363329583802,
                "491": 0.024746906636670417,
                "492": 0.023059617547806523,
                "493": 0.021372328458942633,
                "494": 0.021372328458942633,
                "495": 0.01799775028121485,
                "496": 0.014623172103487065,
                "497": 0.012373453318335208,
                "498": 0.008998875140607425,
                "499": 0.01124859392575928,
                "500": 0.007311586051743532,
                "501": 0.012935883014623173,
                "502": 0.00843644544431946,
                "503": 0.007311586051743532,
                "504": 0.007874015748031496,
                "505": 0.003374578177727784,
                "506": 0.006749156355455568,
                "507": 0.0044994375703037125,
                "508": 0.0011248593925759281,
                "509": 0.0005624296962879641,
                "510": 0.003937007874015748,
                "511": 0.0011248593925759281,
                "512": 0.0011248593925759281,
                "513": 0.0005624296962879641,
                "514": 0.0005624296962879641,
                "515": 0.0005624296962879641,
                "516": 0.0005624296962879641,
                "517": 0.0005624296962879641,
                "518": 0.0005624296962879641,
                "519": 0.0,
                "520": 0.0,
                "521": 0.0,
                "522": 0.0005624296962879641
            }
        },
        {
            "first_node": 21,
            "max_duration": 22.1,
            "min_duration": 0.9,
            "second_node": 13,
            "type": "stc"
        },
        {
            "first_node": 24,
            "max_duration": 7.2,
            "min_duration": 5.2,
            "second_node": 3,
            "type": "stc"
        },
        {
            "first_node": 27,
            "max_duration": 27.4,
            "min_duration": 8.3,
            "second_node": 5,
            "type": "stc"
        },
        {
            "first_node": 1,
            "max_duration": 46.4,
            "min_duration": 42.0,
            "second_node": 18,
            "type": "stcu_ordinary",
            "ProbabilityDistribution": {
                "420": 0.0076372315035799524,
                "421": 0.010978520286396181,
                "422": 0.008591885441527447,
                "423": 0.012887828162291169,
                "424": 0.010978520286396181,
                "425": 0.015274463007159905,
                "426": 0.014797136038186158,
                "427": 0.021479713603818614,
                "428": 0.021479713603818614,
                "429": 0.025298329355608593,
                "430": 0.021957040572792363,
                "431": 0.02720763723150358,
                "432": 0.03389021479713604,
                "433": 0.028639618138424822,
                "434": 0.031026252983293555,
                "435": 0.037231503579952266,
                "436": 0.04248210023866349,
                "437": 0.03198090692124105,
                "438": 0.03866348448687351,
                "439": 0.043914081145584725,
                "440": 0.04009546539379475,
                "441": 0.037231503579952266,
                "442": 0.03866348448687351,
                "443": 0.032458233890214794,
                "444": 0.029116945107398567,
                "445": 0.037708830548926014,
                "446": 0.03007159904534606,
                "447": 0.03436754176610979,
                "448": 0.021479713603818614,
                "449": 0.031026252983293555,
                "450": 0.026252983293556086,
                "451": 0.021957040572792363,
                "452": 0.02052505966587112,
                "453": 0.015751789976133652,
                "454": 0.016706443914081145,
                "455": 0.016706443914081145,
                "456": 0.012410501193317422,
                "457": 0.011933174224343675,
                "458": 0.008591885441527447,
                "459": 0.008591885441527447,
                "460": 0.007159904534606206,
                "461": 0.005727923627684964,
                "462": 0.0019093078758949881,
                "463": 0.002386634844868735,
                "464": 0.00477326968973747
            }
        },
        {
            "first_node": 26,
            "max_duration": 1440.0,
            "min_duration": 0.0,
            "second_node": 6,
            "type": "stc"
        },
        {
            "first_node": 28,
            "max_duration": 21.1,
            "min_duration": 8.4,
            "second_node": 23,
            "type": "stc"
        }
    ],
    "nodes": [
        {
            "node_id": 1
        },
        {
            "node_id": 2
        },
        {
            "node_id": 3
        },
        {
            "node_id": 4
        },
        {
            "node_id": 5
        },
        {
            "node_id": 6
        },
        {
            "node_id": 7
        },
        {
            "node_id": 8
        },
        {
            "node_id": 9
        },
        {
            "node_id": 10
        },
        {
            "node_id": 11
        },
        {
            "node_id": 12
        },
        {
            "node_id": 13
        },
        {
            "node_id": 14
        },
        {
            "node_id": 15
        },
        {
            "node_id": 16
        },
        {
            "node_id": 17
        },
        {
            "node_id": 18
        },
        {
            "node_id": 19
        },
        {
            "node_id": 20
        },
        {
            "node_id": 21
        },
        {
            "node_id": 22
        },
        {
            "node_id": 23
        },
        {
            "node_id": 24
        },
        {
            "node_id": 25
        },
        {
            "node_id": 26
        },
        {
            "node_id": 27
        },
        {
            "node_id": 28
        }
    ],
    "n_decimals": 1
}