{
    "constraints": [
        {
            "first_node": 1,
            "max_duration": 32.7,
            "min_duration": 26.8,
            "second_node": 2,
            "type": "stcu_ordinary",
            "ProbabilityDistribution": {
                "268": 0.03100088573959256,
                "269": 0.02612931798051373,
                "270": 0.03277236492471213,
                "271": 0.02878653675819309,
                "272": 0.030115146147032774,
                "273": 0.03277236492471213,
                "274": 0.03675819309123118,
                "275": 0.03587245349867139,
                "276": 0.037643932683790966,
                "277": 0.027015057573073518,
                "278": 0.03100088573959256,
                "279": 0.033215234720992026,
                "280": 0.03100088573959256,
                "281": 0.034100974313551816,
                "282": 0.03365810451727192,
                "283": 0.032329495128432244,
                "284": 0.03897254207263064,
                "285": 0.034986713906111605,
                "286": 0.03454384410983171,
                "287": 0.0283436669619132,
                "288": 0.034100974313551816,
                "289": 0.021700620017714792,
                "290": 0.025686448184233834,
                "291": 0.023472099202834367,
                "292": 0.02037201062887511,
                "293": 0.01682905225863596,
                "294": 0.019929140832595216,
                "295": 0.01771479185119575,
                "296": 0.02037201062887511,
                "297": 0.01815766164747564,
                "298": 0.013728963684676704,
                "299": 0.014614703277236492,
                "300": 0.012843224092116917,
                "301": 0.010186005314437556,
                "302": 0.010186005314437556,
                "303": 0.006643046944198406,
                "304": 0.005314437555358724,
                "305": 0.005314437555358724,
                "306": 0.007971656333038087,
                "307": 0.005757307351638618,
                "308": 0.007528786536758193,
                "309": 0.0044286979627989375,
                "310": 0.005314437555358724,
                "311": 0.003100088573959256,
                "312": 0.0044286979627989375,
                "313": 0.0022143489813994687,
                "314": 0.002657218777679362,
                "315": 0.001771479185119575,
                "316": 0.001328609388839681,
                "317": 0.0022143489813994687,
                "318": 0.0008857395925597874,
                "319": 0.0004428697962798937,
                "320": 0.0004428697962798937,
                "321": 0.0004428697962798937,
                "322": 0.0004428697962798937,
                "323": 0.0,
                "324": 0.0004428697962798937,
                "325": 0.0,
                "326": 0.0,
                "327": 0.0
            }
        },
        {
            "first_node": 3,
            "max_duration": 1000000.0,
            "min_duration": 0.0,
            "second_node": 2,
            "type": "stc"
        },
        {
            "first_node": 4,
            "max_duration": 15.3,
            "min_duration": 2.2,
            "second_node": 5,
            "type": "stc"
        },
        {
            "first_node": 6,
            "max_duration": 141.0,
            "min_duration": 60.0,
            "second_node": 7,
            "type": "stc"
        },
        {
            "first_node": 8,
            "max_duration": 20.8,
            "min_duration": 3.6,
            "second_node": 9,
            "type": "stc"
        },
        {
            "first_node": 3,
            "max_duration": 31.3,
            "min_duration": 25.6,
            "second_node": 10,
            "type": "stcu_ordinary",
            "ProbabilityDistribution": {
                "256": 0.0007733952049497294,
                "257": 0.0003866976024748647,
                "258": 0.0015467904098994587,
                "259": 0.0007733952049497294,
                "260": 0.0015467904098994587,
                "261": 0.0015467904098994587,
                "262": 0.002320185614849188,
                "263": 0.0027068832173240526,
                "264": 0.0034802784222737818,
                "265": 0.004253673627223511,
                "266": 0.005027068832173241,
                "267": 0.00580046403712297,
                "268": 0.007347254447022429,
                "269": 0.006573859242072699,
                "270": 0.008120649651972157,
                "271": 0.010054137664346482,
                "272": 0.008507347254447023,
                "273": 0.013147718484145398,
                "274": 0.010440835266821345,
                "275": 0.01237432327919567,
                "276": 0.014307811291569992,
                "277": 0.01817478731631864,
                "278": 0.016627996906419182,
                "279": 0.02088167053364269,
                "280": 0.016241299303944315,
                "281": 0.019334880123743233,
                "282": 0.02242846094354215,
                "283": 0.025522041763341066,
                "284": 0.021268368136117557,
                "285": 0.027068832173240527,
                "286": 0.03209590100541377,
                "287": 0.02745552977571539,
                "288": 0.03248259860788863,
                "289": 0.02977571539056458,
                "290": 0.026295436968290797,
                "291": 0.02745552977571539,
                "292": 0.030162412993039442,
                "293": 0.02977571539056458,
                "294": 0.029002320185614848,
                "295": 0.0317092034029389,
                "296": 0.0317092034029389,
                "297": 0.028615622583139984,
                "298": 0.025522041763341066,
                "299": 0.027842227378190254,
                "300": 0.02745552977571539,
                "301": 0.02474864655839134,
                "302": 0.026295436968290797,
                "303": 0.019334880123743233,
                "304": 0.02242846094354215,
                "305": 0.02088167053364269,
                "306": 0.02474864655839134,
                "307": 0.022815158546017015,
                "308": 0.01817478731631864,
                "309": 0.018561484918793503,
                "310": 0.016627996906419182,
                "311": 0.009667440061871617,
                "312": 0.013147718484145398,
                "313": 0.016627996906419182
            }
        },
        {
            "first_node": 11,
            "max_duration": 11.7,
            "min_duration": 2.7,
            "second_node": 1,
            "type": "stc"
        },
        {
            "first_node": 12,
            "max_duration": 1000000.0,
            "min_duration": 0.0,
            "second_node": 13,
            "type": "stc"
        },
        {
            "first_node": 14,
            "max_duration": 49.0,
            "min_duration": 40.1,
            "second_node": 15,
            "type": "stcu_ordinary",
            "ProbabilityDistribution": {
                "401": 0.005684626791893228,
                "402": 0.007414730598121601,
                "403": 0.008897676717745922,
                "404": 0.009886307464162136,
                "405": 0.009391992090954029,
                "406": 0.011122095897182402,
                "407": 0.011122095897182402,
                "408": 0.009391992090954029,
                "409": 0.013593672763222936,
                "410": 0.013593672763222936,
                "411": 0.014087988136431043,
                "412": 0.012605042016806723,
                "413": 0.013346515076618883,
                "414": 0.01384083044982699,
                "415": 0.01458230350963915,
                "416": 0.018042511122095897,
                "417": 0.019278299555116164,
                "418": 0.016312407315867524,
                "419": 0.018042511122095897,
                "420": 0.018783984181908058,
                "421": 0.018042511122095897,
                "422": 0.01680672268907563,
                "423": 0.021749876421156698,
                "424": 0.01606524962926347,
                "425": 0.020019772614928325,
                "426": 0.019772614928324272,
                "427": 0.020019772614928325,
                "428": 0.018536826495304005,
                "429": 0.017053880375679682,
                "430": 0.023232822540781017,
                "431": 0.01903114186851211,
                "432": 0.01828966880869995,
                "433": 0.018042511122095897,
                "434": 0.01606524962926347,
                "435": 0.017795353435491844,
                "436": 0.018783984181908058,
                "437": 0.01458230350963915,
                "438": 0.018042511122095897,
                "439": 0.01680672268907563,
                "440": 0.020266930301532378,
                "441": 0.01828966880869995,
                "442": 0.014829461196243203,
                "443": 0.01903114186851211,
                "444": 0.018783984181908058,
                "445": 0.015818091942659415,
                "446": 0.012605042016806723,
                "447": 0.015570934256055362,
                "448": 0.015818091942659415,
                "449": 0.015570934256055362,
                "450": 0.013346515076618883,
                "451": 0.013593672763222936,
                "452": 0.008897676717745922,
                "453": 0.011616411270390509,
                "454": 0.011863568956994563,
                "455": 0.015570934256055362,
                "456": 0.009391992090954029,
                "457": 0.009144834404349975,
                "458": 0.010627780523974296,
                "459": 0.011122095897182402,
                "460": 0.008403361344537815,
                "461": 0.007661888284725655,
                "462": 0.006426099851705388,
                "463": 0.008403361344537815,
                "464": 0.005684626791893228,
                "465": 0.007414730598121601,
                "466": 0.006426099851705388,
                "467": 0.007167572911517549,
                "468": 0.005190311418685121,
                "469": 0.004943153732081068,
                "470": 0.0037073652990608007,
                "471": 0.002718734552644587,
                "472": 0.0037073652990608007,
                "473": 0.0034602076124567475,
                "474": 0.002718734552644587,
                "475": 0.001977261492832427,
                "476": 0.002965892239248641,
                "477": 0.0022244191794364805,
                "478": 0.001977261492832427,
                "479": 0.0022244191794364805,
                "480": 0.002471576866040534,
                "481": 0.001235788433020267,
                "482": 0.0034602076124567475,
                "483": 0.001235788433020267,
                "484": 0.001235788433020267,
                "485": 0.001977261492832427,
                "486": 0.0007414730598121602,
                "487": 0.0014829461196243204,
                "488": 0.0004943153732081067,
                "489": 0.0004943153732081067,
                "490": 0.00024715768660405336
            }
        },
        {
            "first_node": 12,
            "max_duration": 47.7,
            "min_duration": 39.0,
            "second_node": 16,
            "type": "stcu_ordinary",
            "ProbabilityDistribution": {
                "390": 0.0007676560900716479,
                "391": 0.0,
                "392": 0.00025588536335721597,
                "393": 0.0010235414534288639,
                "394": 0.0017911975435005118,
                "395": 0.0017911975435005118,
                "396": 0.0017911975435005118,
                "397": 0.00127942681678608,
                "398": 0.0017911975435005118,
                "399": 0.00127942681678608,
                "400": 0.0015353121801432957,
                "401": 0.0010235414534288639,
                "402": 0.0017911975435005118,
                "403": 0.00127942681678608,
                "404": 0.0038382804503582393,
                "405": 0.0033265097236438077,
                "406": 0.0020470829068577278,
                "407": 0.0015353121801432957,
                "408": 0.0028147389969293756,
                "409": 0.00255885363357216,
                "410": 0.0038382804503582393,
                "411": 0.0040941658137154556,
                "412": 0.004861821903787103,
                "413": 0.0053735926305015355,
                "414": 0.005629477993858751,
                "415": 0.004605936540429887,
                "416": 0.0035823950870010235,
                "417": 0.005629477993858751,
                "418": 0.008700102354145343,
                "419": 0.007164790174002047,
                "420": 0.008188331627430911,
                "421": 0.008188331627430911,
                "422": 0.007164790174002047,
                "423": 0.01151484135107472,
                "424": 0.012282497441146366,
                "425": 0.012026612077789151,
                "426": 0.011770726714431934,
                "427": 0.013050153531218014,
                "428": 0.016376663254861822,
                "429": 0.012026612077789151,
                "430": 0.013050153531218014,
                "431": 0.0127942681678608,
                "432": 0.0127942681678608,
                "433": 0.01330603889457523,
                "434": 0.015097236438075742,
                "435": 0.013050153531218014,
                "436": 0.016888433981576252,
                "437": 0.013817809621289662,
                "438": 0.019447287615148412,
                "439": 0.01791197543500512,
                "440": 0.019959058341862845,
                "441": 0.01586489252814739,
                "442": 0.016888433981576252,
                "443": 0.02175025588536336,
                "444": 0.02482088024564995,
                "445": 0.02047082906857728,
                "446": 0.0191914022517912,
                "447": 0.01663254861821904,
                "448": 0.022006141248720572,
                "449": 0.02456499488229273,
                "450": 0.0255885363357216,
                "451": 0.020214943705220062,
                "452": 0.02226202661207779,
                "453": 0.0191914022517912,
                "454": 0.016376663254861822,
                "455": 0.017656090071647902,
                "456": 0.017400204708290685,
                "457": 0.020214943705220062,
                "458": 0.021238485158648925,
                "459": 0.02226202661207779,
                "460": 0.014329580348004094,
                "461": 0.020726714431934492,
                "462": 0.01791197543500512,
                "463": 0.017400204708290685,
                "464": 0.018167860798362332,
                "465": 0.01714431934493347,
                "466": 0.010747185261003071,
                "467": 0.014329580348004094,
                "468": 0.012538382804503583,
                "469": 0.012538382804503583,
                "470": 0.011003070624360286,
                "471": 0.010491299897645854,
                "472": 0.01151484135107472,
                "473": 0.014841351074718526,
                "474": 0.011258955987717503,
                "475": 0.013050153531218014,
                "476": 0.009723643807574206,
                "477": 0.009979529170931423
            }
        },
        {
            "first_node": 17,
            "max_duration": 50.7,
            "min_duration": 41.5,
            "second_node": 18,
            "type": "stcu_ordinary",
            "ProbabilityDistribution": {
                "415": 0.0,
                "416": 0.0,
                "417": 0.0,
                "418": 0.0,
                "419": 0.0003312355084465055,
                "420": 0.0,
                "421": 0.000662471016893011,
                "422": 0.0003312355084465055,
                "423": 0.0003312355084465055,
                "424": 0.0,
                "425": 0.0,
                "426": 0.0,
                "427": 0.0,
                "428": 0.0003312355084465055,
                "429": 0.0003312355084465055,
                "430": 0.0003312355084465055,
                "431": 0.0003312355084465055,
                "432": 0.000662471016893011,
                "433": 0.0003312355084465055,
                "434": 0.000662471016893011,
                "435": 0.001324942033786022,
                "436": 0.0009937065253395165,
                "437": 0.001324942033786022,
                "438": 0.000662471016893011,
                "439": 0.000662471016893011,
                "440": 0.000662471016893011,
                "441": 0.0003312355084465055,
                "442": 0.001987413050679033,
                "443": 0.001324942033786022,
                "444": 0.001324942033786022,
                "445": 0.0033123550844650546,
                "446": 0.001987413050679033,
                "447": 0.0016561775422325273,
                "448": 0.002649884067572044,
                "449": 0.0033123550844650546,
                "450": 0.002649884067572044,
                "451": 0.0029811195760185492,
                "452": 0.004637297118251077,
                "453": 0.0029811195760185492,
                "454": 0.0033123550844650546,
                "455": 0.006293474660483604,
                "456": 0.006293474660483604,
                "457": 0.003974826101358066,
                "458": 0.0059622391520370984,
                "459": 0.004968532626697582,
                "460": 0.008280887711162636,
                "461": 0.008943358728055647,
                "462": 0.008280887711162636,
                "463": 0.005299768135144088,
                "464": 0.01159324279562769,
                "465": 0.008280887711162636,
                "466": 0.008280887711162636,
                "467": 0.012918184829413714,
                "468": 0.01093077177873468,
                "469": 0.014243126863199736,
                "470": 0.012255713812520701,
                "471": 0.015568068896985757,
                "472": 0.015899304405432264,
                "473": 0.012586949320967208,
                "474": 0.01888042398145081,
                "475": 0.01689301093077178,
                "476": 0.017555481947664788,
                "477": 0.017224246439218285,
                "478": 0.017886717456111294,
                "479": 0.0182179529645578,
                "480": 0.017555481947664788,
                "481": 0.017886717456111294,
                "482": 0.025173898641934415,
                "483": 0.019542894998343822,
                "484": 0.0241801921165949,
                "485": 0.015236833388539251,
                "486": 0.02119907254057635,
                "487": 0.023848956608148394,
                "488": 0.021530308049022857,
                "489": 0.02484266313348791,
                "490": 0.017886717456111294,
                "491": 0.02616760516727393,
                "492": 0.02848625372639947,
                "493": 0.023848956608148394,
                "494": 0.024511427625041403,
                "495": 0.026498840675720437,
                "496": 0.02616760516727393,
                "497": 0.023848956608148394,
                "498": 0.027492547201059953,
                "499": 0.026498840675720437,
                "500": 0.025836369658827428,
                "501": 0.029811195760185493,
                "502": 0.02318648559125538,
                "503": 0.02484266313348791,
                "504": 0.020867837032129844,
                "505": 0.027492547201059953,
                "506": 0.024511427625041403,
                "507": 0.028817489234845974
            }
        },
        {
            "first_node": 19,
            "max_duration": 63.1,
            "min_duration": 51.6,
            "second_node": 8,
            "type": "stcu_ordinary",
            "ProbabilityDistribution": {
                "516": 0.010770855332629356,
                "517": 0.011615628299894404,
                "518": 0.01246040126715945,
                "519": 0.010982048574445617,
                "520": 0.010770855332629356,
                "521": 0.011193241816261879,
                "522": 0.013305174234424498,
                "523": 0.009292502639915523,
                "524": 0.012882787750791975,
                "525": 0.018585005279831045,
                "526": 0.013305174234424498,
                "527": 0.011615628299894404,
                "528": 0.018373812038014782,
                "529": 0.01583949313621964,
                "530": 0.014149947201689547,
                "531": 0.01668426610348469,
                "532": 0.014994720168954593,
                "533": 0.02006335797254488,
                "534": 0.017740232312566,
                "535": 0.01457233368532207,
                "536": 0.01583949313621964,
                "537": 0.013938753959873283,
                "538": 0.017529039070749736,
                "539": 0.018373812038014782,
                "540": 0.016050686378035903,
                "541": 0.017106652587117212,
                "542": 0.019218585005279832,
                "543": 0.018373812038014782,
                "544": 0.01583949313621964,
                "545": 0.016473072861668426,
                "546": 0.017106652587117212,
                "547": 0.016261879619852166,
                "548": 0.016473072861668426,
                "549": 0.013938753959873283,
                "550": 0.01668426610348469,
                "551": 0.01879619852164731,
                "552": 0.017317845828933476,
                "553": 0.012882787750791975,
                "554": 0.014994720168954593,
                "555": 0.015205913410770855,
                "556": 0.01795142555438226,
                "557": 0.013727560718057022,
                "558": 0.01583949313621964,
                "559": 0.01351636747624076,
                "560": 0.013727560718057022,
                "561": 0.009926082365364308,
                "562": 0.011826821541710665,
                "563": 0.011615628299894404,
                "564": 0.010770855332629356,
                "565": 0.013093980992608237,
                "566": 0.010348468848996832,
                "567": 0.010982048574445617,
                "568": 0.009081309398099261,
                "569": 0.011404435058078142,
                "570": 0.009292502639915523,
                "571": 0.01246040126715945,
                "572": 0.00781414994720169,
                "573": 0.009714889123548046,
                "574": 0.009926082365364308,
                "575": 0.007602956705385427,
                "576": 0.007602956705385427,
                "577": 0.006546990496304118,
                "578": 0.006969376979936642,
                "579": 0.01013727560718057,
                "580": 0.010348468848996832,
                "581": 0.005068637803590285,
                "582": 0.006124604012671594,
                "583": 0.008447729672650475,
                "584": 0.008236536430834213,
                "585": 0.005913410770855333,
                "586": 0.005913410770855333,
                "587": 0.004646251319957761,
                "588": 0.006124604012671594,
                "589": 0.005068637803590285,
                "590": 0.005068637803590285,
                "591": 0.005913410770855333,
                "592": 0.0031678986272439284,
                "593": 0.0029567053854276664,
                "594": 0.0029567053854276664,
                "595": 0.004012671594508976,
                "596": 0.0019007391763463568,
                "597": 0.0025343189017951427,
                "598": 0.0014783526927138332,
                "599": 0.0025343189017951427,
                "600": 0.0023231256599788807,
                "601": 0.0025343189017951427,
                "602": 0.0027455121436114043,
                "603": 0.001689545934530095,
                "604": 0.001689545934530095,
                "605": 0.0014783526927138332,
                "606": 0.0019007391763463568,
                "607": 0.0012671594508975714,
                "608": 0.001689545934530095,
                "609": 0.0014783526927138332,
                "610": 0.0012671594508975714,
                "611": 0.0006335797254487857,
                "612": 0.0006335797254487857,
                "613": 0.0012671594508975714,
                "614": 0.0014783526927138332,
                "615": 0.0006335797254487857,
                "616": 0.0006335797254487857,
                "617": 0.0006335797254487857,
                "618": 0.0006335797254487857,
                "619": 0.0006335797254487857,
                "620": 0.00021119324181626187,
                "621": 0.0010559662090813093,
                "622": 0.0008447729672650475,
                "623": 0.0008447729672650475,
                "624": 0.00042238648363252375,
                "625": 0.0,
                "626": 0.0,
                "627": 0.00021119324181626187,
                "628": 0.0006335797254487857,
                "629": 0.00021119324181626187,
                "630": 0.00021119324181626187,
                "631": 0.00021119324181626187
            }
        },
        {
            "first_node": 6,
            "max_duration": 1000000.0,
            "min_duration": 0.0,
            "second_node": 20,
            "type": "stc"
        },
        {
            "first_node": 10,
            "max_duration": 11.5,
            "min_duration": 3.0,
            "second_node": 14,
            "type": "stc"
        },
        {
            "first_node": 15,
            "max_duration": 14.6,
            "min_duration": 1.3,
            "second_node": 21,
            "type": "stc"
        },
        {
            "first_node": 3,
            "max_duration": 139.7,
            "min_duration": 60.0,
            "second_node": 20,
            "type": "stc"
        },
        {
            "first_node": 21,
            "max_duration": 47.9,
            "min_duration": 39.2,
            "second_node": 4,
            "type": "stcu_ordinary",
            "ProbabilityDistribution": {
                "392": 0.005700123915737299,
                "393": 0.00842627013630731,
                "394": 0.007930607187112764,
                "395": 0.007187112763320942,
                "396": 0.008921933085501859,
                "397": 0.008674101610904586,
                "398": 0.010656753407682776,
                "399": 0.010408921933085501,
                "400": 0.012143742255266418,
                "401": 0.011648079306071871,
                "402": 0.012391573729863693,
                "403": 0.00842627013630731,
                "404": 0.01412639405204461,
                "405": 0.007930607187112764,
                "406": 0.012143742255266418,
                "407": 0.014374225526641884,
                "408": 0.013382899628252789,
                "409": 0.017596034696406443,
                "410": 0.01486988847583643,
                "411": 0.015613382899628252,
                "412": 0.015117719950433706,
                "413": 0.014374225526641884,
                "414": 0.01734820322180917,
                "415": 0.01809169764560099,
                "416": 0.021561338289962824,
                "417": 0.021313506815365552,
                "418": 0.01883519206939281,
                "419": 0.01734820322180917,
                "420": 0.01734820322180917,
                "421": 0.02057001239157373,
                "422": 0.021065675340768277,
                "423": 0.01660470879801735,
                "424": 0.02379182156133829,
                "425": 0.02057001239157373,
                "426": 0.01809169764560099,
                "427": 0.02057001239157373,
                "428": 0.01809169764560099,
                "429": 0.020074349442379184,
                "430": 0.01660470879801735,
                "431": 0.020817843866171002,
                "432": 0.02057001239157373,
                "433": 0.020074349442379184,
                "434": 0.01809169764560099,
                "435": 0.019330855018587362,
                "436": 0.018339529120198265,
                "437": 0.01858736059479554,
                "438": 0.01288723667905824,
                "439": 0.01660470879801735,
                "440": 0.012143742255266418,
                "441": 0.015861214374225528,
                "442": 0.011895910780669145,
                "443": 0.011895910780669145,
                "444": 0.013878562577447335,
                "445": 0.01412639405204461,
                "446": 0.011152416356877323,
                "447": 0.011152416356877323,
                "448": 0.013135068153655513,
                "449": 0.010656753407682776,
                "450": 0.010408921933085501,
                "451": 0.006939281288723668,
                "452": 0.005947955390334572,
                "453": 0.006691449814126394,
                "454": 0.009665427509293681,
                "455": 0.007930607187112764,
                "456": 0.006195786864931847,
                "457": 0.00644361833952912,
                "458": 0.004708798017348203,
                "459": 0.00644361833952912,
                "460": 0.004708798017348203,
                "461": 0.005700123915737299,
                "462": 0.004213135068153655,
                "463": 0.005452292441140025,
                "464": 0.004956629491945477,
                "465": 0.003965303593556382,
                "466": 0.002973977695167286,
                "467": 0.003469640644361834,
                "468": 0.0027261462205700124,
                "469": 0.0024783147459727386,
                "470": 0.0012391573729863693,
                "471": 0.002973977695167286,
                "472": 0.0009913258983890955,
                "473": 0.001734820322180917,
                "474": 0.0027261462205700124,
                "475": 0.001486988847583643,
                "476": 0.0024783147459727386,
                "477": 0.0012391573729863693,
                "478": 0.0012391573729863693,
                "479": 0.0007434944237918215
            }
        },
        {
            "first_node": 22,
            "max_duration": 18.8,
            "min_duration": 9.3,
            "second_node": 23,
            "type": "stc"
        },
        {
            "first_node": 24,
            "max_duration": 34.6,
            "min_duration": 28.3,
            "second_node": 22,
            "type": "stcu_ordinary",
            "ProbabilityDistribution": {
                "283": 0.0049800796812749,
                "284": 0.0033200531208499337,
                "285": 0.006640106241699867,
                "286": 0.00398406374501992,
                "287": 0.0049800796812749,
                "288": 0.0063081009296148734,
                "289": 0.008632138114209827,
                "290": 0.005312084993359893,
                "291": 0.010292164674634794,
                "292": 0.012948207171314742,
                "293": 0.013280212483399735,
                "294": 0.013280212483399735,
                "295": 0.011620185922974768,
                "296": 0.014940239043824702,
                "297": 0.01693227091633466,
                "298": 0.014608233731739707,
                "299": 0.015272244355909695,
                "300": 0.018924302788844622,
                "301": 0.02158034528552457,
                "302": 0.0199203187250996,
                "303": 0.021248339973439574,
                "304": 0.021248339973439574,
                "305": 0.029216467463479414,
                "306": 0.023240371845949535,
                "307": 0.018260292164674636,
                "308": 0.029880478087649404,
                "309": 0.023240371845949535,
                "310": 0.02888446215139442,
                "311": 0.026228419654714476,
                "312": 0.025232403718459494,
                "313": 0.02158034528552457,
                "314": 0.02556440903054449,
                "315": 0.02954847277556441,
                "316": 0.025232403718459494,
                "317": 0.03154050464807437,
                "318": 0.020584329349269587,
                "319": 0.02755644090305445,
                "320": 0.022908366533864542,
                "321": 0.02091633466135458,
                "322": 0.02357237715803453,
                "323": 0.024236387782204515,
                "324": 0.022244355909694556,
                "325": 0.014608233731739707,
                "326": 0.01759628154050465,
                "327": 0.021248339973439574,
                "328": 0.018924302788844622,
                "329": 0.014276228419654714,
                "330": 0.012284196547144754,
                "331": 0.0099601593625498,
                "332": 0.015604249667994688,
                "333": 0.014608233731739707,
                "334": 0.012948207171314742,
                "335": 0.008300132802124834,
                "336": 0.012616201859229747,
                "337": 0.010956175298804782,
                "338": 0.009296148738379814,
                "339": 0.00597609561752988,
                "340": 0.00597609561752988,
                "341": 0.005312084993359893,
                "342": 0.0036520584329349268,
                "343": 0.0036520584329349268,
                "344": 0.0033200531208499337,
                "345": 0.00398406374501992,
                "346": 0.0049800796812749
            }
        },
        {
            "first_node": 25,
            "max_duration": 32.7,
            "min_duration": 26.8,
            "second_node": 11,
            "type": "stcu_ordinary",
            "ProbabilityDistribution": {
                "268": 0.0,
                "269": 0.0,
                "270": 0.0,
                "271": 0.0,
                "272": 0.0005941770647653001,
                "273": 0.0,
                "274": 0.0,
                "275": 0.0,
                "276": 0.0005941770647653001,
                "277": 0.0,
                "278": 0.0,
                "279": 0.0005941770647653001,
                "280": 0.0005941770647653001,
                "281": 0.0,
                "282": 0.0017825311942959,
                "283": 0.0,
                "284": 0.0011883541295306002,
                "285": 0.0023767082590612004,
                "286": 0.0,
                "287": 0.0017825311942959,
                "288": 0.0035650623885918,
                "289": 0.0029708853238265003,
                "290": 0.0011883541295306002,
                "291": 0.0035650623885918,
                "292": 0.004753416518122401,
                "293": 0.009506833036244802,
                "294": 0.0071301247771836,
                "295": 0.004753416518122401,
                "296": 0.0059417706476530005,
                "297": 0.007724301841948901,
                "298": 0.007724301841948901,
                "299": 0.013071895424836602,
                "300": 0.011883541295306001,
                "301": 0.016042780748663103,
                "302": 0.0071301247771836,
                "303": 0.016042780748663103,
                "304": 0.024955436720142603,
                "305": 0.020796197266785502,
                "306": 0.015448603683897801,
                "307": 0.0184194890077243,
                "308": 0.024955436720142603,
                "309": 0.0285204991087344,
                "310": 0.024955436720142603,
                "311": 0.0255496137849079,
                "312": 0.033273915626856804,
                "313": 0.038027332144979206,
                "314": 0.0285204991087344,
                "315": 0.0398098633392751,
                "316": 0.0338680926916221,
                "317": 0.043969102792632206,
                "318": 0.0481283422459893,
                "319": 0.04337492572786691,
                "320": 0.041592394533571005,
                "321": 0.049910873440285206,
                "322": 0.0451574569221628,
                "323": 0.043969102792632206,
                "324": 0.044563279857397504,
                "325": 0.044563279857397504,
                "326": 0.055852644087938205,
                "327": 0.04931669637551991
            }
        },
        {
            "first_node": 6,
            "max_duration": 44.6,
            "min_duration": 36.5,
            "second_node": 26,
            "type": "stcu_ordinary",
            "ProbabilityDistribution": {
                "365": 0.0,
                "366": 0.0,
                "367": 0.0,
                "368": 0.0,
                "369": 0.0,
                "370": 0.0,
                "371": 0.0,
                "372": 0.0,
                "373": 0.0,
                "374": 0.0,
                "375": 0.0,
                "376": 0.000427715996578272,
                "377": 0.000427715996578272,
                "378": 0.000427715996578272,
                "379": 0.0,
                "380": 0.000427715996578272,
                "381": 0.000427715996578272,
                "382": 0.000427715996578272,
                "383": 0.0,
                "384": 0.000855431993156544,
                "385": 0.0,
                "386": 0.0012831479897348161,
                "387": 0.0012831479897348161,
                "388": 0.001710863986313088,
                "389": 0.000855431993156544,
                "390": 0.000855431993156544,
                "391": 0.001710863986313088,
                "392": 0.001710863986313088,
                "393": 0.0012831479897348161,
                "394": 0.0012831479897348161,
                "395": 0.0012831479897348161,
                "396": 0.0025662959794696323,
                "397": 0.003421727972626176,
                "398": 0.0025662959794696323,
                "399": 0.0051325919589392645,
                "400": 0.00213857998289136,
                "401": 0.0051325919589392645,
                "402": 0.003421727972626176,
                "403": 0.00427715996578272,
                "404": 0.00427715996578272,
                "405": 0.00427715996578272,
                "406": 0.005988023952095809,
                "407": 0.008126603934987169,
                "408": 0.0106928999144568,
                "409": 0.010265183917878529,
                "410": 0.007271171941830625,
                "411": 0.0106928999144568,
                "412": 0.008982035928143712,
                "413": 0.01283147989734816,
                "414": 0.013259195893926433,
                "415": 0.011120615911035072,
                "416": 0.018819503849443968,
                "417": 0.018819503849443968,
                "418": 0.013259195893926433,
                "419": 0.01710863986313088,
                "420": 0.015825491873396064,
                "421": 0.019674935842600515,
                "422": 0.026518391787852865,
                "423": 0.0213857998289136,
                "424": 0.01924721984602224,
                "425": 0.021813515825491875,
                "426": 0.022668947818648418,
                "427": 0.02951240376390077,
                "428": 0.03378956372968349,
                "429": 0.02951240376390077,
                "430": 0.02523524379811805,
                "431": 0.03165098374679213,
                "432": 0.0290846877673225,
                "433": 0.0290846877673225,
                "434": 0.03721129170230967,
                "435": 0.04234388366124893,
                "436": 0.029940119760479042,
                "437": 0.027801539777587682,
                "438": 0.02951240376390077,
                "439": 0.03165098374679213,
                "440": 0.02951240376390077,
                "441": 0.027801539777587682,
                "442": 0.03378956372968349,
                "443": 0.02737382378100941,
                "444": 0.04063301967493584,
                "445": 0.033361847733105215,
                "446": 0.03293413173652695
            }
        },
        {
            "first_node": 26,
            "max_duration": 19.4,
            "min_duration": 7.2,
            "second_node": 19,
            "type": "stc"
        },
        {
            "first_node": 16,
            "max_duration": 21.2,
            "min_duration": 8.1,
            "second_node": 24,
            "type": "stc"
        },
        {
            "first_node": 25,
            "max_duration": 1000000.0,
            "min_duration": 0.0,
            "second_node": 27,
            "type": "stc"
        },
        {
            "first_node": 23,
            "max_duration": 52.4,
            "min_duration": 42.9,
            "second_node": 27,
            "type": "stcu_ordinary",
            "ProbabilityDistribution": {
                "429": 0.02965946539729037,
                "430": 0.031124130355181252,
                "431": 0.025265470523617724,
                "432": 0.03405346027096302,
                "433": 0.031124130355181252,
                "434": 0.03039179787623581,
                "435": 0.032222629073599414,
                "436": 0.028194800439399488,
                "437": 0.026363969242035885,
                "438": 0.026730135481508606,
                "439": 0.032222629073599414,
                "440": 0.032222629073599414,
                "441": 0.023434639326254118,
                "442": 0.022702306847308677,
                "443": 0.022336140607835956,
                "444": 0.024533138044672283,
                "445": 0.021603808128890515,
                "446": 0.027462467960454047,
                "447": 0.02380080556572684,
                "448": 0.027096301720981326,
                "449": 0.01904064445258147,
                "450": 0.021603808128890515,
                "451": 0.021969974368363236,
                "452": 0.01867447821310875,
                "453": 0.020871475649945074,
                "454": 0.024166971805199562,
                "455": 0.021603808128890515,
                "456": 0.015012815818381545,
                "457": 0.021237641889417794,
                "458": 0.01794214573416331,
                "459": 0.012449652142072502,
                "460": 0.012815818381545222,
                "461": 0.012449652142072502,
                "462": 0.013181984621017943,
                "463": 0.010252654705236177,
                "464": 0.013914317099963384,
                "465": 0.009886488465763456,
                "466": 0.009886488465763456,
                "467": 0.012815818381545222,
                "468": 0.007323324789454412,
                "469": 0.007689491028927133,
                "470": 0.012083485902599781,
                "471": 0.006590992310508971,
                "472": 0.008055657268399853,
                "473": 0.008787989747345295,
                "474": 0.003661662394727206,
                "475": 0.006957158549981692,
                "476": 0.006590992310508971,
                "477": 0.006224826071036251,
                "478": 0.006224826071036251,
                "479": 0.005858659831563529,
                "480": 0.0021969974368363236,
                "481": 0.006224826071036251,
                "482": 0.004393994873672647,
                "483": 0.003661662394727206,
                "484": 0.0021969974368363236,
                "485": 0.003661662394727206,
                "486": 0.004393994873672647,
                "487": 0.001830831197363603,
                "488": 0.003661662394727206,
                "489": 0.001830831197363603,
                "490": 0.001830831197363603,
                "491": 0.0021969974368363236,
                "492": 0.0014646649578908824,
                "493": 0.0010984987184181618,
                "494": 0.0010984987184181618,
                "495": 0.0010984987184181618,
                "496": 0.0010984987184181618,
                "497": 0.001830831197363603,
                "498": 0.0003661662394727206,
                "499": 0.0007323324789454412,
                "500": 0.0010984987184181618,
                "501": 0.0003661662394727206,
                "502": 0.0007323324789454412,
                "503": 0.0,
                "504": 0.0003661662394727206,
                "505": 0.0003661662394727206,
                "506": 0.0003661662394727206,
                "507": 0.0,
                "508": 0.0007323324789454412,
                "509": 0.0003661662394727206,
                "510": 0.0,
                "511": 0.0003661662394727206,
                "512": 0.0,
                "513": 0.0,
                "514": 0.0,
                "515": 0.0,
                "516": 0.0,
                "517": 0.0,
                "518": 0.0,
                "519": 0.0,
                "520": 0.0,
                "521": 0.0,
                "522": 0.0,
                "523": 0.0,
                "524": 0.0
            }
        },
        {
            "first_node": 25,
            "max_duration": 174.5,
            "min_duration": 60.0,
            "second_node": 2,
            "type": "stc"
        },
        {
            "first_node": 17,
            "max_duration": 1440.0,
            "min_duration": 0.0,
            "second_node": 7,
            "type": "stc"
        },
        {
            "first_node": 12,
            "max_duration": 187.4,
            "min_duration": 60.0,
            "second_node": 27,
            "type": "stc"
        },
        {
            "first_node": 17,
            "max_duration": 264.7,
            "min_duration": 60.0,
            "second_node": 13,
            "type": "stc"
        },
        {
            "first_node": 9,
            "max_duration": 32.9,
            "min_duration": 26.9,
            "second_node": 7,
            "type": "stcu_ordinary",
            "ProbabilityDistribution": {
                "269": 0.013451191391237509,
                "270": 0.019984627209838585,
                "271": 0.026902382782475018,
                "272": 0.021906225980015372,
                "273": 0.021906225980015372,
                "274": 0.026902382782475018,
                "275": 0.021521906225980016,
                "276": 0.024596464258262875,
                "277": 0.030745580322828592,
                "278": 0.02843966179861645,
                "279": 0.026902382782475018,
                "280": 0.030745580322828592,
                "281": 0.02421214450422752,
                "282": 0.025749423520368946,
                "283": 0.02843966179861645,
                "284": 0.029208301306687164,
                "285": 0.03497309761721752,
                "286": 0.030361260568793236,
                "287": 0.023059185242121444,
                "288": 0.029208301306687164,
                "289": 0.0334358186010761,
                "290": 0.02843966179861645,
                "291": 0.028823981552651805,
                "292": 0.033051498847040735,
                "293": 0.026133743274404306,
                "294": 0.029208301306687164,
                "295": 0.020368946963873945,
                "296": 0.020368946963873945,
                "297": 0.018447348193697154,
                "298": 0.020368946963873945,
                "299": 0.01960030745580323,
                "300": 0.020368946963873945,
                "301": 0.01921598770176787,
                "302": 0.022674865488086088,
                "303": 0.017678708685626442,
                "304": 0.011529592621060722,
                "305": 0.012298232129131437,
                "306": 0.009992313604919293,
                "307": 0.01191391237509608,
                "308": 0.009223674096848577,
                "309": 0.005764796310530361,
                "310": 0.0065334358186010764,
                "311": 0.01037663335895465,
                "312": 0.005764796310530361,
                "313": 0.006149116064565719,
                "314": 0.004227517294388932,
                "315": 0.002690238278247502,
                "316": 0.005764796310530361,
                "317": 0.0023059185242121443,
                "318": 0.004996156802459646,
                "319": 0.002690238278247502,
                "320": 0.0007686395080707148,
                "321": 0.0015372790161414297,
                "322": 0.0015372790161414297,
                "323": 0.0003843197540353574,
                "324": 0.0011529592621060721,
                "325": 0.001921598770176787,
                "326": 0.0015372790161414297,
                "327": 0.0011529592621060721,
                "328": 0.0003843197540353574,
                "329": 0.0
            }
        },
        {
            "first_node": 5,
            "max_duration": 8.1,
            "min_duration": 6.6,
            "second_node": 20,
            "type": "stcu_ordinary",
            "ProbabilityDistribution": {
                "66": 0.0,
                "67": 0.0019305019305019305,
                "68": 0.0019305019305019305,
                "69": 0.007722007722007722,
                "70": 0.005791505791505791,
                "71": 0.011583011583011582,
                "72": 0.019305019305019305,
                "73": 0.04633204633204633,
                "74": 0.05791505791505792,
                "75": 0.07335907335907337,
                "76": 0.10424710424710425,
                "77": 0.13513513513513514,
                "78": 0.13320463320463322,
                "79": 0.11969111969111969,
                "80": 0.16216216216216217,
                "81": 0.11969111969111969
            }
        },
        {
            "first_node": 28,
            "max_duration": 50.7,
            "min_duration": 41.5,
            "second_node": 13,
            "type": "stcu_ordinary",
            "ProbabilityDistribution": {
                "415": 0.00022888532845044633,
                "416": 0.0022888532845044634,
                "417": 0.0018310826276035706,
                "418": 0.002059967956054017,
                "419": 0.0025177386129549098,
                "420": 0.0025177386129549098,
                "421": 0.0036621652552071412,
                "422": 0.003433279926756695,
                "423": 0.002975509269855802,
                "424": 0.0022888532845044634,
                "425": 0.00434882124055848,
                "426": 0.0050354772259098195,
                "427": 0.004577706569008927,
                "428": 0.003433279926756695,
                "429": 0.006408789196612497,
                "430": 0.0036621652552071412,
                "431": 0.004119935912108034,
                "432": 0.006408789196612497,
                "433": 0.00869764248111696,
                "434": 0.007782101167315175,
                "435": 0.00801098649576562,
                "436": 0.009155413138017853,
                "437": 0.007782101167315175,
                "438": 0.009613183794918746,
                "439": 0.010528725108720532,
                "440": 0.00869764248111696,
                "441": 0.012359807736324101,
                "442": 0.013046463721675441,
                "443": 0.00869764248111696,
                "444": 0.01121538109407187,
                "445": 0.011902037079423208,
                "446": 0.012359807736324101,
                "447": 0.01556420233463035,
                "448": 0.01373311970702678,
                "449": 0.017166399633783476,
                "450": 0.014648661020828565,
                "451": 0.014190890363927672,
                "452": 0.01373311970702678,
                "453": 0.013962005035477227,
                "454": 0.01808194094758526,
                "455": 0.014190890363927672,
                "456": 0.0217441062027924,
                "457": 0.018539711604486152,
                "458": 0.01670862897688258,
                "459": 0.01487754634927901,
                "460": 0.017624170290684367,
                "461": 0.01739528496223392,
                "462": 0.019684138246738384,
                "463": 0.01441977569237812,
                "464": 0.018539711604486152,
                "465": 0.020370794232089724,
                "466": 0.018768596932936598,
                "467": 0.019226367589837492,
                "468": 0.012359807736324101,
                "469": 0.019455252918287938,
                "470": 0.013962005035477227,
                "471": 0.017624170290684367,
                "472": 0.017166399633783476,
                "473": 0.020370794232089724,
                "474": 0.019684138246738384,
                "475": 0.016479743648432136,
                "476": 0.015106431677729458,
                "477": 0.014190890363927672,
                "478": 0.015793087663080796,
                "479": 0.019226367589837492,
                "480": 0.015106431677729458,
                "481": 0.015793087663080796,
                "482": 0.010528725108720532,
                "483": 0.011902037079423208,
                "484": 0.012588693064774548,
                "485": 0.014190890363927672,
                "486": 0.010299839780270085,
                "487": 0.010986495765621425,
                "488": 0.009384298466468299,
                "489": 0.01121538109407187,
                "490": 0.00869764248111696,
                "491": 0.010299839780270085,
                "492": 0.008468757152666513,
                "493": 0.008926527809567406,
                "494": 0.011444266422522316,
                "495": 0.010986495765621425,
                "496": 0.00801098649576562,
                "497": 0.00686655985351339,
                "498": 0.0050354772259098195,
                "499": 0.006408789196612497,
                "500": 0.005722133211261158,
                "501": 0.005951018539711604,
                "502": 0.005722133211261158,
                "503": 0.0036621652552071412,
                "504": 0.0036621652552071412,
                "505": 0.0050354772259098195,
                "506": 0.00434882124055848,
                "507": 0.0025177386129549098
            }
        },
        {
            "first_node": 18,
            "max_duration": 20.3,
            "min_duration": 6.4,
            "second_node": 28,
            "type": "stc"
        }
    ],
    "nodes": [
        {
            "node_id": 1
        },
        {
            "node_id": 2
        },
        {
            "node_id": 3
        },
        {
            "node_id": 4
        },
        {
            "node_id": 5
        },
        {
            "node_id": 6
        },
        {
            "node_id": 7
        },
        {
            "node_id": 8
        },
        {
            "node_id": 9
        },
        {
            "node_id": 10
        },
        {
            "node_id": 11
        },
        {
            "node_id": 12
        },
        {
            "node_id": 13
        },
        {
            "node_id": 14
        },
        {
            "node_id": 15
        },
        {
            "node_id": 16
        },
        {
            "node_id": 17
        },
        {
            "node_id": 18
        },
        {
            "node_id": 19
        },
        {
            "node_id": 20
        },
        {
            "node_id": 21
        },
        {
            "node_id": 22
        },
        {
            "node_id": 23
        },
        {
            "node_id": 24
        },
        {
            "node_id": 25
        },
        {
            "node_id": 26
        },
        {
            "node_id": 27
        },
        {
            "node_id": 28
        }
    ],
    "n_decimals": 1
}