{
    "constraints": [
        {
            "first_node": 1,
            "max_duration": 32.5,
            "min_duration": 26.6,
            "second_node": 2,
            "type": "stcu_ordinary",
            "ProbabilityDistribution": {
                "266": 0.005724508050089445,
                "267": 0.004651162790697674,
                "268": 0.0064400715563506265,
                "269": 0.01001788908765653,
                "270": 0.008944543828264758,
                "271": 0.006797853309481216,
                "272": 0.01144901610017889,
                "273": 0.01144901610017889,
                "274": 0.011806797853309481,
                "275": 0.015026833631484795,
                "276": 0.013237924865831842,
                "277": 0.017531305903398926,
                "278": 0.017173524150268335,
                "279": 0.02146690518783542,
                "280": 0.018604651162790697,
                "281": 0.023971377459749553,
                "282": 0.02182468694096601,
                "283": 0.02254025044722719,
                "284": 0.023255813953488372,
                "285": 0.023613595706618962,
                "286": 0.028264758497316637,
                "287": 0.024686940966010734,
                "288": 0.02110912343470483,
                "289": 0.028622540250447227,
                "290": 0.0221824686940966,
                "291": 0.028264758497316637,
                "292": 0.02933810375670841,
                "293": 0.029695885509839,
                "294": 0.023971377459749553,
                "295": 0.023255813953488372,
                "296": 0.026833631484794274,
                "297": 0.03005366726296959,
                "298": 0.031127012522361358,
                "299": 0.02933810375670841,
                "300": 0.024329159212880144,
                "301": 0.023255813953488372,
                "302": 0.025044722719141325,
                "303": 0.01932021466905188,
                "304": 0.02182468694096601,
                "305": 0.018246869409660107,
                "306": 0.014669051878354204,
                "307": 0.016100178890876567,
                "308": 0.016100178890876567,
                "309": 0.013595706618962432,
                "310": 0.016457960644007157,
                "311": 0.017173524150268335,
                "312": 0.012164579606440072,
                "313": 0.013595706618962432,
                "314": 0.008944543828264758,
                "315": 0.011806797853309481,
                "316": 0.009302325581395349,
                "317": 0.007871198568872988,
                "318": 0.0075134168157423974,
                "319": 0.005724508050089445,
                "320": 0.006797853309481216,
                "321": 0.0025044722719141325,
                "322": 0.005008944543828265,
                "323": 0.004293381037567084,
                "324": 0.0028622540250447226,
                "325": 0.0032200357781753132
            }
        },
        {
            "first_node": 3,
            "max_duration": 198.2,
            "min_duration": 60.0,
            "second_node": 4,
            "type": "stc"
        },
        {
            "first_node": 5,
            "max_duration": 23.6,
            "min_duration": 8.6,
            "second_node": 6,
            "type": "stc"
        },
        {
            "first_node": 7,
            "max_duration": 66.6,
            "min_duration": 54.5,
            "second_node": 8,
            "type": "stcu_ordinary",
            "ProbabilityDistribution": {
                "545": 0.00036429872495446266,
                "546": 0.00018214936247723133,
                "547": 0.00036429872495446266,
                "548": 0.000546448087431694,
                "549": 0.0009107468123861566,
                "550": 0.0007285974499089253,
                "551": 0.0007285974499089253,
                "552": 0.0014571948998178506,
                "553": 0.0012750455373406193,
                "554": 0.000546448087431694,
                "555": 0.0007285974499089253,
                "556": 0.001092896174863388,
                "557": 0.00036429872495446266,
                "558": 0.001092896174863388,
                "559": 0.001092896174863388,
                "560": 0.000546448087431694,
                "561": 0.001092896174863388,
                "562": 0.0018214936247723133,
                "563": 0.0014571948998178506,
                "564": 0.003278688524590164,
                "565": 0.0020036429872495446,
                "566": 0.001639344262295082,
                "567": 0.002185792349726776,
                "568": 0.004007285974499089,
                "569": 0.0034608378870673953,
                "570": 0.0025500910746812386,
                "571": 0.0025500910746812386,
                "572": 0.002185792349726776,
                "573": 0.003825136612021858,
                "574": 0.004189435336976321,
                "575": 0.0036429872495446266,
                "576": 0.004189435336976321,
                "577": 0.004371584699453552,
                "578": 0.004371584699453552,
                "579": 0.004735883424408015,
                "580": 0.005282331511839709,
                "581": 0.004553734061930784,
                "582": 0.005646630236794172,
                "583": 0.0036429872495446266,
                "584": 0.006193078324225865,
                "585": 0.00546448087431694,
                "586": 0.0069216757741347905,
                "587": 0.005646630236794172,
                "588": 0.0058287795992714025,
                "589": 0.008743169398907104,
                "590": 0.009107468123861567,
                "591": 0.00673952641165756,
                "592": 0.009653916211293261,
                "593": 0.0069216757741347905,
                "594": 0.007832422586520947,
                "595": 0.005646630236794172,
                "596": 0.008561020036429872,
                "597": 0.008743169398907104,
                "598": 0.008925318761384336,
                "599": 0.00947176684881603,
                "600": 0.010018214936247723,
                "601": 0.011293260473588343,
                "602": 0.010564663023679418,
                "603": 0.010018214936247723,
                "604": 0.009653916211293261,
                "605": 0.012932604735883424,
                "606": 0.011657559198542805,
                "607": 0.01366120218579235,
                "608": 0.008925318761384336,
                "609": 0.010746812386156648,
                "610": 0.011293260473588343,
                "611": 0.01238615664845173,
                "612": 0.014571948998178506,
                "613": 0.012932604735883424,
                "614": 0.013296903460837887,
                "615": 0.013114754098360656,
                "616": 0.011657559198542805,
                "617": 0.013843351548269581,
                "618": 0.012204007285974499,
                "619": 0.012021857923497269,
                "620": 0.017122040072859744,
                "621": 0.014207650273224045,
                "622": 0.01366120218579235,
                "623": 0.017122040072859744,
                "624": 0.015300546448087432,
                "625": 0.01366120218579235,
                "626": 0.011111111111111112,
                "627": 0.014754098360655738,
                "628": 0.014025500910746813,
                "629": 0.015482695810564663,
                "630": 0.014389799635701275,
                "631": 0.017122040072859744,
                "632": 0.01493624772313297,
                "633": 0.015482695810564663,
                "634": 0.012204007285974499,
                "635": 0.015300546448087432,
                "636": 0.014754098360655738,
                "637": 0.0151183970856102,
                "638": 0.011111111111111112,
                "639": 0.01347905282331512,
                "640": 0.013843351548269581,
                "641": 0.011475409836065573,
                "642": 0.012750455373406194,
                "643": 0.011657559198542805,
                "644": 0.015846994535519125,
                "645": 0.012750455373406194,
                "646": 0.010382513661202186,
                "647": 0.010564663023679418,
                "648": 0.012021857923497269,
                "649": 0.010564663023679418,
                "650": 0.010382513661202186,
                "651": 0.00947176684881603,
                "652": 0.01238615664845173,
                "653": 0.010382513661202186,
                "654": 0.010382513661202186,
                "655": 0.008378870673952642,
                "656": 0.00819672131147541,
                "657": 0.009289617486338797,
                "658": 0.008561020036429872,
                "659": 0.008014571948998178,
                "660": 0.007103825136612022,
                "661": 0.007285974499089253,
                "662": 0.008378870673952642,
                "663": 0.00673952641165756,
                "664": 0.00546448087431694,
                "665": 0.0058287795992714025,
                "666": 0.005646630236794172
            }
        },
        {
            "first_node": 2,
            "max_duration": 16.8,
            "min_duration": 7.9,
            "second_node": 9,
            "type": "stc"
        },
        {
            "first_node": 10,
            "max_duration": 54.9,
            "min_duration": 44.9,
            "second_node": 5,
            "type": "stcu_ordinary",
            "ProbabilityDistribution": {
                "449": 0.005296610169491525,
                "450": 0.0036016949152542373,
                "451": 0.005084745762711864,
                "452": 0.0038135593220338985,
                "453": 0.005508474576271186,
                "454": 0.008686440677966102,
                "455": 0.005508474576271186,
                "456": 0.006355932203389831,
                "457": 0.008898305084745763,
                "458": 0.0069915254237288135,
                "459": 0.007838983050847457,
                "460": 0.008686440677966102,
                "461": 0.008898305084745763,
                "462": 0.008898305084745763,
                "463": 0.009322033898305085,
                "464": 0.010805084745762712,
                "465": 0.009957627118644067,
                "466": 0.011016949152542373,
                "467": 0.012923728813559321,
                "468": 0.01059322033898305,
                "469": 0.011864406779661017,
                "470": 0.015042372881355933,
                "471": 0.012923728813559321,
                "472": 0.011228813559322034,
                "473": 0.011864406779661017,
                "474": 0.016313559322033898,
                "475": 0.014830508474576272,
                "476": 0.01228813559322034,
                "477": 0.012711864406779662,
                "478": 0.01864406779661017,
                "479": 0.013771186440677966,
                "480": 0.01652542372881356,
                "481": 0.015042372881355933,
                "482": 0.015466101694915255,
                "483": 0.014194915254237288,
                "484": 0.01652542372881356,
                "485": 0.01673728813559322,
                "486": 0.013983050847457627,
                "487": 0.019491525423728815,
                "488": 0.01652542372881356,
                "489": 0.012711864406779662,
                "490": 0.018008474576271187,
                "491": 0.01440677966101695,
                "492": 0.017796610169491526,
                "493": 0.017372881355932204,
                "494": 0.015042372881355933,
                "495": 0.018220338983050848,
                "496": 0.017161016949152542,
                "497": 0.015042372881355933,
                "498": 0.016313559322033898,
                "499": 0.018220338983050848,
                "500": 0.014194915254237288,
                "501": 0.018220338983050848,
                "502": 0.015466101694915255,
                "503": 0.016313559322033898,
                "504": 0.01440677966101695,
                "505": 0.009957627118644067,
                "506": 0.013771186440677966,
                "507": 0.015466101694915255,
                "508": 0.01228813559322034,
                "509": 0.012923728813559321,
                "510": 0.01440677966101695,
                "511": 0.011652542372881356,
                "512": 0.010805084745762712,
                "513": 0.009957627118644067,
                "514": 0.009110169491525424,
                "515": 0.011864406779661017,
                "516": 0.009110169491525424,
                "517": 0.01228813559322034,
                "518": 0.011228813559322034,
                "519": 0.005932203389830509,
                "520": 0.011016949152542373,
                "521": 0.007838983050847457,
                "522": 0.0069915254237288135,
                "523": 0.005932203389830509,
                "524": 0.0057203389830508475,
                "525": 0.006567796610169491,
                "526": 0.005932203389830509,
                "527": 0.005296610169491525,
                "528": 0.0069915254237288135,
                "529": 0.00614406779661017,
                "530": 0.004872881355932204,
                "531": 0.003389830508474576,
                "532": 0.004025423728813559,
                "533": 0.00211864406779661,
                "534": 0.0038135593220338985,
                "535": 0.0038135593220338985,
                "536": 0.00423728813559322,
                "537": 0.0036016949152542373,
                "538": 0.001694915254237288,
                "539": 0.0019067796610169492,
                "540": 0.00211864406779661,
                "541": 0.00211864406779661,
                "542": 0.000847457627118644,
                "543": 0.001271186440677966,
                "544": 0.0014830508474576272,
                "545": 0.001059322033898305,
                "546": 0.0014830508474576272,
                "547": 0.001059322033898305,
                "548": 0.001271186440677966,
                "549": 0.001059322033898305
            }
        },
        {
            "first_node": 3,
            "max_duration": 8.6,
            "min_duration": 7.0,
            "second_node": 11,
            "type": "stcu_ordinary",
            "ProbabilityDistribution": {
                "70": 0.0,
                "71": 0.0,
                "72": 0.0,
                "73": 0.0,
                "74": 0.0,
                "75": 0.007874015748031496,
                "76": 0.007874015748031496,
                "77": 0.015748031496062992,
                "78": 0.04330708661417323,
                "79": 0.051181102362204724,
                "80": 0.07874015748031496,
                "81": 0.10039370078740158,
                "82": 0.11220472440944881,
                "83": 0.13188976377952755,
                "84": 0.15748031496062992,
                "85": 0.1437007874015748,
                "86": 0.14960629921259844
            }
        },
        {
            "first_node": 12,
            "max_duration": 15.4,
            "min_duration": 8.0,
            "second_node": 1,
            "type": "stc"
        },
        {
            "first_node": 6,
            "max_duration": 39.1,
            "min_duration": 32.0,
            "second_node": 13,
            "type": "stcu_ordinary",
            "ProbabilityDistribution": {
                "320": 0.0006365372374283895,
                "321": 0.001591343093570974,
                "322": 0.0019096117122851686,
                "323": 0.0006365372374283895,
                "324": 0.001591343093570974,
                "325": 0.001273074474856779,
                "326": 0.001273074474856779,
                "327": 0.001273074474856779,
                "328": 0.0006365372374283895,
                "329": 0.002546148949713558,
                "330": 0.001273074474856779,
                "331": 0.003182686187141948,
                "332": 0.002546148949713558,
                "333": 0.003500954805856143,
                "334": 0.003182686187141948,
                "335": 0.003500954805856143,
                "336": 0.004137492043284532,
                "337": 0.005092297899427116,
                "338": 0.0060471037555697,
                "339": 0.0054105665181413114,
                "340": 0.008911521323997454,
                "341": 0.005728835136855506,
                "342": 0.00668364099299809,
                "343": 0.010184595798854232,
                "344": 0.012730744748567792,
                "345": 0.009548058561425843,
                "346": 0.009229789942711649,
                "347": 0.011457670273711012,
                "348": 0.011775938892425206,
                "349": 0.014003819223424571,
                "350": 0.013049013367281986,
                "351": 0.011139401654996817,
                "352": 0.01336728198599618,
                "353": 0.01782304264799491,
                "354": 0.020687460216422662,
                "355": 0.011457670273711012,
                "356": 0.020369191597708464,
                "357": 0.023233609166136218,
                "358": 0.019096117122851686,
                "359": 0.018141311266709103,
                "360": 0.02196053469127944,
                "361": 0.026098026734563972,
                "362": 0.019732654360280075,
                "363": 0.027689369828134944,
                "364": 0.023233609166136218,
                "365": 0.022278803309993635,
                "366": 0.023870146403564607,
                "367": 0.02196053469127944,
                "368": 0.022278803309993635,
                "369": 0.02737110120942075,
                "370": 0.0241884150222788,
                "371": 0.027052832590706555,
                "372": 0.027052832590706555,
                "373": 0.028962444302991726,
                "374": 0.02673456397199236,
                "375": 0.023551877784850413,
                "376": 0.02132399745385105,
                "377": 0.022278803309993635,
                "378": 0.01718650541056652,
                "379": 0.020369191597708464,
                "380": 0.024506683640993,
                "381": 0.021005728835136857,
                "382": 0.021642266072565246,
                "383": 0.01782304264799491,
                "384": 0.019096117122851686,
                "385": 0.014958625079567155,
                "386": 0.017504774029280714,
                "387": 0.014322087842138766,
                "388": 0.015276893698281349,
                "389": 0.012730744748567792,
                "390": 0.012730744748567792,
                "391": 0.01336728198599618
            }
        },
        {
            "first_node": 14,
            "max_duration": 27.3,
            "min_duration": 9.7,
            "second_node": 7,
            "type": "stc"
        },
        {
            "first_node": 15,
            "max_duration": 27.2,
            "min_duration": 22.2,
            "second_node": 12,
            "type": "stcu_ordinary",
            "ProbabilityDistribution": {
                "222": 0.021307506053268765,
                "223": 0.026634382566585957,
                "224": 0.03341404358353511,
                "225": 0.029055690072639227,
                "226": 0.028087167070217918,
                "227": 0.03631961259079903,
                "228": 0.036803874092009685,
                "229": 0.031961259079903145,
                "230": 0.038256658595641646,
                "231": 0.036803874092009685,
                "232": 0.03970944309927361,
                "233": 0.04116222760290557,
                "234": 0.04067796610169491,
                "235": 0.038256658595641646,
                "236": 0.03922518159806295,
                "237": 0.04406779661016949,
                "238": 0.03728813559322034,
                "239": 0.028087167070217918,
                "240": 0.0387409200968523,
                "241": 0.03292978208232446,
                "242": 0.031961259079903145,
                "243": 0.026150121065375304,
                "244": 0.028087167070217918,
                "245": 0.026634382566585957,
                "246": 0.017433414043583534,
                "247": 0.023728813559322035,
                "248": 0.01791767554479419,
                "249": 0.015980629539951573,
                "250": 0.01937046004842615,
                "251": 0.010169491525423728,
                "252": 0.014527845036319613,
                "253": 0.011138014527845037,
                "254": 0.008716707021791767,
                "255": 0.011138014527845037,
                "256": 0.007263922518159807,
                "257": 0.009685230024213076,
                "258": 0.006295399515738499,
                "259": 0.00387409200968523,
                "260": 0.001937046004842615,
                "261": 0.001937046004842615,
                "262": 0.0009685230024213075,
                "263": 0.0009685230024213075,
                "264": 0.0014527845036319612,
                "265": 0.0009685230024213075,
                "266": 0.00048426150121065375,
                "267": 0.0014527845036319612,
                "268": 0.0,
                "269": 0.0,
                "270": 0.00048426150121065375,
                "271": 0.0,
                "272": 0.00048426150121065375
            }
        },
        {
            "first_node": 16,
            "max_duration": 52.7,
            "min_duration": 43.1,
            "second_node": 4,
            "type": "stcu_ordinary",
            "ProbabilityDistribution": {
                "431": 0.01583949313621964,
                "432": 0.01293558606124604,
                "433": 0.01187961985216473,
                "434": 0.016631467793030624,
                "435": 0.015311510031678986,
                "436": 0.016631467793030624,
                "437": 0.01504751847940866,
                "438": 0.016631467793030624,
                "439": 0.02085533262935586,
                "440": 0.01874340021119324,
                "441": 0.02085533262935586,
                "442": 0.019271383315733897,
                "443": 0.019535374868004225,
                "444": 0.022439281942977826,
                "445": 0.019535374868004225,
                "446": 0.021383315733896516,
                "447": 0.021119324181626188,
                "448": 0.019271383315733897,
                "449": 0.017159450897571277,
                "450": 0.02006335797254488,
                "451": 0.021119324181626188,
                "452": 0.021119324181626188,
                "453": 0.018479408658922915,
                "454": 0.02296726504751848,
                "455": 0.018215417106652587,
                "456": 0.020327349524815207,
                "457": 0.020327349524815207,
                "458": 0.01900739176346357,
                "459": 0.020327349524815207,
                "460": 0.01795142555438226,
                "461": 0.02402323125659979,
                "462": 0.022175290390707498,
                "463": 0.017687434002111934,
                "464": 0.01504751847940866,
                "465": 0.01795142555438226,
                "466": 0.016103484688489968,
                "467": 0.013727560718057022,
                "468": 0.016103484688489968,
                "469": 0.01795142555438226,
                "470": 0.016367476240760296,
                "471": 0.014255543822597676,
                "472": 0.013727560718057022,
                "473": 0.01399155227032735,
                "474": 0.01293558606124604,
                "475": 0.015311510031678986,
                "476": 0.01399155227032735,
                "477": 0.011087645195353749,
                "478": 0.01187961985216473,
                "479": 0.009239704329461458,
                "480": 0.009239704329461458,
                "481": 0.009767687434002113,
                "482": 0.00897571277719113,
                "483": 0.007391763463569166,
                "484": 0.009239704329461458,
                "485": 0.006335797254487857,
                "486": 0.006599788806758183,
                "487": 0.007655755015839493,
                "488": 0.007391763463569166,
                "489": 0.00501583949313622,
                "490": 0.004751847940865892,
                "491": 0.006071805702217529,
                "492": 0.004223864836325237,
                "493": 0.003695881731784583,
                "494": 0.003695881731784583,
                "495": 0.00501583949313622,
                "496": 0.002903907074973601,
                "497": 0.0031678986272439284,
                "498": 0.002375923970432946,
                "499": 0.0034318901795142554,
                "500": 0.0021119324181626186,
                "501": 0.0031678986272439284,
                "502": 0.0013199577613516368,
                "503": 0.0018479408658922914,
                "504": 0.0021119324181626186,
                "505": 0.0010559662090813093,
                "506": 0.0018479408658922914,
                "507": 0.0015839493136219642,
                "508": 0.0010559662090813093,
                "509": 0.0010559662090813093,
                "510": 0.0018479408658922914,
                "511": 0.0015839493136219642,
                "512": 0.0010559662090813093,
                "513": 0.0010559662090813093,
                "514": 0.0013199577613516368,
                "515": 0.0007919746568109821,
                "516": 0.0007919746568109821,
                "517": 0.0,
                "518": 0.00026399155227032733,
                "519": 0.0007919746568109821,
                "520": 0.0007919746568109821,
                "521": 0.00026399155227032733,
                "522": 0.00026399155227032733,
                "523": 0.0,
                "524": 0.0005279831045406547,
                "525": 0.0,
                "526": 0.0,
                "527": 0.0
            }
        },
        {
            "first_node": 17,
            "max_duration": 54.5,
            "min_duration": 44.6,
            "second_node": 18,
            "type": "stcu_ordinary",
            "ProbabilityDistribution": {
                "446": 0.0032481593763534,
                "447": 0.00563014291901256,
                "448": 0.006063230835859679,
                "449": 0.006279774794283239,
                "450": 0.007579038544824599,
                "451": 0.006279774794283239,
                "452": 0.006929406669553919,
                "453": 0.009094846253789519,
                "454": 0.008445214378518839,
                "455": 0.01039411000433088,
                "456": 0.00996102208748376,
                "457": 0.006929406669553919,
                "458": 0.008878302295365958,
                "459": 0.010827197921177999,
                "460": 0.012126461671719359,
                "461": 0.0086617583369424,
                "462": 0.012559549588566478,
                "463": 0.010177566045907319,
                "464": 0.01169337375487224,
                "465": 0.012126461671719359,
                "466": 0.012776093546990039,
                "467": 0.01234300563014292,
                "468": 0.017540060632308358,
                "469": 0.011909917713295798,
                "470": 0.01580770896491988,
                "471": 0.015374621048072759,
                "472": 0.01494153313122564,
                "473": 0.015591165006496318,
                "474": 0.015374621048072759,
                "475": 0.015374621048072759,
                "476": 0.017106972715461237,
                "477": 0.011909917713295798,
                "478": 0.01645734084019056,
                "479": 0.016240796881766998,
                "480": 0.01580770896491988,
                "481": 0.01667388479861412,
                "482": 0.01645734084019056,
                "483": 0.01602425292334344,
                "484": 0.01797314854915548,
                "485": 0.018189692507579038,
                "486": 0.01364226938068428,
                "487": 0.016890428757037678,
                "488": 0.01645734084019056,
                "489": 0.018189692507579038,
                "490": 0.018189692507579038,
                "491": 0.017540060632308358,
                "492": 0.01862278042442616,
                "493": 0.01862278042442616,
                "494": 0.021004763967085317,
                "495": 0.013425725422260719,
                "496": 0.01580770896491988,
                "497": 0.0173235166738848,
                "498": 0.014724989172802079,
                "499": 0.01234300563014292,
                "500": 0.015158077089649198,
                "501": 0.014075357297531399,
                "502": 0.014724989172802079,
                "503": 0.0129926375054136,
                "504": 0.00996102208748376,
                "505": 0.0129926375054136,
                "506": 0.0097444781290602,
                "507": 0.012126461671719359,
                "508": 0.00822867042009528,
                "509": 0.010827197921177999,
                "510": 0.00801212646167172,
                "511": 0.009527934170636639,
                "512": 0.010177566045907319,
                "513": 0.0086617583369424,
                "514": 0.01061065396275444,
                "515": 0.0073624945864010395,
                "516": 0.006929406669553919,
                "517": 0.007579038544824599,
                "518": 0.007579038544824599,
                "519": 0.008878302295365958,
                "520": 0.0097444781290602,
                "521": 0.00519705500216544,
                "522": 0.00519705500216544,
                "523": 0.0038977912516240795,
                "524": 0.00498051104374188,
                "525": 0.0038977912516240795,
                "526": 0.0038977912516240795,
                "527": 0.0038977912516240795,
                "528": 0.0043308791684712,
                "529": 0.0034647033347769596,
                "530": 0.0032481593763534,
                "531": 0.0030316154179298397,
                "532": 0.00259852750108272,
                "533": 0.0034647033347769596,
                "534": 0.00281507145950628,
                "535": 0.0019488956258120397,
                "536": 0.0023819835426591596,
                "537": 0.0015158077089649198,
                "538": 0.0015158077089649198,
                "539": 0.00064963187527068,
                "540": 0.0,
                "541": 0.0015158077089649198,
                "542": 0.0010827197921178,
                "543": 0.00129926375054136,
                "544": 0.00043308791684711995,
                "545": 0.00129926375054136
            }
        },
        {
            "first_node": 9,
            "max_duration": 43.1,
            "min_duration": 35.3,
            "second_node": 19,
            "type": "stcu_ordinary",
            "ProbabilityDistribution": {
                "353": 0.0,
                "354": 0.0006055101422948834,
                "355": 0.0,
                "356": 0.0009082652134423251,
                "357": 0.0006055101422948834,
                "358": 0.0009082652134423251,
                "359": 0.0009082652134423251,
                "360": 0.0012110202845897668,
                "361": 0.0006055101422948834,
                "362": 0.0009082652134423251,
                "363": 0.0,
                "364": 0.0009082652134423251,
                "365": 0.0012110202845897668,
                "366": 0.002119285498032092,
                "367": 0.0015137753557372085,
                "368": 0.0012110202845897668,
                "369": 0.0018165304268846503,
                "370": 0.0018165304268846503,
                "371": 0.0018165304268846503,
                "372": 0.0024220405691795337,
                "373": 0.0027247956403269754,
                "374": 0.004541326067211626,
                "375": 0.003330305782621859,
                "376": 0.004844081138359067,
                "377": 0.004541326067211626,
                "378": 0.0036330608537693005,
                "379": 0.007568876778686043,
                "380": 0.008477141992128368,
                "381": 0.004844081138359067,
                "382": 0.007266121707538601,
                "383": 0.00877989706327581,
                "384": 0.008174386920980926,
                "385": 0.008477141992128368,
                "386": 0.009688162276718135,
                "387": 0.008477141992128368,
                "388": 0.007568876778686043,
                "389": 0.01574326369966697,
                "390": 0.011807447774750226,
                "391": 0.015440508628519528,
                "392": 0.014834998486224644,
                "393": 0.021495610051468363,
                "394": 0.018165304268846504,
                "395": 0.01604601877081441,
                "396": 0.014834998486224644,
                "397": 0.02119285498032092,
                "398": 0.019679079624583713,
                "399": 0.01907356948228883,
                "400": 0.021495610051468363,
                "401": 0.01634877384196185,
                "402": 0.02482591583409022,
                "403": 0.020284589766878594,
                "404": 0.02089009990917348,
                "405": 0.022706630336058128,
                "406": 0.02603693611867999,
                "407": 0.023917650620647896,
                "408": 0.02119285498032092,
                "409": 0.021798365122615803,
                "410": 0.022706630336058128,
                "411": 0.022101120193763247,
                "412": 0.026945201332122314,
                "413": 0.025734181047532546,
                "414": 0.019679079624583713,
                "415": 0.025431425976385105,
                "416": 0.023917650620647896,
                "417": 0.02452316076294278,
                "418": 0.023614895549500452,
                "419": 0.02512867090523766,
                "420": 0.02633969118982743,
                "421": 0.021495610051468363,
                "422": 0.020587344838026038,
                "423": 0.023614895549500452,
                "424": 0.018468059339993945,
                "425": 0.018468059339993945,
                "426": 0.01604601877081441,
                "427": 0.020284589766878594,
                "428": 0.013623978201634877,
                "429": 0.018468059339993945,
                "430": 0.014834998486224644,
                "431": 0.01574326369966697
            }
        },
        {
            "first_node": 10,
            "max_duration": 1000000.0,
            "min_duration": 0.0,
            "second_node": 4,
            "type": "stc"
        },
        {
            "first_node": 13,
            "max_duration": 12.5,
            "min_duration": 1.8,
            "second_node": 17,
            "type": "stc"
        },
        {
            "first_node": 19,
            "max_duration": 20.7,
            "min_duration": 9.0,
            "second_node": 20,
            "type": "stc"
        },
        {
            "first_node": 11,
            "max_duration": 9.0,
            "min_duration": 5.6,
            "second_node": 21,
            "type": "stc"
        },
        {
            "first_node": 15,
            "max_duration": 249.0,
            "min_duration": 60.0,
            "second_node": 22,
            "type": "stc"
        },
        {
            "first_node": 20,
            "max_duration": 58.5,
            "min_duration": 47.8,
            "second_node": 22,
            "type": "stcu_ordinary",
            "ProbabilityDistribution": {
                "478": 0.0,
                "479": 0.0006189395502372602,
                "480": 0.0006189395502372602,
                "481": 0.0008252527336496802,
                "482": 0.0012378791004745203,
                "483": 0.0004126263668248401,
                "484": 0.0010315659170621002,
                "485": 0.0006189395502372602,
                "486": 0.0008252527336496802,
                "487": 0.00020631318341242006,
                "488": 0.0010315659170621002,
                "489": 0.0018568186507117806,
                "490": 0.0008252527336496802,
                "491": 0.0006189395502372602,
                "492": 0.0004126263668248401,
                "493": 0.0012378791004745203,
                "494": 0.003301010934598721,
                "495": 0.0018568186507117806,
                "496": 0.0014441922838869404,
                "497": 0.0022694450175366207,
                "498": 0.0020631318341242004,
                "499": 0.0020631318341242004,
                "500": 0.0022694450175366207,
                "501": 0.003507324118011141,
                "502": 0.003301010934598721,
                "503": 0.003919950484835981,
                "504": 0.002682071384361461,
                "505": 0.004332576851660821,
                "506": 0.006189395502372601,
                "507": 0.004745203218485661,
                "508": 0.004332576851660821,
                "509": 0.004745203218485661,
                "510": 0.0057767691355477616,
                "511": 0.0045388900350732415,
                "512": 0.005570455952135341,
                "513": 0.006395708685785022,
                "514": 0.008046214153084381,
                "515": 0.006189395502372601,
                "516": 0.007633587786259542,
                "517": 0.007014648236022282,
                "518": 0.009284093253558903,
                "519": 0.010521972354033423,
                "520": 0.009903032803796162,
                "521": 0.008252527336496802,
                "522": 0.011966164637920364,
                "523": 0.010109345987208583,
                "524": 0.010728285537445844,
                "525": 0.008252527336496802,
                "526": 0.011347225087683103,
                "527": 0.009490406436971322,
                "528": 0.011347225087683103,
                "529": 0.011759851454507943,
                "530": 0.013616670105219723,
                "531": 0.016505054672993603,
                "532": 0.013822983288632143,
                "533": 0.012378791004745203,
                "534": 0.012378791004745203,
                "535": 0.013822983288632143,
                "536": 0.017123994223230864,
                "537": 0.013616670105219723,
                "538": 0.012172477821332784,
                "539": 0.012791417371570043,
                "540": 0.013204043738394884,
                "541": 0.014854549205694245,
                "542": 0.014648236022281824,
                "543": 0.019187126057355064,
                "544": 0.016298741489581183,
                "545": 0.015679801939343926,
                "546": 0.018774499690530223,
                "547": 0.016711367856406024,
                "548": 0.015473488755931504,
                "549": 0.011966164637920364,
                "550": 0.015473488755931504,
                "551": 0.014235609655456984,
                "552": 0.016711367856406024,
                "553": 0.018155560140292966,
                "554": 0.017123994223230864,
                "555": 0.015267175572519083,
                "556": 0.018155560140292966,
                "557": 0.012791417371570043,
                "558": 0.017123994223230864,
                "559": 0.018155560140292966,
                "560": 0.016711367856406024,
                "561": 0.015886115122756343,
                "562": 0.013410356921807304,
                "563": 0.015679801939343926,
                "564": 0.013204043738394884,
                "565": 0.012172477821332784,
                "566": 0.012172477821332784,
                "567": 0.015267175572519083,
                "568": 0.010521972354033423,
                "569": 0.011140911904270683,
                "570": 0.014441922838869404,
                "571": 0.014441922838869404,
                "572": 0.010521972354033423,
                "573": 0.011966164637920364,
                "574": 0.011347225087683103,
                "575": 0.011759851454507943,
                "576": 0.008252527336496802,
                "577": 0.010315659170621003,
                "578": 0.010315659170621003,
                "579": 0.010934598720858262,
                "580": 0.008665153703321642,
                "581": 0.011140911904270683,
                "582": 0.008252527336496802,
                "583": 0.008871466886734063,
                "584": 0.008046214153084381,
                "585": 0.006808335052609861
            }
        },
        {
            "first_node": 21,
            "max_duration": 64.6,
            "min_duration": 52.9,
            "second_node": 14,
            "type": "stcu_ordinary",
            "ProbabilityDistribution": {
                "529": 0.009382329945269743,
                "530": 0.008991399530883503,
                "531": 0.008991399530883503,
                "532": 0.008405003909304144,
                "533": 0.010164190774042221,
                "534": 0.009186864738076622,
                "535": 0.008795934323690384,
                "536": 0.012118842845973418,
                "537": 0.009577795152462862,
                "538": 0.012509773260359656,
                "539": 0.011532447224394058,
                "540": 0.012705238467552775,
                "541": 0.012118842845973418,
                "542": 0.013878029710711493,
                "543": 0.013291634089132134,
                "544": 0.009577795152462862,
                "545": 0.011727912431587178,
                "546": 0.01035965598123534,
                "547": 0.012900703674745896,
                "548": 0.01544175136825645,
                "549": 0.017005473025801406,
                "550": 0.01622361219702893,
                "551": 0.01544175136825645,
                "552": 0.013487099296325255,
                "553": 0.013096168881939015,
                "554": 0.017005473025801406,
                "555": 0.015832681782642688,
                "556": 0.014268960125097733,
                "557": 0.014073494917904612,
                "558": 0.017396403440187648,
                "559": 0.014073494917904612,
                "560": 0.012705238467552775,
                "561": 0.013682564503518374,
                "562": 0.015050820953870211,
                "563": 0.014464425332290852,
                "564": 0.016810007818608287,
                "565": 0.01524628616106333,
                "566": 0.017200938232994525,
                "567": 0.015832681782642688,
                "568": 0.01602814698983581,
                "569": 0.01544175136825645,
                "570": 0.01524628616106333,
                "571": 0.01563721657544957,
                "572": 0.01544175136825645,
                "573": 0.018569194683346363,
                "574": 0.016614542611415168,
                "575": 0.015832681782642688,
                "576": 0.014464425332290852,
                "577": 0.012705238467552775,
                "578": 0.012705238467552775,
                "579": 0.013096168881939015,
                "580": 0.012900703674745896,
                "581": 0.013487099296325255,
                "582": 0.011532447224394058,
                "583": 0.012118842845973418,
                "584": 0.01055512118842846,
                "585": 0.009773260359655981,
                "586": 0.01075058639562158,
                "587": 0.01075058639562158,
                "588": 0.008795934323690384,
                "589": 0.012314308053166537,
                "590": 0.008600469116497263,
                "591": 0.008991399530883503,
                "592": 0.007818608287724784,
                "593": 0.008795934323690384,
                "594": 0.010164190774042221,
                "595": 0.007427677873338546,
                "596": 0.008991399530883503,
                "597": 0.007623143080531665,
                "598": 0.006841282251759187,
                "599": 0.007623143080531665,
                "600": 0.006450351837372948,
                "601": 0.008014073494917905,
                "602": 0.006841282251759187,
                "603": 0.004691164972634871,
                "604": 0.0048866301798279905,
                "605": 0.006059421422986709,
                "606": 0.00547302580140735,
                "607": 0.003713838936669273,
                "608": 0.006450351837372948,
                "609": 0.004104769351055512,
                "610": 0.003518373729476153,
                "611": 0.003713838936669273,
                "612": 0.003127443315089914,
                "613": 0.0025410476935105552,
                "614": 0.0011727912431587178,
                "615": 0.0023455824863174357,
                "616": 0.0029319781078967944,
                "617": 0.003127443315089914,
                "618": 0.0029319781078967944,
                "619": 0.003127443315089914,
                "620": 0.001563721657544957,
                "621": 0.0017591868647380765,
                "622": 0.0017591868647380765,
                "623": 0.001563721657544957,
                "624": 0.001954652071931196,
                "625": 0.0005863956215793589,
                "626": 0.0021501172791243157,
                "627": 0.0021501172791243157,
                "628": 0.001954652071931196,
                "629": 0.0007818608287724785,
                "630": 0.0011727912431587178,
                "631": 0.0013682564503518374,
                "632": 0.000977326035965598,
                "633": 0.0007818608287724785,
                "634": 0.0007818608287724785,
                "635": 0.000977326035965598,
                "636": 0.0007818608287724785,
                "637": 0.0007818608287724785,
                "638": 0.00019546520719311962,
                "639": 0.0,
                "640": 0.0005863956215793589,
                "641": 0.0007818608287724785,
                "642": 0.00039093041438623924,
                "643": 0.0,
                "644": 0.00019546520719311962,
                "645": 0.0005863956215793589,
                "646": 0.0
            }
        },
        {
            "first_node": 8,
            "max_duration": 24.8,
            "min_duration": 6.7,
            "second_node": 16,
            "type": "stc"
        },
        {
            "first_node": 10,
            "max_duration": 201.8,
            "min_duration": 60.0,
            "second_node": 18,
            "type": "stc"
        },
        {
            "first_node": 3,
            "max_duration": 1440.0,
            "min_duration": 0.0,
            "second_node": 22,
            "type": "stc"
        },
        {
            "first_node": 15,
            "max_duration": 1000000.0,
            "min_duration": 0.0,
            "second_node": 18,
            "type": "stc"
        }
    ],
    "nodes": [
        {
            "node_id": 1
        },
        {
            "node_id": 2
        },
        {
            "node_id": 3
        },
        {
            "node_id": 4
        },
        {
            "node_id": 5
        },
        {
            "node_id": 6
        },
        {
            "node_id": 7
        },
        {
            "node_id": 8
        },
        {
            "node_id": 9
        },
        {
            "node_id": 10
        },
        {
            "node_id": 11
        },
        {
            "node_id": 12
        },
        {
            "node_id": 13
        },
        {
            "node_id": 14
        },
        {
            "node_id": 15
        },
        {
            "node_id": 16
        },
        {
            "node_id": 17
        },
        {
            "node_id": 18
        },
        {
            "node_id": 19
        },
        {
            "node_id": 20
        },
        {
            "node_id": 21
        },
        {
            "node_id": 22
        }
    ],
    "n_decimals": 1
}