{
    "constraints": [
        {
            "first_node": 1,
            "max_duration": 31.0,
            "min_duration": 28.1,
            "second_node": 2,
            "type": "stcu_ordinary",
            "ProbabilityDistribution": {
                "281": 0.004016064257028112,
                "282": 0.001606425702811245,
                "283": 0.001606425702811245,
                "284": 0.00321285140562249,
                "285": 0.0024096385542168677,
                "286": 0.008835341365461847,
                "287": 0.010441767068273093,
                "288": 0.012048192771084338,
                "289": 0.017670682730923693,
                "290": 0.010441767068273093,
                "291": 0.020883534136546186,
                "292": 0.021686746987951807,
                "293": 0.027309236947791166,
                "294": 0.0321285140562249,
                "295": 0.036947791164658635,
                "296": 0.046586345381526104,
                "297": 0.04899598393574297,
                "298": 0.05622489959839357,
                "299": 0.05542168674698795,
                "300": 0.06666666666666667,
                "301": 0.06506024096385542,
                "302": 0.058634538152610445,
                "303": 0.06104417670682731,
                "304": 0.05140562248995984,
                "305": 0.05783132530120482,
                "306": 0.05461847389558233,
                "307": 0.04979919678714859,
                "308": 0.04417670682730924,
                "309": 0.04497991967871486,
                "310": 0.027309236947791166
            }
        },
        {
            "first_node": 3,
            "max_duration": 198.2,
            "min_duration": 60.0,
            "second_node": 4,
            "type": "stc"
        },
        {
            "first_node": 5,
            "max_duration": 23.6,
            "min_duration": 8.6,
            "second_node": 6,
            "type": "stc"
        },
        {
            "first_node": 7,
            "max_duration": 63.6,
            "min_duration": 57.5,
            "second_node": 8,
            "type": "stcu_ordinary",
            "ProbabilityDistribution": {
                "575": 0.01578137028483449,
                "576": 0.016936104695919937,
                "577": 0.021939953810623556,
                "578": 0.02424942263279446,
                "579": 0.023094688221709007,
                "580": 0.02155504234026174,
                "581": 0.02386451116243264,
                "582": 0.02617397998460354,
                "583": 0.022324865280985373,
                "584": 0.03156274056966898,
                "585": 0.03387220939183987,
                "586": 0.026558891454965358,
                "587": 0.028868360277136258,
                "588": 0.03348729792147806,
                "589": 0.02848344880677444,
                "590": 0.03387220939183987,
                "591": 0.029638183217859892,
                "592": 0.030408006158583526,
                "593": 0.02424942263279446,
                "594": 0.03002309468822171,
                "595": 0.03233256351039261,
                "596": 0.03541185527328714,
                "597": 0.029253271747498075,
                "598": 0.022324865280985373,
                "599": 0.029638183217859892,
                "600": 0.03002309468822171,
                "601": 0.021939953810623556,
                "602": 0.02155504234026174,
                "603": 0.025404157043879907,
                "604": 0.025789068514241724,
                "605": 0.015396458814472672,
                "606": 0.01770592763664357,
                "607": 0.020015396458814474,
                "608": 0.012702078521939953,
                "609": 0.012317167051578136,
                "610": 0.011162432640492687,
                "611": 0.012317167051578136,
                "612": 0.013856812933025405,
                "613": 0.004618937644341801,
                "614": 0.006543494996150885,
                "615": 0.007698229407236336,
                "616": 0.005388760585065435,
                "617": 0.008083140877598153,
                "618": 0.008083140877598153,
                "619": 0.004618937644341801,
                "620": 0.0050038491147036184,
                "621": 0.003464203233256351,
                "622": 0.005773672055427252,
                "623": 0.003464203233256351,
                "624": 0.004234026173979984,
                "625": 0.004618937644341801,
                "626": 0.003079291762894534,
                "627": 0.0026943802925327174,
                "628": 0.001539645881447267,
                "629": 0.0011547344110854503,
                "630": 0.00038491147036181676,
                "631": 0.001924557351809084,
                "632": 0.0,
                "633": 0.0011547344110854503,
                "634": 0.00038491147036181676,
                "635": 0.0,
                "636": 0.0
            }
        },
        {
            "first_node": 2,
            "max_duration": 16.8,
            "min_duration": 7.9,
            "second_node": 9,
            "type": "stc"
        },
        {
            "first_node": 10,
            "max_duration": 52.4,
            "min_duration": 47.4,
            "second_node": 5,
            "type": "stcu_ordinary",
            "ProbabilityDistribution": {
                "474": 0.006345177664974619,
                "475": 0.008883248730964468,
                "476": 0.008460236886632826,
                "477": 0.013959390862944163,
                "478": 0.014382402707275803,
                "479": 0.011844331641285956,
                "480": 0.017766497461928935,
                "481": 0.015228426395939087,
                "482": 0.021573604060913704,
                "483": 0.023265651438240272,
                "484": 0.018612521150592216,
                "485": 0.01903553299492386,
                "486": 0.023688663282571912,
                "487": 0.032148900169204735,
                "488": 0.027495769881556685,
                "489": 0.025380710659898477,
                "490": 0.027495769881556685,
                "491": 0.03426395939086294,
                "492": 0.03764805414551607,
                "493": 0.03257191201353638,
                "494": 0.03722504230118443,
                "495": 0.03510998307952622,
                "496": 0.031302876480541454,
                "497": 0.03257191201353638,
                "498": 0.03553299492385787,
                "499": 0.02707275803722504,
                "500": 0.030456852791878174,
                "501": 0.03510998307952622,
                "502": 0.03257191201353638,
                "503": 0.027495769881556685,
                "504": 0.024534686971235193,
                "505": 0.021996615905245348,
                "506": 0.028341793570219966,
                "507": 0.01988155668358714,
                "508": 0.021996615905245348,
                "509": 0.011844331641285956,
                "510": 0.012267343485617596,
                "511": 0.01903553299492386,
                "512": 0.016074450084602367,
                "513": 0.01353637901861252,
                "514": 0.01311336717428088,
                "515": 0.006345177664974619,
                "516": 0.008883248730964468,
                "517": 0.005922165820642978,
                "518": 0.0071912013536379014,
                "519": 0.004653130287648054,
                "520": 0.0025380710659898475,
                "521": 0.005076142131979695,
                "522": 0.002961082910321489,
                "523": 0.004653130287648054,
                "524": 0.004653130287648054
            }
        },
        {
            "first_node": 3,
            "max_duration": 8.2,
            "min_duration": 7.4,
            "second_node": 11,
            "type": "stcu_ordinary",
            "ProbabilityDistribution": {
                "74": 0.45145631067961167,
                "75": 0.27184466019417475,
                "76": 0.1553398058252427,
                "77": 0.07766990291262135,
                "78": 0.02912621359223301,
                "79": 0.014563106796116505,
                "80": 0.0,
                "81": 0.0,
                "82": 0.0
            }
        },
        {
            "first_node": 12,
            "max_duration": 15.4,
            "min_duration": 8.0,
            "second_node": 1,
            "type": "stc"
        },
        {
            "first_node": 6,
            "max_duration": 37.4,
            "min_duration": 33.8,
            "second_node": 13,
            "type": "stcu_ordinary",
            "ProbabilityDistribution": {
                "338": 0.0030120481927710845,
                "339": 0.004216867469879518,
                "340": 0.0006024096385542169,
                "341": 0.0036144578313253013,
                "342": 0.0030120481927710845,
                "343": 0.009036144578313253,
                "344": 0.008433734939759036,
                "345": 0.010240963855421687,
                "346": 0.012048192771084338,
                "347": 0.014457831325301205,
                "348": 0.015060240963855422,
                "349": 0.022289156626506025,
                "350": 0.025903614457831327,
                "351": 0.020481927710843374,
                "352": 0.027710843373493974,
                "353": 0.02891566265060241,
                "354": 0.030120481927710843,
                "355": 0.0463855421686747,
                "356": 0.031927710843373494,
                "357": 0.03433734939759036,
                "358": 0.03674698795180723,
                "359": 0.0463855421686747,
                "360": 0.045180722891566265,
                "361": 0.03855421686746988,
                "362": 0.04939759036144578,
                "363": 0.03493975903614458,
                "364": 0.04939759036144578,
                "365": 0.05,
                "366": 0.05,
                "367": 0.030120481927710843,
                "368": 0.04156626506024096,
                "369": 0.03795180722891566,
                "370": 0.03614457831325301,
                "371": 0.03132530120481928,
                "372": 0.021686746987951807,
                "373": 0.028313253012048192,
                "374": 0.020481927710843374
            }
        },
        {
            "first_node": 14,
            "max_duration": 27.3,
            "min_duration": 9.7,
            "second_node": 7,
            "type": "stc"
        },
        {
            "first_node": 15,
            "max_duration": 25.9,
            "min_duration": 23.5,
            "second_node": 12,
            "type": "stcu_ordinary",
            "ProbabilityDistribution": {
                "235": 0.03505535055350553,
                "236": 0.042435424354243544,
                "237": 0.03782287822878229,
                "238": 0.03874538745387454,
                "239": 0.06549815498154982,
                "240": 0.07380073800738007,
                "241": 0.06642066420664207,
                "242": 0.08210332103321033,
                "243": 0.07195571955719557,
                "244": 0.06088560885608856,
                "245": 0.07564575645756458,
                "246": 0.07472324723247233,
                "247": 0.06273062730627306,
                "248": 0.046125461254612546,
                "249": 0.05350553505535055,
                "250": 0.02952029520295203,
                "251": 0.023985239852398525,
                "252": 0.013837638376383764,
                "253": 0.012915129151291513,
                "254": 0.011992619926199263,
                "255": 0.006457564575645757,
                "256": 0.008302583025830259,
                "257": 0.0036900369003690036,
                "258": 0.0009225092250922509,
                "259": 0.0009225092250922509
            }
        },
        {
            "first_node": 16,
            "max_duration": 50.3,
            "min_duration": 45.5,
            "second_node": 4,
            "type": "stcu_ordinary",
            "ProbabilityDistribution": {
                "455": 0.0,
                "456": 0.0,
                "457": 0.0,
                "458": 0.0,
                "459": 0.0012048192771084338,
                "460": 0.0,
                "461": 0.0,
                "462": 0.0,
                "463": 0.0018072289156626507,
                "464": 0.0012048192771084338,
                "465": 0.0,
                "466": 0.0012048192771084338,
                "467": 0.0018072289156626507,
                "468": 0.0018072289156626507,
                "469": 0.0036144578313253013,
                "470": 0.004216867469879518,
                "471": 0.004819277108433735,
                "472": 0.00783132530120482,
                "473": 0.004819277108433735,
                "474": 0.00963855421686747,
                "475": 0.010843373493975903,
                "476": 0.012650602409638554,
                "477": 0.008433734939759036,
                "478": 0.012650602409638554,
                "479": 0.018072289156626505,
                "480": 0.016867469879518072,
                "481": 0.01927710843373494,
                "482": 0.018674698795180723,
                "483": 0.02108433734939759,
                "484": 0.028313253012048192,
                "485": 0.03313253012048193,
                "486": 0.02650602409638554,
                "487": 0.03313253012048193,
                "488": 0.03614457831325301,
                "489": 0.04457831325301205,
                "490": 0.046987951807228916,
                "491": 0.03253012048192771,
                "492": 0.04578313253012048,
                "493": 0.043373493975903614,
                "494": 0.0427710843373494,
                "495": 0.04036144578313253,
                "496": 0.043373493975903614,
                "497": 0.04819277108433735,
                "498": 0.056626506024096385,
                "499": 0.0427710843373494,
                "500": 0.04216867469879518,
                "501": 0.0463855421686747,
                "502": 0.043373493975903614,
                "503": 0.04096385542168675
            }
        },
        {
            "first_node": 17,
            "max_duration": 52.1,
            "min_duration": 47.1,
            "second_node": 18,
            "type": "stcu_ordinary",
            "ProbabilityDistribution": {
                "471": 0.0004780114722753346,
                "472": 0.0,
                "473": 0.0,
                "474": 0.0004780114722753346,
                "475": 0.0004780114722753346,
                "476": 0.0,
                "477": 0.0019120458891013384,
                "478": 0.0009560229445506692,
                "479": 0.0028680688336520078,
                "480": 0.0028680688336520078,
                "481": 0.0028680688336520078,
                "482": 0.004780114722753346,
                "483": 0.004302103250478011,
                "484": 0.00621414913957935,
                "485": 0.0028680688336520078,
                "486": 0.006692160611854685,
                "487": 0.0057361376673040155,
                "488": 0.008604206500956023,
                "489": 0.010994263862332695,
                "490": 0.010038240917782026,
                "491": 0.010994263862332695,
                "492": 0.016730401529636712,
                "493": 0.016730401529636712,
                "494": 0.017208413001912046,
                "495": 0.021510516252390057,
                "496": 0.022466539196940728,
                "497": 0.02581261950286807,
                "498": 0.029636711281070746,
                "499": 0.025334608030592735,
                "500": 0.019120458891013385,
                "501": 0.03107074569789675,
                "502": 0.04110898661567878,
                "503": 0.036328871892925434,
                "504": 0.04397705544933078,
                "505": 0.036806883365200764,
                "506": 0.029636711281070746,
                "507": 0.03441682600382409,
                "508": 0.030592734225621414,
                "509": 0.033460803059273424,
                "510": 0.0372848948374761,
                "511": 0.036328871892925434,
                "512": 0.040152963671128104,
                "513": 0.03919694072657744,
                "514": 0.036328871892925434,
                "515": 0.03537284894837476,
                "516": 0.033460803059273424,
                "517": 0.03537284894837476,
                "518": 0.028680688336520075,
                "519": 0.023422562141491396,
                "520": 0.029158699808795412,
                "521": 0.029158699808795412
            }
        },
        {
            "first_node": 9,
            "max_duration": 41.1,
            "min_duration": 37.2,
            "second_node": 19,
            "type": "stcu_ordinary",
            "ProbabilityDistribution": {
                "372": 0.0602510460251046,
                "373": 0.06527196652719665,
                "374": 0.06610878661087866,
                "375": 0.058577405857740586,
                "376": 0.06443514644351464,
                "377": 0.06276150627615062,
                "378": 0.06192468619246862,
                "379": 0.059414225941422594,
                "380": 0.05439330543933055,
                "381": 0.045188284518828455,
                "382": 0.042677824267782424,
                "383": 0.048535564853556486,
                "384": 0.049372384937238493,
                "385": 0.03765690376569038,
                "386": 0.03096234309623431,
                "387": 0.032635983263598324,
                "388": 0.017573221757322177,
                "389": 0.024267782426778243,
                "390": 0.024267782426778243,
                "391": 0.013389121338912133,
                "392": 0.015899581589958158,
                "393": 0.014225941422594143,
                "394": 0.008368200836820083,
                "395": 0.00502092050209205,
                "396": 0.008368200836820083,
                "397": 0.0033472803347280333,
                "398": 0.0041841004184100415,
                "399": 0.00502092050209205,
                "400": 0.00502092050209205,
                "401": 0.0016736401673640166,
                "402": 0.0033472803347280333,
                "403": 0.0008368200836820083,
                "404": 0.0008368200836820083,
                "405": 0.0008368200836820083,
                "406": 0.0008368200836820083,
                "407": 0.0008368200836820083,
                "408": 0.0,
                "409": 0.0008368200836820083,
                "410": 0.0008368200836820083,
                "411": 0.0
            }
        },
        {
            "first_node": 10,
            "max_duration": 1000000.0,
            "min_duration": 0.0,
            "second_node": 4,
            "type": "stc"
        },
        {
            "first_node": 13,
            "max_duration": 12.5,
            "min_duration": 1.8,
            "second_node": 17,
            "type": "stc"
        },
        {
            "first_node": 19,
            "max_duration": 20.7,
            "min_duration": 9.0,
            "second_node": 20,
            "type": "stc"
        },
        {
            "first_node": 11,
            "max_duration": 9.0,
            "min_duration": 5.6,
            "second_node": 21,
            "type": "stc"
        },
        {
            "first_node": 15,
            "max_duration": 249.0,
            "min_duration": 60.0,
            "second_node": 22,
            "type": "stc"
        },
        {
            "first_node": 20,
            "max_duration": 55.8,
            "min_duration": 50.5,
            "second_node": 22,
            "type": "stcu_ordinary",
            "ProbabilityDistribution": {
                "505": 0.006369426751592357,
                "506": 0.006369426751592357,
                "507": 0.011544585987261146,
                "508": 0.016321656050955414,
                "509": 0.011146496815286623,
                "510": 0.014331210191082803,
                "511": 0.011544585987261146,
                "512": 0.012738853503184714,
                "513": 0.01592356687898089,
                "514": 0.014331210191082803,
                "515": 0.021496815286624203,
                "516": 0.020302547770700636,
                "517": 0.014729299363057325,
                "518": 0.02308917197452229,
                "519": 0.02109872611464968,
                "520": 0.02786624203821656,
                "521": 0.027070063694267517,
                "522": 0.025477707006369428,
                "523": 0.030652866242038217,
                "524": 0.03105095541401274,
                "525": 0.03144904458598726,
                "526": 0.030652866242038217,
                "527": 0.03144904458598726,
                "528": 0.03304140127388535,
                "529": 0.030254777070063694,
                "530": 0.024681528662420384,
                "531": 0.030254777070063694,
                "532": 0.03105095541401274,
                "533": 0.03702229299363057,
                "534": 0.022292993630573247,
                "535": 0.019904458598726114,
                "536": 0.027070063694267517,
                "537": 0.02786624203821656,
                "538": 0.02308917197452229,
                "539": 0.026671974522292995,
                "540": 0.023487261146496817,
                "541": 0.01950636942675159,
                "542": 0.017914012738853503,
                "543": 0.014729299363057325,
                "544": 0.018710191082802547,
                "545": 0.01751592356687898,
                "546": 0.016321656050955414,
                "547": 0.010350318471337579,
                "548": 0.01194267515923567,
                "549": 0.007961783439490446,
                "550": 0.00875796178343949,
                "551": 0.010350318471337579,
                "552": 0.005971337579617835,
                "553": 0.008359872611464968,
                "554": 0.005971337579617835,
                "555": 0.0023885350318471337,
                "556": 0.003980891719745223,
                "557": 0.002786624203821656,
                "558": 0.002786624203821656
            }
        },
        {
            "first_node": 21,
            "max_duration": 61.7,
            "min_duration": 55.8,
            "second_node": 14,
            "type": "stcu_ordinary",
            "ProbabilityDistribution": {
                "558": 0.027410207939508508,
                "559": 0.03260869565217391,
                "560": 0.034026465028355386,
                "561": 0.031190926275992438,
                "562": 0.030718336483931945,
                "563": 0.035916824196597356,
                "564": 0.03497164461247637,
                "565": 0.030718336483931945,
                "566": 0.03969754253308128,
                "567": 0.03780718336483932,
                "568": 0.03260869565217391,
                "569": 0.039224952741020794,
                "570": 0.03780718336483932,
                "571": 0.03213610586011342,
                "572": 0.039224952741020794,
                "573": 0.039224952741020794,
                "574": 0.026937618147448016,
                "575": 0.027882797731568997,
                "576": 0.027410207939508508,
                "577": 0.031190926275992438,
                "578": 0.02551984877126654,
                "579": 0.02551984877126654,
                "580": 0.026465028355387523,
                "581": 0.023629489603024575,
                "582": 0.026465028355387523,
                "583": 0.022684310018903593,
                "584": 0.017013232514177693,
                "585": 0.014650283553875236,
                "586": 0.015122873345935728,
                "587": 0.01275992438563327,
                "588": 0.017958412098298678,
                "589": 0.013705103969754254,
                "590": 0.013705103969754254,
                "591": 0.011342155009451797,
                "592": 0.008034026465028356,
                "593": 0.007561436672967864,
                "594": 0.007088846880907372,
                "595": 0.004725897920604915,
                "596": 0.004725897920604915,
                "597": 0.004725897920604915,
                "598": 0.004253308128544423,
                "599": 0.004253308128544423,
                "600": 0.0033081285444234404,
                "601": 0.0033081285444234404,
                "602": 0.001890359168241966,
                "603": 0.000945179584120983,
                "604": 0.000945179584120983,
                "605": 0.0014177693761814746,
                "606": 0.0014177693761814746,
                "607": 0.0004725897920604915,
                "608": 0.000945179584120983,
                "609": 0.000945179584120983,
                "610": 0.000945179584120983,
                "611": 0.0,
                "612": 0.0014177693761814746,
                "613": 0.000945179584120983,
                "614": 0.0,
                "615": 0.0004725897920604915,
                "616": 0.0,
                "617": 0.0
            }
        },
        {
            "first_node": 8,
            "max_duration": 24.8,
            "min_duration": 6.7,
            "second_node": 16,
            "type": "stc"
        },
        {
            "first_node": 10,
            "max_duration": 201.8,
            "min_duration": 60.0,
            "second_node": 18,
            "type": "stc"
        },
        {
            "first_node": 3,
            "max_duration": 1440.0,
            "min_duration": 0.0,
            "second_node": 22,
            "type": "stc"
        },
        {
            "first_node": 15,
            "max_duration": 1000000.0,
            "min_duration": 0.0,
            "second_node": 18,
            "type": "stc"
        }
    ],
    "nodes": [
        {
            "node_id": 1
        },
        {
            "node_id": 2
        },
        {
            "node_id": 3
        },
        {
            "node_id": 4
        },
        {
            "node_id": 5
        },
        {
            "node_id": 6
        },
        {
            "node_id": 7
        },
        {
            "node_id": 8
        },
        {
            "node_id": 9
        },
        {
            "node_id": 10
        },
        {
            "node_id": 11
        },
        {
            "node_id": 12
        },
        {
            "node_id": 13
        },
        {
            "node_id": 14
        },
        {
            "node_id": 15
        },
        {
            "node_id": 16
        },
        {
            "node_id": 17
        },
        {
            "node_id": 18
        },
        {
            "node_id": 19
        },
        {
            "node_id": 20
        },
        {
            "node_id": 21
        },
        {
            "node_id": 22
        }
    ],
    "n_decimals": 1
}