{
    "constraints": [
        {
            "first_node": 1,
            "max_duration": 248.7,
            "min_duration": 60.0,
            "second_node": 2,
            "type": "stc"
        },
        {
            "first_node": 3,
            "max_duration": 57.4,
            "min_duration": 46.9,
            "second_node": 4,
            "type": "stcu_ordinary",
            "ProbabilityDistribution": {
                "469": 0.01710691823899371,
                "470": 0.01459119496855346,
                "471": 0.019622641509433963,
                "472": 0.018113207547169812,
                "473": 0.01559748427672956,
                "474": 0.019622641509433963,
                "475": 0.020377358490566037,
                "476": 0.015849056603773583,
                "477": 0.018867924528301886,
                "478": 0.021383647798742137,
                "479": 0.01861635220125786,
                "480": 0.021132075471698115,
                "481": 0.01861635220125786,
                "482": 0.020628930817610063,
                "483": 0.01761006289308176,
                "484": 0.021383647798742137,
                "485": 0.01710691823899371,
                "486": 0.021635220125786163,
                "487": 0.016352201257861635,
                "488": 0.023144654088050314,
                "489": 0.019371069182389938,
                "490": 0.021635220125786163,
                "491": 0.019371069182389938,
                "492": 0.021132075471698115,
                "493": 0.021132075471698115,
                "494": 0.02188679245283019,
                "495": 0.021132075471698115,
                "496": 0.014842767295597484,
                "497": 0.019622641509433963,
                "498": 0.019371069182389938,
                "499": 0.020377358490566037,
                "500": 0.015849056603773583,
                "501": 0.01559748427672956,
                "502": 0.016855345911949687,
                "503": 0.018113207547169812,
                "504": 0.014339622641509434,
                "505": 0.01610062893081761,
                "506": 0.014088050314465408,
                "507": 0.015345911949685535,
                "508": 0.01509433962264151,
                "509": 0.011823899371069183,
                "510": 0.011572327044025157,
                "511": 0.015345911949685535,
                "512": 0.010062893081761006,
                "513": 0.011572327044025157,
                "514": 0.012578616352201259,
                "515": 0.011823899371069183,
                "516": 0.012075471698113207,
                "517": 0.007547169811320755,
                "518": 0.010314465408805032,
                "519": 0.00830188679245283,
                "520": 0.00830188679245283,
                "521": 0.00779874213836478,
                "522": 0.008553459119496854,
                "523": 0.009559748427672956,
                "524": 0.0057861635220125785,
                "525": 0.006792452830188679,
                "526": 0.0057861635220125785,
                "527": 0.00729559748427673,
                "528": 0.0060377358490566035,
                "529": 0.004025157232704402,
                "530": 0.005283018867924529,
                "531": 0.0030188679245283017,
                "532": 0.005534591194968554,
                "533": 0.006792452830188679,
                "534": 0.004025157232704402,
                "535": 0.0037735849056603774,
                "536": 0.004025157232704402,
                "537": 0.0030188679245283017,
                "538": 0.0037735849056603774,
                "539": 0.002012578616352201,
                "540": 0.001761006289308176,
                "541": 0.0012578616352201257,
                "542": 0.002767295597484277,
                "543": 0.001761006289308176,
                "544": 0.0025157232704402514,
                "545": 0.0012578616352201257,
                "546": 0.0022641509433962265,
                "547": 0.0007547169811320754,
                "548": 0.001761006289308176,
                "549": 0.0010062893081761006,
                "550": 0.0010062893081761006,
                "551": 0.0010062893081761006,
                "552": 0.0007547169811320754,
                "553": 0.0005031446540880503,
                "554": 0.0010062893081761006,
                "555": 0.0005031446540880503,
                "556": 0.0007547169811320754,
                "557": 0.0005031446540880503,
                "558": 0.0007547169811320754,
                "559": 0.00025157232704402514,
                "560": 0.00025157232704402514,
                "561": 0.00025157232704402514,
                "562": 0.0007547169811320754,
                "563": 0.00025157232704402514,
                "564": 0.0,
                "565": 0.0005031446540880503,
                "566": 0.00025157232704402514,
                "567": 0.0,
                "568": 0.0,
                "569": 0.0,
                "570": 0.0005031446540880503,
                "571": 0.0,
                "572": 0.0,
                "573": 0.0,
                "574": 0.00025157232704402514
            }
        },
        {
            "first_node": 5,
            "max_duration": 10.1,
            "min_duration": 4.2,
            "second_node": 6,
            "type": "stc"
        },
        {
            "first_node": 7,
            "max_duration": 28.7,
            "min_duration": 23.5,
            "second_node": 8,
            "type": "stcu_ordinary",
            "ProbabilityDistribution": {
                "235": 0.04371289800323799,
                "236": 0.029681597409606044,
                "237": 0.04371289800323799,
                "238": 0.044252563410685376,
                "239": 0.04533189422558014,
                "240": 0.04479222881813276,
                "241": 0.04263356718834323,
                "242": 0.04155423637344846,
                "243": 0.040474905558553695,
                "244": 0.03669724770642202,
                "245": 0.03993524015110631,
                "246": 0.04317323259579061,
                "247": 0.04371289800323799,
                "248": 0.038855909336211546,
                "249": 0.03669724770642202,
                "250": 0.033998920669185105,
                "251": 0.032379924446842956,
                "252": 0.03291958985429034,
                "253": 0.03291958985429034,
                "254": 0.026983270372369132,
                "255": 0.026983270372369132,
                "256": 0.021046950890447922,
                "257": 0.021046950890447922,
                "258": 0.023205612520237454,
                "259": 0.01834862385321101,
                "260": 0.013491635186184566,
                "261": 0.015650296815974095,
                "262": 0.01457096600107933,
                "263": 0.008094981111710739,
                "264": 0.0064759848893685915,
                "265": 0.0059363194819212085,
                "266": 0.01025364274150027,
                "267": 0.007015650296815974,
                "268": 0.0064759848893685915,
                "269": 0.0037776578521316784,
                "270": 0.005396654074473826,
                "271": 0.0021586616297895305,
                "272": 0.0037776578521316784,
                "273": 0.0032379924446842958,
                "274": 0.002698327037236913,
                "275": 0.0016189962223421479,
                "276": 0.0005396654074473826,
                "277": 0.0005396654074473826,
                "278": 0.0005396654074473826,
                "279": 0.0005396654074473826,
                "280": 0.0005396654074473826,
                "281": 0.0,
                "282": 0.0005396654074473826,
                "283": 0.0005396654074473826,
                "284": 0.0,
                "285": 0.0,
                "286": 0.0005396654074473826,
                "287": 0.0
            }
        },
        {
            "first_node": 9,
            "max_duration": 54.7,
            "min_duration": 44.7,
            "second_node": 10,
            "type": "stcu_ordinary",
            "ProbabilityDistribution": {
                "447": 0.018954448180984407,
                "448": 0.024151635585447875,
                "449": 0.021705900336288598,
                "450": 0.026597370834607153,
                "451": 0.0186487312748395,
                "452": 0.025374503210027516,
                "453": 0.024457352491592785,
                "454": 0.027820238459186793,
                "455": 0.025374503210027516,
                "456": 0.022317334148578418,
                "457": 0.02965453989605625,
                "458": 0.02934882298991134,
                "459": 0.025374503210027516,
                "460": 0.027208804646896973,
                "461": 0.024763069397737696,
                "462": 0.025680220116172426,
                "463": 0.021705900336288598,
                "464": 0.021400183430143688,
                "465": 0.022623051054723325,
                "466": 0.023540201773158055,
                "467": 0.020788749617853867,
                "468": 0.01742586365025986,
                "469": 0.0186487312748395,
                "470": 0.020177315805564047,
                "471": 0.01803729746254968,
                "472": 0.019871598899419137,
                "473": 0.014368694588810762,
                "474": 0.018954448180984407,
                "475": 0.0186487312748395,
                "476": 0.019565881993274227,
                "477": 0.01498012840110058,
                "478": 0.01834301436869459,
                "479": 0.01467441149495567,
                "480": 0.019260165087129317,
                "481": 0.010088657902782024,
                "482": 0.0155915622133904,
                "483": 0.013451543870376031,
                "484": 0.013757260776520942,
                "485": 0.014062977682665852,
                "486": 0.01589727911953531,
                "487": 0.013145826964231121,
                "488": 0.008865790278202385,
                "489": 0.009477224090492203,
                "490": 0.007031488841332926,
                "491": 0.009782940996637114,
                "492": 0.008254356465912565,
                "493": 0.008865790278202385,
                "494": 0.007642922653622745,
                "495": 0.007337205747477835,
                "496": 0.0064200550290431065,
                "497": 0.011617242433506572,
                "498": 0.005808621216753286,
                "499": 0.007337205747477835,
                "500": 0.003057169061449098,
                "501": 0.007031488841332926,
                "502": 0.003057169061449098,
                "503": 0.004280036686028737,
                "504": 0.0045857535921736475,
                "505": 0.0045857535921736475,
                "506": 0.0036686028737389176,
                "507": 0.0027514521553041885,
                "508": 0.003057169061449098,
                "509": 0.0021400183430143687,
                "510": 0.0027514521553041885,
                "511": 0.0024457352491592784,
                "512": 0.0018343014368694588,
                "513": 0.0024457352491592784,
                "514": 0.0018343014368694588,
                "515": 0.0018343014368694588,
                "516": 0.0009171507184347294,
                "517": 0.0009171507184347294,
                "518": 0.001528584530724549,
                "519": 0.0018343014368694588,
                "520": 0.0012228676245796392,
                "521": 0.0003057169061449098,
                "522": 0.001528584530724549,
                "523": 0.0,
                "524": 0.0006114338122898196,
                "525": 0.0012228676245796392,
                "526": 0.0,
                "527": 0.0009171507184347294,
                "528": 0.0003057169061449098,
                "529": 0.0003057169061449098,
                "530": 0.0006114338122898196,
                "531": 0.0003057169061449098,
                "532": 0.0006114338122898196,
                "533": 0.0,
                "534": 0.0006114338122898196,
                "535": 0.0,
                "536": 0.0,
                "537": 0.0,
                "538": 0.0,
                "539": 0.0,
                "540": 0.0,
                "541": 0.0,
                "542": 0.0,
                "543": 0.0,
                "544": 0.0,
                "545": 0.0,
                "546": 0.0,
                "547": 0.0
            }
        },
        {
            "first_node": 11,
            "max_duration": 59.5,
            "min_duration": 48.7,
            "second_node": 12,
            "type": "stcu_ordinary",
            "ProbabilityDistribution": {
                "487": 0.00024195499637067505,
                "488": 0.0,
                "489": 0.0,
                "490": 0.0004839099927413501,
                "491": 0.00024195499637067505,
                "492": 0.0,
                "493": 0.0,
                "494": 0.0,
                "495": 0.00024195499637067505,
                "496": 0.00024195499637067505,
                "497": 0.0004839099927413501,
                "498": 0.00024195499637067505,
                "499": 0.0004839099927413501,
                "500": 0.00024195499637067505,
                "501": 0.0004839099927413501,
                "502": 0.0007258649891120251,
                "503": 0.0004839099927413501,
                "504": 0.0004839099927413501,
                "505": 0.00024195499637067505,
                "506": 0.0009678199854827002,
                "507": 0.00024195499637067505,
                "508": 0.0007258649891120251,
                "509": 0.0012097749818533753,
                "510": 0.0014517299782240503,
                "511": 0.0012097749818533753,
                "512": 0.0012097749818533753,
                "513": 0.0009678199854827002,
                "514": 0.0014517299782240503,
                "515": 0.0012097749818533753,
                "516": 0.0014517299782240503,
                "517": 0.0012097749818533753,
                "518": 0.0021775949673360755,
                "519": 0.0021775949673360755,
                "520": 0.0016936849745947254,
                "521": 0.0024195499637067507,
                "522": 0.0009678199854827002,
                "523": 0.0024195499637067507,
                "524": 0.0021775949673360755,
                "525": 0.0009678199854827002,
                "526": 0.004113234938301476,
                "527": 0.004597144931042826,
                "528": 0.007016694894749577,
                "529": 0.0026615049600774254,
                "530": 0.004597144931042826,
                "531": 0.003387369949189451,
                "532": 0.006048874909266876,
                "533": 0.006048874909266876,
                "534": 0.004355189934672151,
                "535": 0.008710379869344302,
                "536": 0.0062908299056375514,
                "537": 0.006532784902008227,
                "538": 0.006048874909266876,
                "539": 0.007984514880232278,
                "540": 0.0077425598838616015,
                "541": 0.009678199854827003,
                "542": 0.008226469876602952,
                "543": 0.008710379869344302,
                "544": 0.010404064843939027,
                "545": 0.007016694894749577,
                "546": 0.009194289862085652,
                "547": 0.010404064843939027,
                "548": 0.009678199854827003,
                "549": 0.011613839825792402,
                "550": 0.010646019840309702,
                "551": 0.012339704814904429,
                "552": 0.013307524800387127,
                "553": 0.014033389789499154,
                "554": 0.014759254778611178,
                "555": 0.014517299782240502,
                "556": 0.01572707476409388,
                "557": 0.012339704814904429,
                "558": 0.016936849745947252,
                "559": 0.014275344785869828,
                "560": 0.014759254778611178,
                "561": 0.017178804742317928,
                "562": 0.016210984756835228,
                "563": 0.018388579724171305,
                "564": 0.015001209774981853,
                "565": 0.019598354706024678,
                "566": 0.016210984756835228,
                "567": 0.01572707476409388,
                "568": 0.020324219695136706,
                "569": 0.018388579724171305,
                "570": 0.02201790466973143,
                "571": 0.019598354706024678,
                "572": 0.019840309702395354,
                "573": 0.02105008468424873,
                "574": 0.016210984756835228,
                "575": 0.020808129687878055,
                "576": 0.016452939753205904,
                "577": 0.019840309702395354,
                "578": 0.02201790466973143,
                "579": 0.02298572465521413,
                "580": 0.021292039680619403,
                "581": 0.020324219695136706,
                "582": 0.016936849745947252,
                "583": 0.02056617469150738,
                "584": 0.02008226469876603,
                "585": 0.01572707476409388,
                "586": 0.018872489716912653,
                "587": 0.019356399709654006,
                "588": 0.01911444471328333,
                "589": 0.016452939753205904,
                "590": 0.016936849745947252,
                "591": 0.016210984756835228,
                "592": 0.01572707476409388,
                "593": 0.016210984756835228,
                "594": 0.015243164771352529,
                "595": 0.014759254778611178
            }
        },
        {
            "first_node": 4,
            "max_duration": 20.0,
            "min_duration": 4.3,
            "second_node": 13,
            "type": "stc"
        },
        {
            "first_node": 14,
            "max_duration": 21.4,
            "min_duration": 9.3,
            "second_node": 9,
            "type": "stc"
        },
        {
            "first_node": 15,
            "max_duration": 1440.0,
            "min_duration": 0.0,
            "second_node": 12,
            "type": "stc"
        },
        {
            "first_node": 16,
            "max_duration": 25.3,
            "min_duration": 20.7,
            "second_node": 17,
            "type": "stcu_ordinary",
            "ProbabilityDistribution": {
                "207": 0.0,
                "208": 0.0,
                "209": 0.0,
                "210": 0.0,
                "211": 0.0,
                "212": 0.0,
                "213": 0.0,
                "214": 0.0008756567425569177,
                "215": 0.0,
                "216": 0.0,
                "217": 0.0,
                "218": 0.0008756567425569177,
                "219": 0.0,
                "220": 0.0008756567425569177,
                "221": 0.0017513134851138354,
                "222": 0.002626970227670753,
                "223": 0.0008756567425569177,
                "224": 0.0008756567425569177,
                "225": 0.006129597197898424,
                "226": 0.0017513134851138354,
                "227": 0.002626970227670753,
                "228": 0.006129597197898424,
                "229": 0.010507880910683012,
                "230": 0.0070052539404553416,
                "231": 0.009632224168126095,
                "232": 0.009632224168126095,
                "233": 0.01138353765323993,
                "234": 0.014010507880910683,
                "235": 0.021015761821366025,
                "236": 0.01838879159369527,
                "237": 0.03415061295971979,
                "238": 0.01926444833625219,
                "239": 0.03852889667250438,
                "240": 0.03502626970227671,
                "241": 0.040280210157618214,
                "242": 0.05253940455341506,
                "243": 0.043782837127845885,
                "244": 0.04816112084063047,
                "245": 0.06567425569176882,
                "246": 0.050788091068301226,
                "247": 0.05253940455341506,
                "248": 0.05866900175131348,
                "249": 0.06304728546409807,
                "250": 0.06304728546409807,
                "251": 0.063922942206655,
                "252": 0.08143607705779335,
                "253": 0.06217162872154115
            }
        },
        {
            "first_node": 18,
            "max_duration": 21.9,
            "min_duration": 17.9,
            "second_node": 5,
            "type": "stcu_ordinary",
            "ProbabilityDistribution": {
                "179": 0.03829524397776405,
                "180": 0.03767757875231625,
                "181": 0.043854231006794316,
                "182": 0.04323656578134651,
                "183": 0.04632489190858555,
                "184": 0.04817788758492897,
                "185": 0.04138357010500309,
                "186": 0.044471896232242125,
                "187": 0.04879555281037678,
                "188": 0.043854231006794316,
                "189": 0.056207535515750466,
                "190": 0.03829524397776405,
                "191": 0.03644224830142063,
                "192": 0.04076590487955528,
                "193": 0.035206917850525016,
                "194": 0.04570722668313774,
                "195": 0.03705991352686844,
                "196": 0.029030265596046944,
                "197": 0.030883261272390366,
                "198": 0.033353922174181594,
                "199": 0.02285361334156887,
                "200": 0.019765287214329835,
                "201": 0.02285361334156887,
                "202": 0.02038295243977764,
                "203": 0.014206300185299567,
                "204": 0.013588634959851761,
                "205": 0.014206300185299567,
                "206": 0.01173563928350834,
                "207": 0.00926497838171711,
                "208": 0.008029647930821495,
                "209": 0.005558987029030266,
                "210": 0.0030883261272390363,
                "211": 0.0030883261272390363,
                "212": 0.0030883261272390363,
                "213": 0.0037059913526868438,
                "214": 0.0018529956763434219,
                "215": 0.0012353304508956147,
                "216": 0.0012353304508956147,
                "217": 0.0,
                "218": 0.0012353304508956147,
                "219": 0.0
            }
        },
        {
            "first_node": 8,
            "max_duration": 15.1,
            "min_duration": 7.2,
            "second_node": 19,
            "type": "stc"
        },
        {
            "first_node": 20,
            "max_duration": 59.9,
            "min_duration": 49.0,
            "second_node": 21,
            "type": "stcu_ordinary",
            "ProbabilityDistribution": {
                "490": 0.00653044027807036,
                "491": 0.010111649462818622,
                "492": 0.010532968190436065,
                "493": 0.010954286918053507,
                "494": 0.010954286918053507,
                "495": 0.009269012007583738,
                "496": 0.013271539919949442,
                "497": 0.011164946281862228,
                "498": 0.01474615546661049,
                "499": 0.01158626500947967,
                "500": 0.01158626500947967,
                "501": 0.012218243100905836,
                "502": 0.014535496102801769,
                "503": 0.011796924373288392,
                "504": 0.011164946281862228,
                "505": 0.012639561828523278,
                "506": 0.01622077101327154,
                "507": 0.014114177375184327,
                "508": 0.018538024015167475,
                "509": 0.018748683378976196,
                "510": 0.012218243100905836,
                "511": 0.013271539919949442,
                "512": 0.015588792921845377,
                "513": 0.013903518011375605,
                "514": 0.01769538655993259,
                "515": 0.014535496102801769,
                "516": 0.014535496102801769,
                "517": 0.017063408468506427,
                "518": 0.018327364651358754,
                "519": 0.016010111649462817,
                "520": 0.018116705287550033,
                "521": 0.01622077101327154,
                "522": 0.01474615546661049,
                "523": 0.018327364651358754,
                "524": 0.017063408468506427,
                "525": 0.015378133558036656,
                "526": 0.016852749104697702,
                "527": 0.013271539919949442,
                "528": 0.018748683378976196,
                "529": 0.013903518011375605,
                "530": 0.013903518011375605,
                "531": 0.014956814830419211,
                "532": 0.016010111649462817,
                "533": 0.015588792921845377,
                "534": 0.013903518011375605,
                "535": 0.01474615546661049,
                "536": 0.012639561828523278,
                "537": 0.014535496102801769,
                "538": 0.010743627554244786,
                "539": 0.013271539919949442,
                "540": 0.012639561828523278,
                "541": 0.012428902464714557,
                "542": 0.011164946281862228,
                "543": 0.014535496102801769,
                "544": 0.01158626500947967,
                "545": 0.010111649462818622,
                "546": 0.009269012007583738,
                "547": 0.011796924373288392,
                "548": 0.010743627554244786,
                "549": 0.010322308826627343,
                "550": 0.009058352643775016,
                "551": 0.010954286918053507,
                "552": 0.00969033073520118,
                "553": 0.007373077733305245,
                "554": 0.0067410996418790815,
                "555": 0.006319780914261639,
                "556": 0.007162418369496524,
                "557": 0.008426374552348851,
                "558": 0.007373077733305245,
                "559": 0.0067410996418790815,
                "560": 0.00653044027807036,
                "561": 0.00821571518854013,
                "562": 0.003791868548556983,
                "563": 0.008426374552348851,
                "564": 0.007583737097113966,
                "565": 0.003581209184748262,
                "566": 0.0054771434590267535,
                "567": 0.004002527912365704,
                "568": 0.0027385717295133768,
                "569": 0.005055824731409311,
                "570": 0.004423846639983148,
                "571": 0.003581209184748262,
                "572": 0.0033705498209395408,
                "573": 0.0025279123657046556,
                "574": 0.001474615546661049,
                "575": 0.001474615546661049,
                "576": 0.0025279123657046556,
                "577": 0.001474615546661049,
                "578": 0.0016852749104697704,
                "579": 0.002949231093322098,
                "580": 0.0016852749104697704,
                "581": 0.0008426374552348852,
                "582": 0.0016852749104697704,
                "583": 0.0010532968190436064,
                "584": 0.0016852749104697704,
                "585": 0.0010532968190436064,
                "586": 0.0012639561828523278,
                "587": 0.0006319780914261639,
                "588": 0.0016852749104697704,
                "589": 0.0012639561828523278,
                "590": 0.0012639561828523278,
                "591": 0.0010532968190436064,
                "592": 0.0010532968190436064,
                "593": 0.0002106593638087213,
                "594": 0.0,
                "595": 0.0004213187276174426,
                "596": 0.0,
                "597": 0.0,
                "598": 0.0004213187276174426,
                "599": 0.0006319780914261639
            }
        },
        {
            "first_node": 22,
            "max_duration": 9.4,
            "min_duration": 0.6,
            "second_node": 7,
            "type": "stc"
        },
        {
            "first_node": 23,
            "max_duration": 62.8,
            "min_duration": 51.4,
            "second_node": 24,
            "type": "stcu_ordinary",
            "ProbabilityDistribution": {
                "514": 0.0,
                "515": 0.00040559724193875484,
                "516": 0.00020279862096937742,
                "517": 0.00040559724193875484,
                "518": 0.00040559724193875484,
                "519": 0.00020279862096937742,
                "520": 0.0006083958629081322,
                "521": 0.0006083958629081322,
                "522": 0.00020279862096937742,
                "523": 0.0006083958629081322,
                "524": 0.0006083958629081322,
                "525": 0.0006083958629081322,
                "526": 0.0006083958629081322,
                "527": 0.00040559724193875484,
                "528": 0.001013993104846887,
                "529": 0.0016223889677550193,
                "530": 0.001013993104846887,
                "531": 0.0008111944838775097,
                "532": 0.001419590346785642,
                "533": 0.0026363820726019063,
                "534": 0.0024335834516325287,
                "535": 0.0018251875887243967,
                "536": 0.0016223889677550193,
                "537": 0.0018251875887243967,
                "538": 0.0018251875887243967,
                "539": 0.003041979314540661,
                "540": 0.0018251875887243967,
                "541": 0.0018251875887243967,
                "542": 0.0038531737984181707,
                "543": 0.0032447779355100387,
                "544": 0.0022307848306631515,
                "545": 0.0026363820726019063,
                "546": 0.002027986209693774,
                "547": 0.003447576556479416,
                "548": 0.006692354491989455,
                "549": 0.0036503751774487935,
                "550": 0.0038531737984181707,
                "551": 0.005678361387142568,
                "552": 0.004258771040356926,
                "553": 0.003447576556479416,
                "554": 0.0026363820726019063,
                "555": 0.0050699655242344354,
                "556": 0.004055972419387548,
                "557": 0.004258771040356926,
                "558": 0.005272764145203813,
                "559": 0.005881160008111945,
                "560": 0.006286757250050699,
                "561": 0.006489555871020077,
                "562": 0.007909146217805718,
                "563": 0.007300750354897587,
                "564": 0.007706347596836341,
                "565": 0.01095112553234638,
                "566": 0.008720340701683229,
                "567": 0.01095112553234638,
                "568": 0.007909146217805718,
                "569": 0.006489555871020077,
                "570": 0.010748326911377002,
                "571": 0.009937132427499494,
                "572": 0.010545528290407625,
                "573": 0.012776313121070776,
                "574": 0.013587507604948286,
                "575": 0.013587507604948286,
                "576": 0.013587507604948286,
                "577": 0.01399310484688704,
                "578": 0.013790306225917663,
                "579": 0.01095112553234638,
                "580": 0.017643480024335835,
                "581": 0.013587507604948286,
                "582": 0.013181910363009532,
                "583": 0.016021091056580814,
                "584": 0.01399310484688704,
                "585": 0.014398702088825797,
                "586": 0.013790306225917663,
                "587": 0.015209896572703305,
                "588": 0.01622388967755019,
                "589": 0.016832285540458326,
                "590": 0.014398702088825797,
                "591": 0.017035084161427703,
                "592": 0.014398702088825797,
                "593": 0.017440681403366458,
                "594": 0.01642668829851957,
                "595": 0.018860271750152098,
                "596": 0.013181910363009532,
                "597": 0.014601500709795174,
                "598": 0.017846278645305212,
                "599": 0.01622388967755019,
                "600": 0.012776313121070776,
                "601": 0.017440681403366458,
                "602": 0.014601500709795174,
                "603": 0.020685459338876496,
                "604": 0.017035084161427703,
                "605": 0.014601500709795174,
                "606": 0.01399310484688704,
                "607": 0.014398702088825797,
                "608": 0.011559521395254513,
                "609": 0.01399310484688704,
                "610": 0.01338470898397891,
                "611": 0.01662948691948895,
                "612": 0.013790306225917663,
                "613": 0.013181910363009532,
                "614": 0.01338470898397891,
                "615": 0.01338470898397891,
                "616": 0.009937132427499494,
                "617": 0.015412695193672683,
                "618": 0.013587507604948286,
                "619": 0.011965118637193267,
                "620": 0.01399310484688704,
                "621": 0.010748326911377002,
                "622": 0.01176232001622389,
                "623": 0.013587507604948286,
                "624": 0.010545528290407625,
                "625": 0.009937132427499494,
                "626": 0.007503548975866964,
                "627": 0.011153924153315757,
                "628": 0.006692354491989455
            }
        },
        {
            "first_node": 1,
            "max_duration": 60.4,
            "min_duration": 49.4,
            "second_node": 25,
            "type": "stcu_ordinary",
            "ProbabilityDistribution": {
                "494": 0.0030834457506263247,
                "495": 0.0032761611100404703,
                "496": 0.004047022547697052,
                "497": 0.004817883985353632,
                "498": 0.005010599344767778,
                "499": 0.005781460782424359,
                "500": 0.005974176141838505,
                "501": 0.006552322220080941,
                "502": 0.007323183657737522,
                "503": 0.004432453266525342,
                "504": 0.006552322220080941,
                "505": 0.007323183657737522,
                "506": 0.005974176141838505,
                "507": 0.0046251686259394876,
                "508": 0.007323183657737522,
                "509": 0.007901329735979958,
                "510": 0.007515899017151667,
                "511": 0.007708614376565812,
                "512": 0.00905762189246483,
                "513": 0.010021198689535556,
                "514": 0.008864906533050684,
                "515": 0.007901329735979958,
                "516": 0.009250337251878975,
                "517": 0.012141067643091155,
                "518": 0.012333783002505299,
                "519": 0.01194835228367701,
                "520": 0.012333783002505299,
                "521": 0.010213914048949701,
                "522": 0.009635767970707265,
                "523": 0.010213914048949701,
                "524": 0.011177490846020427,
                "525": 0.015224513393717479,
                "526": 0.010021198689535556,
                "527": 0.01271921372133359,
                "528": 0.01271921372133359,
                "529": 0.014453651956060899,
                "530": 0.014839082674889188,
                "531": 0.015802659471959916,
                "532": 0.01560994411254577,
                "533": 0.012333783002505299,
                "534": 0.018693389863172094,
                "535": 0.013297359799576027,
                "536": 0.01638080555020235,
                "537": 0.015802659471959916,
                "538": 0.013682790518404316,
                "539": 0.014260936596646753,
                "540": 0.013104644440161881,
                "541": 0.01811524378492966,
                "542": 0.017344382347273077,
                "543": 0.012333783002505299,
                "544": 0.014839082674889188,
                "545": 0.016573520909616498,
                "546": 0.014839082674889188,
                "547": 0.018693389863172094,
                "548": 0.01194835228367701,
                "549": 0.011562921564848718,
                "550": 0.017922528425515515,
                "551": 0.01271921372133359,
                "552": 0.01349007515899017,
                "553": 0.017151666987858933,
                "554": 0.014260936596646753,
                "555": 0.014453651956060899,
                "556": 0.014839082674889188,
                "557": 0.011562921564848718,
                "558": 0.014839082674889188,
                "559": 0.011755636924262864,
                "560": 0.012333783002505299,
                "561": 0.012911929080747736,
                "562": 0.01271921372133359,
                "563": 0.008672191173636538,
                "564": 0.008864906533050684,
                "565": 0.010792060127192138,
                "566": 0.010406629408363847,
                "567": 0.009250337251878975,
                "568": 0.00905762189246483,
                "569": 0.010021198689535556,
                "570": 0.008286760454808249,
                "571": 0.009250337251878975,
                "572": 0.006745037579495085,
                "573": 0.008094045095394103,
                "574": 0.007323183657737522,
                "575": 0.008094045095394103,
                "576": 0.006745037579495085,
                "577": 0.004432453266525342,
                "578": 0.006937752938909231,
                "579": 0.005203314704181923,
                "580": 0.0046251686259394876,
                "581": 0.005781460782424359,
                "582": 0.004239737907111196,
                "583": 0.004239737907111196,
                "584": 0.003854307188282906,
                "585": 0.005010599344767778,
                "586": 0.0032761611100404703,
                "587": 0.003854307188282906,
                "588": 0.004239737907111196,
                "589": 0.004239737907111196,
                "590": 0.0030834457506263247,
                "591": 0.002119868953555598,
                "592": 0.0030834457506263247,
                "593": 0.0017344382347273077,
                "594": 0.0028907303912121796,
                "595": 0.001927153594141453,
                "596": 0.0028907303912121796,
                "597": 0.002505299672383889,
                "598": 0.001927153594141453,
                "599": 0.0013490075158990172,
                "600": 0.0015417228753131624,
                "601": 0.0023125843129697438,
                "602": 0.0017344382347273077,
                "603": 0.0013490075158990172,
                "604": 0.0015417228753131624
            }
        },
        {
            "first_node": 26,
            "max_duration": 44.6,
            "min_duration": 36.5,
            "second_node": 14,
            "type": "stcu_ordinary",
            "ProbabilityDistribution": {
                "365": 0.0008192244675040961,
                "366": 0.0008192244675040961,
                "367": 0.00027307482250136535,
                "368": 0.0008192244675040961,
                "369": 0.0019115237575095577,
                "370": 0.0005461496450027307,
                "371": 0.0016384489350081922,
                "372": 0.0016384489350081922,
                "373": 0.002730748225013654,
                "374": 0.0008192244675040961,
                "375": 0.002730748225013654,
                "376": 0.002730748225013654,
                "377": 0.0019115237575095577,
                "378": 0.00354997269251775,
                "379": 0.0024576734025122883,
                "380": 0.0038230475150191155,
                "381": 0.0024576734025122883,
                "382": 0.004915346805024577,
                "383": 0.004915346805024577,
                "384": 0.004915346805024577,
                "385": 0.005461496450027308,
                "386": 0.0038230475150191155,
                "387": 0.006007646095030038,
                "388": 0.008192244675040962,
                "389": 0.006553795740032769,
                "390": 0.006007646095030038,
                "391": 0.006007646095030038,
                "392": 0.012015292190060076,
                "393": 0.007919169852539596,
                "394": 0.01119606772255598,
                "395": 0.007373020207536865,
                "396": 0.010376843255051884,
                "397": 0.010376843255051884,
                "398": 0.012561441835062807,
                "399": 0.013926815947569634,
                "400": 0.012015292190060076,
                "401": 0.015292190060076462,
                "402": 0.015292190060076462,
                "403": 0.01474604041507373,
                "404": 0.015292190060076462,
                "405": 0.017476788640087382,
                "406": 0.020207536865101038,
                "407": 0.019388312397596943,
                "408": 0.01774986346258875,
                "409": 0.01720371381758602,
                "410": 0.020207536865101038,
                "411": 0.015838339705079193,
                "412": 0.023211359912616056,
                "413": 0.019661387220098307,
                "414": 0.019661387220098307,
                "415": 0.01774986346258875,
                "416": 0.02539595849262698,
                "417": 0.019934462042599674,
                "418": 0.01774986346258875,
                "419": 0.02403058438012015,
                "420": 0.020207536865101038,
                "421": 0.021572910977607863,
                "422": 0.021026761332605132,
                "423": 0.019934462042599674,
                "424": 0.019661387220098307,
                "425": 0.024576734025122882,
                "426": 0.02239213544511196,
                "427": 0.019934462042599674,
                "428": 0.016930638995084655,
                "429": 0.018569087930092845,
                "430": 0.022665210267613325,
                "431": 0.018569087930092845,
                "432": 0.015838339705079193,
                "433": 0.016930638995084655,
                "434": 0.01829601310759148,
                "435": 0.014472965592572365,
                "436": 0.016111414527580557,
                "437": 0.015838339705079193,
                "438": 0.015565264882577826,
                "439": 0.016111414527580557,
                "440": 0.012561441835062807,
                "441": 0.011742217367558712,
                "442": 0.012288367012561441,
                "443": 0.013653741125068269,
                "444": 0.010376843255051884,
                "445": 0.012015292190060076,
                "446": 0.009830693610049153
            }
        },
        {
            "first_node": 27,
            "max_duration": 58.3,
            "min_duration": 47.7,
            "second_node": 28,
            "type": "stcu_ordinary",
            "ProbabilityDistribution": {
                "477": 0.001584786053882726,
                "478": 0.002377179080824089,
                "479": 0.0017828843106180666,
                "480": 0.0017828843106180666,
                "481": 0.0017828843106180666,
                "482": 0.0025752773375594296,
                "483": 0.0027733755942947703,
                "484": 0.003169572107765452,
                "485": 0.0019809825673534074,
                "486": 0.003169572107765452,
                "487": 0.004358161648177496,
                "488": 0.004160063391442155,
                "489": 0.0025752773375594296,
                "490": 0.0033676703645007925,
                "491": 0.005546751188589541,
                "492": 0.0035657686212361333,
                "493": 0.004358161648177496,
                "494": 0.005744849445324881,
                "495": 0.004952456418383518,
                "496": 0.006339144215530904,
                "497": 0.006141045958795562,
                "498": 0.006933438985736925,
                "499": 0.006141045958795562,
                "500": 0.005942947702060222,
                "501": 0.007527733755942948,
                "502": 0.008914421553090333,
                "503": 0.00812202852614897,
                "504": 0.00832012678288431,
                "505": 0.009508716323296355,
                "506": 0.004952456418383518,
                "507": 0.008914421553090333,
                "508": 0.011093502377179081,
                "509": 0.010499207606973059,
                "510": 0.009706814580031696,
                "511": 0.010301109350237718,
                "512": 0.011291600633914422,
                "513": 0.007725832012678288,
                "514": 0.014857369255150554,
                "515": 0.009904912836767036,
                "516": 0.011489698890649762,
                "517": 0.008716323296354992,
                "518": 0.009112519809825673,
                "519": 0.01366877971473851,
                "520": 0.013074484944532488,
                "521": 0.01664025356576862,
                "522": 0.014461172741679873,
                "523": 0.012480190174326465,
                "524": 0.01862123613312203,
                "525": 0.01644215530903328,
                "526": 0.014659270998415214,
                "527": 0.01921553090332805,
                "528": 0.016838351822503962,
                "529": 0.01347068145800317,
                "530": 0.018423137876386688,
                "531": 0.013074484944532488,
                "532": 0.01386687797147385,
                "533": 0.015649762282091917,
                "534": 0.01347068145800317,
                "535": 0.014659270998415214,
                "536": 0.018225039619651346,
                "537": 0.01386687797147385,
                "538": 0.018423137876386688,
                "539": 0.01901743264659271,
                "540": 0.016838351822503962,
                "541": 0.015649762282091917,
                "542": 0.01901743264659271,
                "543": 0.012282091917591125,
                "544": 0.01664025356576862,
                "545": 0.017234548335974643,
                "546": 0.014263074484944533,
                "547": 0.013074484944532488,
                "548": 0.010895404120443741,
                "549": 0.014064976228209191,
                "550": 0.014857369255150554,
                "551": 0.012083993660855784,
                "552": 0.011687797147385102,
                "553": 0.010697305863708399,
                "554": 0.012083993660855784,
                "555": 0.012876386687797147,
                "556": 0.011489698890649762,
                "557": 0.010697305863708399,
                "558": 0.009508716323296355,
                "559": 0.010301109350237718,
                "560": 0.007329635499207607,
                "561": 0.009904912836767036,
                "562": 0.006933438985736925,
                "563": 0.00832012678288431,
                "564": 0.008518225039619652,
                "565": 0.008518225039619652,
                "566": 0.007725832012678288,
                "567": 0.006537242472266244,
                "568": 0.006339144215530904,
                "569": 0.008518225039619652,
                "570": 0.003961965134706815,
                "571": 0.0053486529318541995,
                "572": 0.006339144215530904,
                "573": 0.006141045958795562,
                "574": 0.005150554675118859,
                "575": 0.006537242472266244,
                "576": 0.004952456418383518,
                "577": 0.002377179080824089,
                "578": 0.0025752773375594296,
                "579": 0.003763866877971474,
                "580": 0.004358161648177496,
                "581": 0.0045562599049128365,
                "582": 0.0035657686212361333,
                "583": 0.003169572107765452
            }
        },
        {
            "first_node": 16,
            "max_duration": 1440.0,
            "min_duration": 0.0,
            "second_node": 28,
            "type": "stc"
        },
        {
            "first_node": 18,
            "max_duration": 178.5,
            "min_duration": 60.0,
            "second_node": 10,
            "type": "stc"
        },
        {
            "first_node": 29,
            "max_duration": 16.9,
            "min_duration": 1.8,
            "second_node": 26,
            "type": "stc"
        },
        {
            "first_node": 30,
            "max_duration": 43.1,
            "min_duration": 35.2,
            "second_node": 31,
            "type": "stcu_ordinary",
            "ProbabilityDistribution": {
                "352": 0.0176,
                "353": 0.0144,
                "354": 0.02336,
                "355": 0.02624,
                "356": 0.01792,
                "357": 0.02304,
                "358": 0.02464,
                "359": 0.02656,
                "360": 0.0256,
                "361": 0.024,
                "362": 0.02272,
                "363": 0.02496,
                "364": 0.0256,
                "365": 0.02176,
                "366": 0.02752,
                "367": 0.024,
                "368": 0.02496,
                "369": 0.02176,
                "370": 0.02528,
                "371": 0.02272,
                "372": 0.0256,
                "373": 0.0224,
                "374": 0.02048,
                "375": 0.02624,
                "376": 0.02432,
                "377": 0.01952,
                "378": 0.02144,
                "379": 0.02016,
                "380": 0.01824,
                "381": 0.02208,
                "382": 0.024,
                "383": 0.016,
                "384": 0.01984,
                "385": 0.01824,
                "386": 0.01632,
                "387": 0.01568,
                "388": 0.01856,
                "389": 0.01376,
                "390": 0.0112,
                "391": 0.01312,
                "392": 0.01056,
                "393": 0.01216,
                "394": 0.0112,
                "395": 0.01024,
                "396": 0.01056,
                "397": 0.00704,
                "398": 0.00672,
                "399": 0.00864,
                "400": 0.00352,
                "401": 0.00736,
                "402": 0.00608,
                "403": 0.00512,
                "404": 0.00352,
                "405": 0.00416,
                "406": 0.00256,
                "407": 0.0048,
                "408": 0.00448,
                "409": 0.00352,
                "410": 0.00288,
                "411": 0.00224,
                "412": 0.00256,
                "413": 0.00128,
                "414": 0.00224,
                "415": 0.00224,
                "416": 0.00192,
                "417": 0.0016,
                "418": 0.00192,
                "419": 0.00256,
                "420": 0.00096,
                "421": 0.00064,
                "422": 0.00064,
                "423": 0.0,
                "424": 0.00064,
                "425": 0.0,
                "426": 0.0,
                "427": 0.0,
                "428": 0.00064,
                "429": 0.00064,
                "430": 0.0,
                "431": 0.00032
            }
        },
        {
            "first_node": 25,
            "max_duration": 22.9,
            "min_duration": 6.4,
            "second_node": 23,
            "type": "stc"
        },
        {
            "first_node": 31,
            "max_duration": 18.0,
            "min_duration": 6.3,
            "second_node": 20,
            "type": "stc"
        },
        {
            "first_node": 6,
            "max_duration": 55.5,
            "min_duration": 45.4,
            "second_node": 29,
            "type": "stcu_ordinary",
            "ProbabilityDistribution": {
                "454": 0.00030703101013202335,
                "455": 0.00030703101013202335,
                "456": 0.0,
                "457": 0.00030703101013202335,
                "458": 0.0,
                "459": 0.0,
                "460": 0.0,
                "461": 0.0,
                "462": 0.0,
                "463": 0.0,
                "464": 0.00030703101013202335,
                "465": 0.0,
                "466": 0.0,
                "467": 0.00030703101013202335,
                "468": 0.0,
                "469": 0.0,
                "470": 0.00030703101013202335,
                "471": 0.00092109303039607,
                "472": 0.0,
                "473": 0.0,
                "474": 0.00030703101013202335,
                "475": 0.00092109303039607,
                "476": 0.0,
                "477": 0.0006140620202640467,
                "478": 0.00092109303039607,
                "479": 0.00092109303039607,
                "480": 0.00030703101013202335,
                "481": 0.0006140620202640467,
                "482": 0.0,
                "483": 0.00184218606079214,
                "484": 0.00092109303039607,
                "485": 0.0015351550506601166,
                "486": 0.0021492170709241634,
                "487": 0.00030703101013202335,
                "488": 0.00276327909118821,
                "489": 0.0015351550506601166,
                "490": 0.002456248081056187,
                "491": 0.0033773411114522566,
                "492": 0.00276327909118821,
                "493": 0.0015351550506601166,
                "494": 0.0015351550506601166,
                "495": 0.00368437212158428,
                "496": 0.004298434141848327,
                "497": 0.003991403131716303,
                "498": 0.003991403131716303,
                "499": 0.002456248081056187,
                "500": 0.0052195271722443965,
                "501": 0.005833589192508443,
                "502": 0.005833589192508443,
                "503": 0.004912496162112374,
                "504": 0.007061713233036537,
                "505": 0.00644765121277249,
                "506": 0.008596868283696654,
                "507": 0.00736874424316856,
                "508": 0.00736874424316856,
                "509": 0.009824992324224747,
                "510": 0.008903899293828677,
                "511": 0.00828983727356463,
                "512": 0.008903899293828677,
                "513": 0.012588271415412957,
                "514": 0.008903899293828677,
                "515": 0.01105311636475284,
                "516": 0.015351550506601168,
                "517": 0.013509364445809026,
                "518": 0.015044519496469143,
                "519": 0.013509364445809026,
                "520": 0.017193736567393307,
                "521": 0.01473748848633712,
                "522": 0.020878108688977586,
                "523": 0.013509364445809026,
                "524": 0.016886705557261284,
                "525": 0.01750076757752533,
                "526": 0.01903592262818545,
                "527": 0.01657967454712926,
                "528": 0.019957015658581517,
                "529": 0.01934295363831747,
                "530": 0.022413263739637704,
                "531": 0.018728891618053422,
                "532": 0.029167945962542217,
                "533": 0.01903592262818545,
                "534": 0.027018728891618052,
                "535": 0.01934295363831747,
                "536": 0.023334356770033773,
                "537": 0.01934295363831747,
                "538": 0.029167945962542217,
                "539": 0.020571077678845563,
                "540": 0.021799201719373655,
                "541": 0.024255449800429842,
                "542": 0.02302732575990175,
                "543": 0.021799201719373655,
                "544": 0.023334356770033773,
                "545": 0.02486951182069389,
                "546": 0.02026404666871354,
                "547": 0.023641387780165796,
                "548": 0.024562480810561865,
                "549": 0.02118513969910961,
                "550": 0.02394841879029782,
                "551": 0.021799201719373655,
                "552": 0.028246852932146148,
                "553": 0.01903592262818545,
                "554": 0.02394841879029782,
                "555": 0.01750076757752533
            }
        },
        {
            "first_node": 32,
            "max_duration": 16.5,
            "min_duration": 1.9,
            "second_node": 11,
            "type": "stc"
        },
        {
            "first_node": 3,
            "max_duration": 230.6,
            "min_duration": 60.0,
            "second_node": 21,
            "type": "stc"
        },
        {
            "first_node": 33,
            "max_duration": 22.0,
            "min_duration": 18.0,
            "second_node": 2,
            "type": "stcu_ordinary",
            "ProbabilityDistribution": {
                "180": 0.0005694760820045558,
                "181": 0.0005694760820045558,
                "182": 0.0005694760820045558,
                "183": 0.0005694760820045558,
                "184": 0.0017084282460136675,
                "185": 0.002277904328018223,
                "186": 0.004555808656036446,
                "187": 0.006264236902050114,
                "188": 0.007972665148063782,
                "189": 0.007403189066059226,
                "190": 0.008542141230068337,
                "191": 0.015375854214123007,
                "192": 0.011389521640091117,
                "193": 0.011389521640091117,
                "194": 0.01366742596810934,
                "195": 0.017084282460136675,
                "196": 0.02050113895216401,
                "197": 0.026765375854214124,
                "198": 0.023917995444191344,
                "199": 0.03416856492027335,
                "200": 0.02619589977220957,
                "201": 0.03018223234624146,
                "202": 0.033599088838268794,
                "203": 0.04214123006833713,
                "204": 0.04555808656036447,
                "205": 0.0387243735763098,
                "206": 0.03758542141230068,
                "207": 0.043849658314350795,
                "208": 0.044988610478359906,
                "209": 0.04214123006833713,
                "210": 0.04726651480637813,
                "211": 0.05125284738041002,
                "212": 0.03644646924829157,
                "213": 0.03302961275626424,
                "214": 0.04100227790432802,
                "215": 0.038154897494305236,
                "216": 0.03416856492027335,
                "217": 0.035876993166287015,
                "218": 0.03530751708428246,
                "219": 0.02619589977220957,
                "220": 0.021070615034168565
            }
        },
        {
            "first_node": 19,
            "max_duration": 53.5,
            "min_duration": 43.7,
            "second_node": 32,
            "type": "stcu_ordinary",
            "ProbabilityDistribution": {
                "437": 0.0002914602156805596,
                "438": 0.0002914602156805596,
                "439": 0.0,
                "440": 0.0,
                "441": 0.0,
                "442": 0.0002914602156805596,
                "443": 0.0,
                "444": 0.0002914602156805596,
                "445": 0.0,
                "446": 0.0002914602156805596,
                "447": 0.0002914602156805596,
                "448": 0.0,
                "449": 0.0002914602156805596,
                "450": 0.0,
                "451": 0.0,
                "452": 0.0005829204313611193,
                "453": 0.0008743806470416788,
                "454": 0.0005829204313611193,
                "455": 0.0005829204313611193,
                "456": 0.0008743806470416788,
                "457": 0.0008743806470416788,
                "458": 0.0008743806470416788,
                "459": 0.0005829204313611193,
                "460": 0.0008743806470416788,
                "461": 0.0017487612940833576,
                "462": 0.0008743806470416788,
                "463": 0.0011658408627222385,
                "464": 0.0005829204313611193,
                "465": 0.001457301078402798,
                "466": 0.001457301078402798,
                "467": 0.0017487612940833576,
                "468": 0.002331681725444477,
                "469": 0.0011658408627222385,
                "470": 0.0020402215097639173,
                "471": 0.001457301078402798,
                "472": 0.0026231419411250363,
                "473": 0.0017487612940833576,
                "474": 0.002331681725444477,
                "475": 0.004080443019527835,
                "476": 0.005537744097930632,
                "477": 0.003788982803847275,
                "478": 0.002914602156805596,
                "479": 0.004371903235208394,
                "480": 0.0061206645292917515,
                "481": 0.004080443019527835,
                "482": 0.005829204313611192,
                "483": 0.0061206645292917515,
                "484": 0.0052462838822500725,
                "485": 0.006703584960652871,
                "486": 0.007869425823375109,
                "487": 0.009909647333139027,
                "488": 0.010201107548819586,
                "489": 0.00728650539201399,
                "490": 0.009326726901777908,
                "491": 0.009035266686097347,
                "492": 0.009326726901777908,
                "493": 0.011949868842902944,
                "494": 0.013115709705625183,
                "495": 0.013990090352666861,
                "496": 0.0151559312153891,
                "497": 0.01486447099970854,
                "498": 0.012824249489944622,
                "499": 0.01632177207811134,
                "500": 0.016613232293791896,
                "501": 0.018070533372194695,
                "502": 0.012241329058583503,
                "503": 0.016904692509472456,
                "504": 0.016613232293791896,
                "505": 0.02273389682308365,
                "506": 0.018653453803555816,
                "507": 0.02302535703876421,
                "508": 0.020402215097639172,
                "509": 0.019819294666278055,
                "510": 0.012824249489944622,
                "511": 0.02185951617604197,
                "512": 0.016904692509472456,
                "513": 0.020693675313319733,
                "514": 0.023316817254444767,
                "515": 0.019819294666278055,
                "516": 0.024774118332847567,
                "517": 0.02215097639172253,
                "518": 0.02215097639172253,
                "519": 0.02127659574468085,
                "520": 0.02389973768580589,
                "521": 0.02156805596036141,
                "522": 0.02389973768580589,
                "523": 0.027980180705333722,
                "524": 0.025939959195569805,
                "525": 0.02215097639172253,
                "526": 0.02273389682308365,
                "527": 0.024482658117167006,
                "528": 0.02215097639172253,
                "529": 0.02273389682308365,
                "530": 0.024191197901486446,
                "531": 0.024191197901486446,
                "532": 0.02215097639172253,
                "533": 0.017779073156514134,
                "534": 0.017196152725153017,
                "535": 0.018653453803555816
            }
        },
        {
            "first_node": 15,
            "max_duration": 32.2,
            "min_duration": 26.4,
            "second_node": 22,
            "type": "stcu_ordinary",
            "ProbabilityDistribution": {
                "264": 0.034975369458128076,
                "265": 0.04285714285714286,
                "266": 0.034482758620689655,
                "267": 0.04285714285714286,
                "268": 0.034975369458128076,
                "269": 0.03940886699507389,
                "270": 0.034482758620689655,
                "271": 0.03694581280788178,
                "272": 0.04384236453201971,
                "273": 0.035467980295566505,
                "274": 0.040886699507389164,
                "275": 0.034482758620689655,
                "276": 0.03399014778325123,
                "277": 0.03596059113300493,
                "278": 0.030541871921182268,
                "279": 0.02413793103448276,
                "280": 0.033497536945812804,
                "281": 0.029556650246305417,
                "282": 0.03152709359605911,
                "283": 0.022660098522167486,
                "284": 0.025123152709359605,
                "285": 0.021182266009852218,
                "286": 0.030049261083743842,
                "287": 0.024630541871921183,
                "288": 0.01625615763546798,
                "289": 0.018226600985221674,
                "290": 0.01921182266009852,
                "291": 0.015763546798029555,
                "292": 0.02019704433497537,
                "293": 0.012315270935960592,
                "294": 0.010344827586206896,
                "295": 0.01083743842364532,
                "296": 0.011822660098522168,
                "297": 0.00541871921182266,
                "298": 0.008374384236453201,
                "299": 0.007389162561576354,
                "300": 0.006896551724137931,
                "301": 0.007389162561576354,
                "302": 0.00541871921182266,
                "303": 0.0064039408866995075,
                "304": 0.003940886699507389,
                "305": 0.002955665024630542,
                "306": 0.0019704433497536944,
                "307": 0.004433497536945813,
                "308": 0.001477832512315271,
                "309": 0.0004926108374384236,
                "310": 0.0004926108374384236,
                "311": 0.0004926108374384236,
                "312": 0.0,
                "313": 0.0009852216748768472,
                "314": 0.0004926108374384236,
                "315": 0.0004926108374384236,
                "316": 0.0,
                "317": 0.0,
                "318": 0.0,
                "319": 0.0,
                "320": 0.0004926108374384236,
                "321": 0.0,
                "322": 0.0004926108374384236
            }
        },
        {
            "first_node": 24,
            "max_duration": 20.9,
            "min_duration": 3.8,
            "second_node": 33,
            "type": "stc"
        },
        {
            "first_node": 17,
            "max_duration": 16.0,
            "min_duration": 9.1,
            "second_node": 34,
            "type": "stc"
        },
        {
            "first_node": 35,
            "max_duration": 9.6,
            "min_duration": 3.1,
            "second_node": 30,
            "type": "stc"
        },
        {
            "first_node": 34,
            "max_duration": 82.1,
            "min_duration": 67.1,
            "second_node": 36,
            "type": "stcu_ordinary",
            "ProbabilityDistribution": {
                "671": 0.0,
                "672": 0.0,
                "673": 0.0,
                "674": 0.0,
                "675": 0.0,
                "676": 0.0,
                "677": 0.0,
                "678": 0.0,
                "679": 0.00025660764690787786,
                "680": 0.0,
                "681": 0.0,
                "682": 0.0,
                "683": 0.00025660764690787786,
                "684": 0.0,
                "685": 0.0,
                "686": 0.0,
                "687": 0.0,
                "688": 0.0,
                "689": 0.0005132152938157557,
                "690": 0.0005132152938157557,
                "691": 0.0,
                "692": 0.00025660764690787786,
                "693": 0.0,
                "694": 0.0,
                "695": 0.0,
                "696": 0.0,
                "697": 0.00025660764690787786,
                "698": 0.0,
                "699": 0.00025660764690787786,
                "700": 0.00025660764690787786,
                "701": 0.00025660764690787786,
                "702": 0.0,
                "703": 0.00025660764690787786,
                "704": 0.0007698229407236335,
                "705": 0.00025660764690787786,
                "706": 0.00025660764690787786,
                "707": 0.0,
                "708": 0.0007698229407236335,
                "709": 0.0007698229407236335,
                "710": 0.00025660764690787786,
                "711": 0.00025660764690787786,
                "712": 0.00025660764690787786,
                "713": 0.0,
                "714": 0.0005132152938157557,
                "715": 0.0005132152938157557,
                "716": 0.0,
                "717": 0.0010264305876315114,
                "718": 0.0005132152938157557,
                "719": 0.0005132152938157557,
                "720": 0.00025660764690787786,
                "721": 0.0010264305876315114,
                "722": 0.00025660764690787786,
                "723": 0.0007698229407236335,
                "724": 0.0012830382345393892,
                "725": 0.0007698229407236335,
                "726": 0.0005132152938157557,
                "727": 0.0005132152938157557,
                "728": 0.0023094688221709007,
                "729": 0.0023094688221709007,
                "730": 0.0010264305876315114,
                "731": 0.001539645881447267,
                "732": 0.0023094688221709007,
                "733": 0.0010264305876315114,
                "734": 0.0012830382345393892,
                "735": 0.0023094688221709007,
                "736": 0.0005132152938157557,
                "737": 0.0005132152938157557,
                "738": 0.001796253528355145,
                "739": 0.001539645881447267,
                "740": 0.0023094688221709007,
                "741": 0.0023094688221709007,
                "742": 0.001796253528355145,
                "743": 0.001796253528355145,
                "744": 0.0012830382345393892,
                "745": 0.003079291762894534,
                "746": 0.00359250705671029,
                "747": 0.0043623299974339235,
                "748": 0.003079291762894534,
                "749": 0.0033358994098024123,
                "750": 0.0028226841159866563,
                "751": 0.001796253528355145,
                "752": 0.0028226841159866563,
                "753": 0.00359250705671029,
                "754": 0.006671798819604825,
                "755": 0.003849114703618168,
                "756": 0.00359250705671029,
                "757": 0.004875545291249679,
                "758": 0.007441621760328458,
                "759": 0.00590197587888119,
                "760": 0.0056453682319733125,
                "761": 0.004875545291249679,
                "762": 0.00590197587888119,
                "763": 0.007441621760328458,
                "764": 0.008211444701052091,
                "765": 0.00590197587888119,
                "766": 0.005388760585065435,
                "767": 0.007698229407236336,
                "768": 0.007698229407236336,
                "769": 0.008981267641775726,
                "770": 0.00590197587888119,
                "771": 0.007441621760328458,
                "772": 0.008211444701052091,
                "773": 0.01077752117013087,
                "774": 0.008468052347959968,
                "775": 0.011547344110854504,
                "776": 0.008211444701052091,
                "777": 0.006671798819604825,
                "778": 0.01180395175776238,
                "779": 0.014113420579933282,
                "780": 0.013600205286117526,
                "781": 0.009751090582499358,
                "782": 0.013600205286117526,
                "783": 0.008468052347959968,
                "784": 0.013856812933025405,
                "785": 0.013856812933025405,
                "786": 0.01206055940467026,
                "787": 0.014883243520656916,
                "788": 0.009494482935591481,
                "789": 0.015909674108288425,
                "790": 0.013600205286117526,
                "791": 0.01924557351809084,
                "792": 0.013856812933025405,
                "793": 0.01565306646138055,
                "794": 0.016166281755196306,
                "795": 0.017449319989735694,
                "796": 0.015396458814472672,
                "797": 0.019502181164998716,
                "798": 0.017192712342827817,
                "799": 0.016166281755196306,
                "800": 0.019502181164998716,
                "801": 0.020785219399538105,
                "802": 0.020015396458814474,
                "803": 0.018732358224275082,
                "804": 0.022068257634077496,
                "805": 0.022324865280985373,
                "806": 0.020015396458814474,
                "807": 0.020528611752630228,
                "808": 0.020528611752630228,
                "809": 0.019758788811906593,
                "810": 0.019502181164998716,
                "811": 0.016936104695919937,
                "812": 0.02027200410572235,
                "813": 0.01796253528355145,
                "814": 0.021041827046445985,
                "815": 0.021041827046445985,
                "816": 0.018475750577367205,
                "817": 0.020785219399538105,
                "818": 0.020015396458814474,
                "819": 0.022068257634077496,
                "820": 0.023094688221709007,
                "821": 0.020015396458814474
            }
        },
        {
            "first_node": 13,
            "max_duration": 23.6,
            "min_duration": 19.3,
            "second_node": 35,
            "type": "stcu_ordinary",
            "ProbabilityDistribution": {
                "193": 0.013379583746283449,
                "194": 0.017839444995044598,
                "195": 0.014370664023785926,
                "196": 0.018334985133795837,
                "197": 0.018334985133795837,
                "198": 0.019326065411298315,
                "199": 0.027254707631318136,
                "200": 0.024281466798810703,
                "201": 0.028245787908820614,
                "202": 0.02130822596630327,
                "203": 0.02973240832507433,
                "204": 0.033201189296333006,
                "205": 0.03369672943508424,
                "206": 0.03221010901883053,
                "207": 0.028741328047571853,
                "208": 0.035678889990089196,
                "209": 0.04311199207135778,
                "210": 0.05401387512388504,
                "211": 0.03221010901883053,
                "212": 0.030723488602576808,
                "213": 0.03369672943508424,
                "214": 0.03518334985133796,
                "215": 0.03914767096134787,
                "216": 0.031714568880079286,
                "217": 0.033201189296333006,
                "218": 0.03617443012884044,
                "219": 0.023785926660059464,
                "220": 0.027750247770069375,
                "221": 0.023785926660059464,
                "222": 0.02527254707631318,
                "223": 0.018334985133795837,
                "224": 0.014370664023785926,
                "225": 0.01635282457879088,
                "226": 0.015857284440039643,
                "227": 0.012388503468780971,
                "228": 0.011397423191278493,
                "229": 0.006937561942517344,
                "230": 0.009910802775024777,
                "231": 0.008919722497522299,
                "232": 0.004955401387512388,
                "233": 0.003468780971258672,
                "234": 0.005946481665014866,
                "235": 0.002973240832507433,
                "236": 0.002477700693756194
            }
        },
        {
            "first_node": 36,
            "max_duration": 25.5,
            "min_duration": 3.1,
            "second_node": 27,
            "type": "stc"
        }
    ],
    "nodes": [
        {
            "node_id": 1
        },
        {
            "node_id": 2
        },
        {
            "node_id": 3
        },
        {
            "node_id": 4
        },
        {
            "node_id": 5
        },
        {
            "node_id": 6
        },
        {
            "node_id": 7
        },
        {
            "node_id": 8
        },
        {
            "node_id": 9
        },
        {
            "node_id": 10
        },
        {
            "node_id": 11
        },
        {
            "node_id": 12
        },
        {
            "node_id": 13
        },
        {
            "node_id": 14
        },
        {
            "node_id": 15
        },
        {
            "node_id": 16
        },
        {
            "node_id": 17
        },
        {
            "node_id": 18
        },
        {
            "node_id": 19
        },
        {
            "node_id": 20
        },
        {
            "node_id": 21
        },
        {
            "node_id": 22
        },
        {
            "node_id": 23
        },
        {
            "node_id": 24
        },
        {
            "node_id": 25
        },
        {
            "node_id": 26
        },
        {
            "node_id": 27
        },
        {
            "node_id": 28
        },
        {
            "node_id": 29
        },
        {
            "node_id": 30
        },
        {
            "node_id": 31
        },
        {
            "node_id": 32
        },
        {
            "node_id": 33
        },
        {
            "node_id": 34
        },
        {
            "node_id": 35
        },
        {
            "node_id": 36
        }
    ],
    "n_decimals": 1
}