{
    "constraints": [
        {
            "first_node": 3,
            "max_duration": 25.0,
            "min_duration": 4.8,
            "second_node": 1,
            "type": "stc"
        },
        {
            "first_node": 4,
            "max_duration": 16.4,
            "min_duration": 2.2,
            "second_node": 5,
            "type": "stc"
        },
        {
            "first_node": 6,
            "max_duration": 187.3,
            "min_duration": 38.8,
            "second_node": 2,
            "type": "stc"
        },
        {
            "first_node": 8,
            "max_duration": 8.6,
            "min_duration": 1.7,
            "second_node": 7,
            "type": "stc"
        },
        {
            "first_node": 1,
            "max_duration": 66.0,
            "min_duration": 45.9,
            "second_node": 2,
            "type": "stcu_ordinary",
            "ProbabilityDistribution": {
                "459": 0.0022172949002217295,
                "460": 0.0022172949002217295,
                "461": 0.0023228803716608595,
                "462": 0.0015837820715869496,
                "463": 0.0022172949002217295,
                "464": 0.0017949530144652096,
                "465": 0.0026396367859782494,
                "466": 0.0030619786717347693,
                "467": 0.004434589800443459,
                "468": 0.0033787350860521592,
                "469": 0.0027452222574173794,
                "470": 0.0033787350860521592,
                "471": 0.003695491500369549,
                "472": 0.003801076971808679,
                "473": 0.003906662443247809,
                "474": 0.003801076971808679,
                "475": 0.0028508077288565093,
                "476": 0.003484320557491289,
                "477": 0.0032731496146130292,
                "478": 0.003589906028930419,
                "479": 0.004540175271882589,
                "480": 0.0031675641431738993,
                "481": 0.004856931686199979,
                "482": 0.004645760743321719,
                "483": 0.005490444514834759,
                "484": 0.004223418857565199,
                "485": 0.0025340513145391194,
                "486": 0.005279273571956499,
                "487": 0.004856931686199979,
                "488": 0.004645760743321719,
                "489": 0.004329004329004329,
                "490": 0.003906662443247809,
                "491": 0.005596029986273889,
                "492": 0.004856931686199979,
                "493": 0.005279273571956499,
                "494": 0.004434589800443459,
                "495": 0.005384859043395629,
                "496": 0.005068102629078239,
                "497": 0.006863055643543448,
                "498": 0.0066518847006651885,
                "499": 0.005384859043395629,
                "500": 0.006863055643543448,
                "501": 0.007707739415056488,
                "502": 0.007496568472178228,
                "503": 0.007602153943617358,
                "504": 0.0065462992292260585,
                "505": 0.0064407137577869285,
                "506": 0.005596029986273889,
                "507": 0.007074226586421708,
                "508": 0.006863055643543448,
                "509": 0.007074226586421708,
                "510": 0.0066518847006651885,
                "511": 0.007602153943617358,
                "512": 0.007813324886495618,
                "513": 0.006863055643543448,
                "514": 0.005384859043395629,
                "515": 0.007918910357934749,
                "516": 0.006968641114982578,
                "517": 0.0067574701721043184,
                "518": 0.007074226586421708,
                "519": 0.008024495829373878,
                "520": 0.007074226586421708,
                "521": 0.008658008658008658,
                "522": 0.006863055643543448,
                "523": 0.0065462992292260585,
                "524": 0.0066518847006651885,
                "525": 0.0064407137577869285,
                "526": 0.007707739415056488,
                "527": 0.009185936015204309,
                "528": 0.009185936015204309,
                "529": 0.007918910357934749,
                "530": 0.008974765072326049,
                "531": 0.008341252243691269,
                "532": 0.007602153943617358,
                "533": 0.008658008658008658,
                "534": 0.006863055643543448,
                "535": 0.007602153943617358,
                "536": 0.008235666772252138,
                "537": 0.008235666772252138,
                "538": 0.007602153943617358,
                "539": 0.007918910357934749,
                "540": 0.010136205258156478,
                "541": 0.007813324886495618,
                "542": 0.009185936015204309,
                "543": 0.010347376201034738,
                "544": 0.008869179600886918,
                "545": 0.009185936015204309,
                "546": 0.007285397529299968,
                "547": 0.008341252243691269,
                "548": 0.008658008658008658,
                "549": 0.008446837715130398,
                "550": 0.008658008658008658,
                "551": 0.005807200929152149,
                "552": 0.007074226586421708,
                "553": 0.008658008658008658,
                "554": 0.007602153943617358,
                "555": 0.007813324886495618,
                "556": 0.009502692429521698,
                "557": 0.007179812057860838,
                "558": 0.010241790729595609,
                "559": 0.007390983000739098,
                "560": 0.006968641114982578,
                "561": 0.008974765072326049,
                "562": 0.008024495829373878,
                "563": 0.007813324886495618,
                "564": 0.008024495829373878,
                "565": 0.007602153943617358,
                "566": 0.009185936015204309,
                "567": 0.005807200929152149,
                "568": 0.008974765072326049,
                "569": 0.0065462992292260585,
                "570": 0.0065462992292260585,
                "571": 0.008024495829373878,
                "572": 0.0065462992292260585,
                "573": 0.007496568472178228,
                "574": 0.0067574701721043184,
                "575": 0.0064407137577869285,
                "576": 0.007602153943617358,
                "577": 0.005807200929152149,
                "578": 0.006123957343469539,
                "579": 0.006123957343469539,
                "580": 0.005279273571956499,
                "581": 0.007074226586421708,
                "582": 0.007285397529299968,
                "583": 0.005912786400591279,
                "584": 0.006123957343469539,
                "585": 0.005490444514834759,
                "586": 0.005384859043395629,
                "587": 0.004856931686199979,
                "588": 0.005384859043395629,
                "589": 0.004117833386126069,
                "590": 0.0066518847006651885,
                "591": 0.003801076971808679,
                "592": 0.003906662443247809,
                "593": 0.004751346214760849,
                "594": 0.003695491500369549,
                "595": 0.004645760743321719,
                "596": 0.005384859043395629,
                "597": 0.0033787350860521592,
                "598": 0.005279273571956499,
                "599": 0.0032731496146130292,
                "600": 0.004751346214760849,
                "601": 0.004012247914686939,
                "602": 0.003484320557491289,
                "603": 0.003484320557491289,
                "604": 0.003589906028930419,
                "605": 0.003906662443247809,
                "606": 0.003695491500369549,
                "607": 0.003589906028930419,
                "608": 0.0030619786717347693,
                "609": 0.0031675641431738993,
                "610": 0.0030619786717347693,
                "611": 0.0033787350860521592,
                "612": 0.004329004329004329,
                "613": 0.004012247914686939,
                "614": 0.0024284658430999894,
                "615": 0.0028508077288565093,
                "616": 0.003589906028930419,
                "617": 0.0026396367859782494,
                "618": 0.0032731496146130292,
                "619": 0.0024284658430999894,
                "620": 0.0023228803716608595,
                "621": 0.0026396367859782494,
                "622": 0.0025340513145391194,
                "623": 0.0025340513145391194,
                "624": 0.0030619786717347693,
                "625": 0.0028508077288565093,
                "626": 0.0021117094287825995,
                "627": 0.0022172949002217295,
                "628": 0.0019005384859043396,
                "629": 0.0014781966001478197,
                "630": 0.0012670256572695597,
                "631": 0.0019005384859043396,
                "632": 0.0019005384859043396,
                "633": 0.0016893675430260796,
                "634": 0.0022172949002217295,
                "635": 0.0016893675430260796,
                "636": 0.0016893675430260796,
                "637": 0.0020061239573434695,
                "638": 0.0009502692429521698,
                "639": 0.0010558547143912998,
                "640": 0.0014781966001478197,
                "641": 0.0011614401858304297,
                "642": 0.0004223418857565199,
                "643": 0.0012670256572695597,
                "644": 0.0012670256572695597,
                "645": 0.0013726111287086897,
                "646": 0.0011614401858304297,
                "647": 0.0007390983000739098,
                "648": 0.0004223418857565199,
                "649": 0.0010558547143912998,
                "650": 0.0008446837715130398,
                "651": 0.0009502692429521698,
                "652": 0.0007390983000739098,
                "653": 0.0005279273571956499,
                "654": 0.0004223418857565199,
                "655": 0.0004223418857565199,
                "656": 0.0005279273571956499,
                "657": 0.0004223418857565199,
                "658": 0.0005279273571956499,
                "659": 0.0004223418857565199,
                "660": 0.0008446837715130398
            }
        },
        {
            "first_node": 5,
            "max_duration": 56.8,
            "min_duration": 39.5,
            "second_node": 3,
            "type": "stcu_ordinary",
            "ProbabilityDistribution": {
                "395": 0.011448481831757094,
                "396": 0.010950721752115481,
                "397": 0.010287041645926663,
                "398": 0.009457441513190641,
                "399": 0.009955201592832254,
                "400": 0.010784801725568276,
                "401": 0.013937282229965157,
                "402": 0.011448481831757094,
                "403": 0.012278081964493114,
                "404": 0.012444001991040319,
                "405": 0.013439522150323544,
                "406": 0.013937282229965157,
                "407": 0.011780321884851501,
                "408": 0.013605442176870748,
                "409": 0.009457441513190641,
                "410": 0.012278081964493114,
                "411": 0.012278081964493114,
                "412": 0.015264642442342791,
                "413": 0.01211216193794591,
                "414": 0.013439522150323544,
                "415": 0.015430562468889995,
                "416": 0.01327360212377634,
                "417": 0.011780321884851501,
                "418": 0.012444001991040319,
                "419": 0.012444001991040319,
                "420": 0.015098722415795587,
                "421": 0.014932802389248382,
                "422": 0.014600962336153973,
                "423": 0.014766882362701178,
                "424": 0.012775842044134728,
                "425": 0.014932802389248382,
                "426": 0.013439522150323544,
                "427": 0.01211216193794591,
                "428": 0.014600962336153973,
                "429": 0.010618881699021072,
                "430": 0.011282561805209888,
                "431": 0.010452961672473868,
                "432": 0.011116641778662685,
                "433": 0.013771362203417953,
                "434": 0.011282561805209888,
                "435": 0.010950721752115481,
                "436": 0.011780321884851501,
                "437": 0.011614401858304297,
                "438": 0.012941762070681932,
                "439": 0.013107682097229135,
                "440": 0.014269122283059566,
                "441": 0.008959681433549029,
                "442": 0.013107682097229135,
                "443": 0.008627841380454622,
                "444": 0.011116641778662685,
                "445": 0.010950721752115481,
                "446": 0.01211216193794591,
                "447": 0.010950721752115481,
                "448": 0.011282561805209888,
                "449": 0.010452961672473868,
                "450": 0.011116641778662685,
                "451": 0.0077982412477186,
                "452": 0.009291521486643438,
                "453": 0.00978928156628505,
                "454": 0.0076323212211713955,
                "455": 0.008793761407001825,
                "456": 0.008793761407001825,
                "457": 0.007134561141529783,
                "458": 0.009291521486643438,
                "459": 0.008793761407001825,
                "460": 0.006968641114982578,
                "461": 0.007134561141529783,
                "462": 0.009291521486643438,
                "463": 0.007466401194624191,
                "464": 0.0076323212211713955,
                "465": 0.009955201592832254,
                "466": 0.009291521486643438,
                "467": 0.006802721088435374,
                "468": 0.0073004811680769865,
                "469": 0.0073004811680769865,
                "470": 0.006802721088435374,
                "471": 0.0077982412477186,
                "472": 0.004148000663680106,
                "473": 0.0051435208229633315,
                "474": 0.004645760743321719,
                "475": 0.006139040982246557,
                "476": 0.0054753608760577405,
                "477": 0.00663680106188817,
                "478": 0.003982080637132902,
                "479": 0.004977600796416127,
                "480": 0.005973120955699353,
                "481": 0.0036502405840384933,
                "482": 0.0051435208229633315,
                "483": 0.004148000663680106,
                "484": 0.0038161606105856978,
                "485": 0.0024888003982080635,
                "486": 0.004313920690227311,
                "487": 0.003318400530944085,
                "488": 0.002654720424755268,
                "489": 0.004148000663680106,
                "490": 0.0024888003982080635,
                "491": 0.0023228803716608595,
                "492": 0.0024888003982080635,
                "493": 0.0031524805043968806,
                "494": 0.002654720424755268,
                "495": 0.002654720424755268,
                "496": 0.0014932802389248383,
                "497": 0.003318400530944085,
                "498": 0.0014932802389248383,
                "499": 0.001327360212377634,
                "500": 0.001327360212377634,
                "501": 0.0021569603451136554,
                "502": 0.001991040318566451,
                "503": 0.0014932802389248383,
                "504": 0.0009955201592832255,
                "505": 0.001327360212377634,
                "506": 0.001327360212377634,
                "507": 0.0014932802389248383,
                "508": 0.000663680106188817,
                "509": 0.001991040318566451,
                "510": 0.0009955201592832255,
                "511": 0.0014932802389248383,
                "512": 0.0003318400530944085,
                "513": 0.0008296001327360213,
                "514": 0.0009955201592832255,
                "515": 0.0009955201592832255,
                "516": 0.0008296001327360213,
                "517": 0.0016592002654720426,
                "518": 0.0011614401858304297,
                "519": 0.0009955201592832255,
                "520": 0.001327360212377634,
                "521": 0.0008296001327360213,
                "522": 0.0003318400530944085,
                "523": 0.00016592002654720425,
                "524": 0.0011614401858304297,
                "525": 0.00016592002654720425,
                "526": 0.0009955201592832255,
                "527": 0.0004977600796416127,
                "528": 0.0009955201592832255,
                "529": 0.0011614401858304297,
                "530": 0.0004977600796416127,
                "531": 0.0004977600796416127,
                "532": 0.0003318400530944085,
                "533": 0.0004977600796416127,
                "534": 0.0003318400530944085,
                "535": 0.0003318400530944085,
                "536": 0.0004977600796416127,
                "537": 0.00016592002654720425,
                "538": 0.00016592002654720425,
                "539": 0.000663680106188817,
                "540": 0.00016592002654720425,
                "541": 0.00016592002654720425,
                "542": 0.00016592002654720425,
                "543": 0.0004977600796416127,
                "544": 0.00016592002654720425,
                "545": 0.00016592002654720425,
                "546": 0.0003318400530944085,
                "547": 0.0003318400530944085,
                "548": 0.0,
                "549": 0.00016592002654720425,
                "550": 0.0,
                "551": 0.0,
                "552": 0.00016592002654720425,
                "553": 0.00016592002654720425,
                "554": 0.0,
                "555": 0.00016592002654720425,
                "556": 0.0,
                "557": 0.00016592002654720425,
                "558": 0.0,
                "559": 0.0,
                "560": 0.00016592002654720425,
                "561": 0.0,
                "562": 0.0,
                "563": 0.0,
                "564": 0.0,
                "565": 0.0,
                "566": 0.0,
                "567": 0.0,
                "568": 0.0
            }
        },
        {
            "first_node": 7,
            "max_duration": 39.8,
            "min_duration": 27.6,
            "second_node": 4,
            "type": "stcu_ordinary",
            "ProbabilityDistribution": {
                "276": 0.0,
                "277": 0.00029403116730373417,
                "278": 0.0,
                "279": 0.0,
                "280": 0.00029403116730373417,
                "281": 0.0,
                "282": 0.00029403116730373417,
                "283": 0.0,
                "284": 0.0,
                "285": 0.0,
                "286": 0.0,
                "287": 0.0,
                "288": 0.0,
                "289": 0.0,
                "290": 0.0,
                "291": 0.0,
                "292": 0.0,
                "293": 0.0,
                "294": 0.00029403116730373417,
                "295": 0.00029403116730373417,
                "296": 0.0,
                "297": 0.0,
                "298": 0.0,
                "299": 0.0,
                "300": 0.0,
                "301": 0.00029403116730373417,
                "302": 0.0011761246692149367,
                "303": 0.0,
                "304": 0.0,
                "305": 0.00029403116730373417,
                "306": 0.00029403116730373417,
                "307": 0.00029403116730373417,
                "308": 0.00029403116730373417,
                "309": 0.0011761246692149367,
                "310": 0.00029403116730373417,
                "311": 0.00029403116730373417,
                "312": 0.0008820935019112026,
                "313": 0.0011761246692149367,
                "314": 0.0005880623346074683,
                "315": 0.00029403116730373417,
                "316": 0.0008820935019112026,
                "317": 0.0011761246692149367,
                "318": 0.0011761246692149367,
                "319": 0.00029403116730373417,
                "320": 0.0008820935019112026,
                "321": 0.0008820935019112026,
                "322": 0.0005880623346074683,
                "323": 0.0017641870038224052,
                "324": 0.0017641870038224052,
                "325": 0.003234342840341076,
                "326": 0.0008820935019112026,
                "327": 0.0017641870038224052,
                "328": 0.0035283740076448105,
                "329": 0.001470155836518671,
                "330": 0.0020582181711261394,
                "331": 0.0026462805057336078,
                "332": 0.004116436342252279,
                "333": 0.002940311673037342,
                "334": 0.0035283740076448105,
                "335": 0.0052925610114672155,
                "336": 0.004998529844163481,
                "337": 0.004704498676859747,
                "338": 0.004998529844163481,
                "339": 0.004410467509556013,
                "340": 0.005880623346074684,
                "341": 0.002940311673037342,
                "342": 0.0052925610114672155,
                "343": 0.007644810349897089,
                "344": 0.006468685680682152,
                "345": 0.007644810349897089,
                "346": 0.006174654513378418,
                "347": 0.006174654513378418,
                "348": 0.009408997353719493,
                "349": 0.009408997353719493,
                "350": 0.008232872684504558,
                "351": 0.008232872684504558,
                "352": 0.010879153190238165,
                "353": 0.009408997353719493,
                "354": 0.00911496618641576,
                "355": 0.009703028521023229,
                "356": 0.011761246692149369,
                "357": 0.011761246692149369,
                "358": 0.00911496618641576,
                "359": 0.010585122022934431,
                "360": 0.014113496030579242,
                "361": 0.012643340194060571,
                "362": 0.014701558365186709,
                "363": 0.010879153190238165,
                "364": 0.013525433695971773,
                "365": 0.012937371361364304,
                "366": 0.012055277859453102,
                "367": 0.013819464863275507,
                "368": 0.01970008820935019,
                "369": 0.017053807703616582,
                "370": 0.018817994707438987,
                "371": 0.01587768303440165,
                "372": 0.013525433695971773,
                "373": 0.017053807703616582,
                "374": 0.021464275213172596,
                "375": 0.019994119376653924,
                "376": 0.01970008820935019,
                "377": 0.019994119376653924,
                "378": 0.019406057042046457,
                "379": 0.021464275213172596,
                "380": 0.023522493384298737,
                "381": 0.020288150543957658,
                "382": 0.024992649220817408,
                "383": 0.02381652455160247,
                "384": 0.020582181711261395,
                "385": 0.023228462216995,
                "386": 0.020582181711261395,
                "387": 0.021464275213172596,
                "388": 0.01822993237283152,
                "389": 0.0223463687150838,
                "390": 0.02646280505733608,
                "391": 0.026756836224639813,
                "392": 0.017935901205527786,
                "393": 0.023522493384298737,
                "394": 0.024404586886209938,
                "395": 0.024404586886209938,
                "396": 0.023522493384298737,
                "397": 0.028226992061158484,
                "398": 0.0223463687150838
            }
        },
        {
            "first_node": 6,
            "max_duration": 19.3,
            "min_duration": 13.4,
            "second_node": 8,
            "type": "stcu_ordinary",
            "ProbabilityDistribution": {
                "134": 0.024586499776486366,
                "135": 0.03755029056772463,
                "136": 0.027268663388466695,
                "137": 0.03352704514975414,
                "138": 0.03173893607510058,
                "139": 0.03218596334376397,
                "140": 0.03263299061242736,
                "141": 0.0348681269557443,
                "142": 0.03173893607510058,
                "143": 0.035762181493071074,
                "144": 0.039785426911041574,
                "145": 0.033080017881090745,
                "146": 0.03799731783638802,
                "147": 0.03620920876173447,
                "148": 0.028162717925793473,
                "149": 0.03442109968708091,
                "150": 0.03173893607510058,
                "151": 0.03218596334376397,
                "152": 0.027715690657130084,
                "153": 0.024139472507822977,
                "154": 0.030397854269110416,
                "155": 0.029503799731783638,
                "156": 0.023692445239159587,
                "157": 0.019222172552525705,
                "158": 0.02637460885113992,
                "159": 0.022351363433169423,
                "160": 0.016987036209208762,
                "161": 0.021457308895842648,
                "162": 0.022351363433169423,
                "163": 0.01743406347787215,
                "164": 0.014304872597228431,
                "165": 0.0116227089852481,
                "166": 0.012516763522574878,
                "167": 0.008046490835940992,
                "168": 0.008493518104604381,
                "169": 0.010728654447921324,
                "170": 0.007152436298614216,
                "171": 0.008493518104604381,
                "172": 0.009387572641931158,
                "173": 0.0049172999552972736,
                "174": 0.004023245417970496,
                "175": 0.004023245417970496,
                "176": 0.002235136343316942,
                "177": 0.002682163611980331,
                "178": 0.0013410818059901655,
                "179": 0.002235136343316942,
                "180": 0.000894054537326777,
                "181": 0.0013410818059901655,
                "182": 0.0004470272686633885,
                "183": 0.001788109074653554,
                "184": 0.001788109074653554,
                "185": 0.0,
                "186": 0.000894054537326777,
                "187": 0.0013410818059901655,
                "188": 0.0004470272686633885,
                "189": 0.000894054537326777,
                "190": 0.0004470272686633885,
                "191": 0.0,
                "192": 0.0,
                "193": 0.0004470272686633885
            }
        }
    ],
    "nodes": [
        {
            "node_id": 1
        },
        {
            "node_id": 2
        },
        {
            "node_id": 3
        },
        {
            "node_id": 4
        },
        {
            "node_id": 5
        },
        {
            "node_id": 6
        },
        {
            "node_id": 7
        },
        {
            "node_id": 8
        }
    ],
    "n_decimals": 1
}