{
    "constraints": [
        {
            "first_node": 1,
            "max_duration": 166.1,
            "min_duration": 60.0,
            "second_node": 2,
            "type": "stc"
        },
        {
            "first_node": 3,
            "max_duration": 39.4,
            "min_duration": 32.2,
            "second_node": 4,
            "type": "stcu_ordinary",
            "ProbabilityDistribution": {
                "322": 0.00029761904761904765,
                "323": 0.00029761904761904765,
                "324": 0.0011904761904761906,
                "325": 0.0011904761904761906,
                "326": 0.0017857142857142857,
                "327": 0.002380952380952381,
                "328": 0.004166666666666667,
                "329": 0.003869047619047619,
                "330": 0.004464285714285714,
                "331": 0.0026785714285714286,
                "332": 0.004761904761904762,
                "333": 0.004464285714285714,
                "334": 0.00505952380952381,
                "335": 0.005357142857142857,
                "336": 0.005654761904761905,
                "337": 0.009821428571428571,
                "338": 0.007142857142857143,
                "339": 0.007738095238095238,
                "340": 0.007738095238095238,
                "341": 0.008630952380952382,
                "342": 0.008333333333333333,
                "343": 0.009523809523809525,
                "344": 0.013988095238095239,
                "345": 0.01369047619047619,
                "346": 0.01369047619047619,
                "347": 0.0125,
                "348": 0.013392857142857142,
                "349": 0.01369047619047619,
                "350": 0.01488095238095238,
                "351": 0.017857142857142856,
                "352": 0.015773809523809523,
                "353": 0.017261904761904763,
                "354": 0.02142857142857143,
                "355": 0.017857142857142856,
                "356": 0.02470238095238095,
                "357": 0.022321428571428572,
                "358": 0.02261904761904762,
                "359": 0.022916666666666665,
                "360": 0.014285714285714285,
                "361": 0.027083333333333334,
                "362": 0.025892857142857145,
                "363": 0.021726190476190475,
                "364": 0.019345238095238096,
                "365": 0.01994047619047619,
                "366": 0.02857142857142857,
                "367": 0.016964285714285713,
                "368": 0.028273809523809524,
                "369": 0.02619047619047619,
                "370": 0.016666666666666666,
                "371": 0.022023809523809525,
                "372": 0.027083333333333334,
                "373": 0.022023809523809525,
                "374": 0.01904761904761905,
                "375": 0.02142857142857143,
                "376": 0.017857142857142856,
                "377": 0.01994047619047619,
                "378": 0.017857142857142856,
                "379": 0.01875,
                "380": 0.016964285714285713,
                "381": 0.016964285714285713,
                "382": 0.020833333333333332,
                "383": 0.0125,
                "384": 0.012797619047619047,
                "385": 0.013988095238095239,
                "386": 0.014583333333333334,
                "387": 0.009226190476190476,
                "388": 0.012797619047619047,
                "389": 0.010416666666666666,
                "390": 0.01130952380952381,
                "391": 0.008035714285714285,
                "392": 0.008333333333333333,
                "393": 0.007738095238095238,
                "394": 0.00744047619047619
            }
        },
        {
            "first_node": 1,
            "max_duration": 40.9,
            "min_duration": 33.5,
            "second_node": 5,
            "type": "stcu_ordinary",
            "ProbabilityDistribution": {
                "335": 0.004285714285714286,
                "336": 0.004,
                "337": 0.005142857142857143,
                "338": 0.004285714285714286,
                "339": 0.006,
                "340": 0.007714285714285714,
                "341": 0.011142857142857144,
                "342": 0.011714285714285714,
                "343": 0.008857142857142857,
                "344": 0.008571428571428572,
                "345": 0.009714285714285713,
                "346": 0.011428571428571429,
                "347": 0.011714285714285714,
                "348": 0.015142857142857144,
                "349": 0.015142857142857144,
                "350": 0.013142857142857144,
                "351": 0.02,
                "352": 0.018285714285714287,
                "353": 0.013714285714285714,
                "354": 0.017142857142857144,
                "355": 0.015428571428571429,
                "356": 0.018571428571428572,
                "357": 0.021142857142857144,
                "358": 0.019428571428571427,
                "359": 0.019142857142857142,
                "360": 0.014,
                "361": 0.022,
                "362": 0.018285714285714287,
                "363": 0.022571428571428572,
                "364": 0.023428571428571427,
                "365": 0.021714285714285714,
                "366": 0.020285714285714285,
                "367": 0.026571428571428572,
                "368": 0.023428571428571427,
                "369": 0.022,
                "370": 0.024857142857142855,
                "371": 0.023142857142857142,
                "372": 0.019142857142857142,
                "373": 0.023714285714285716,
                "374": 0.019428571428571427,
                "375": 0.024285714285714285,
                "376": 0.024,
                "377": 0.023142857142857142,
                "378": 0.014285714285714285,
                "379": 0.02457142857142857,
                "380": 0.018,
                "381": 0.016,
                "382": 0.013714285714285714,
                "383": 0.018285714285714287,
                "384": 0.011714285714285714,
                "385": 0.014,
                "386": 0.012571428571428572,
                "387": 0.015714285714285715,
                "388": 0.011714285714285714,
                "389": 0.012571428571428572,
                "390": 0.009714285714285713,
                "391": 0.011142857142857144,
                "392": 0.010857142857142857,
                "393": 0.007142857142857143,
                "394": 0.008,
                "395": 0.008857142857142857,
                "396": 0.0054285714285714284,
                "397": 0.008571428571428572,
                "398": 0.0074285714285714285,
                "399": 0.006571428571428572,
                "400": 0.004857142857142857,
                "401": 0.004571428571428572,
                "402": 0.004571428571428572,
                "403": 0.0025714285714285713,
                "404": 0.002285714285714286,
                "405": 0.0014285714285714286,
                "406": 0.002857142857142857,
                "407": 0.001142857142857143,
                "408": 0.0014285714285714286,
                "409": 0.0005714285714285715
            }
        },
        {
            "first_node": 6,
            "max_duration": 51.4,
            "min_duration": 42.0,
            "second_node": 7,
            "type": "stcu_ordinary",
            "ProbabilityDistribution": {
                "420": 0.004492362982929021,
                "421": 0.005390835579514825,
                "422": 0.0071877807726864335,
                "423": 0.00651392632524708,
                "424": 0.005615453728661276,
                "425": 0.005840071877807727,
                "426": 0.005840071877807727,
                "427": 0.006738544474393531,
                "428": 0.0071877807726864335,
                "429": 0.0076370170709793355,
                "430": 0.009433962264150943,
                "431": 0.009883198562443846,
                "432": 0.00651392632524708,
                "433": 0.0110062893081761,
                "434": 0.010332434860736747,
                "435": 0.011230907457322551,
                "436": 0.011455525606469003,
                "437": 0.01078167115902965,
                "438": 0.0110062893081761,
                "439": 0.011455525606469003,
                "440": 0.011904761904761904,
                "441": 0.012129380053908356,
                "442": 0.011230907457322551,
                "443": 0.015947888589398024,
                "444": 0.012803234501347708,
                "445": 0.013477088948787063,
                "446": 0.018418688230008983,
                "447": 0.013701707097933512,
                "448": 0.016846361185983826,
                "449": 0.016397124887690927,
                "450": 0.015947888589398024,
                "451": 0.01729559748427673,
                "452": 0.017969451931716084,
                "453": 0.01549865229110512,
                "454": 0.014150943396226415,
                "455": 0.016621743036837375,
                "456": 0.014600179694519317,
                "457": 0.016846361185983826,
                "458": 0.013926325247079964,
                "459": 0.019092542677448338,
                "460": 0.01549865229110512,
                "461": 0.016397124887690927,
                "462": 0.022911051212938006,
                "463": 0.016172506738544475,
                "464": 0.018643306379155435,
                "465": 0.018194070080862535,
                "466": 0.015947888589398024,
                "467": 0.016846361185983826,
                "468": 0.02021563342318059,
                "469": 0.016621743036837375,
                "470": 0.016172506738544475,
                "471": 0.016846361185983826,
                "472": 0.014375561545372867,
                "473": 0.016846361185983826,
                "474": 0.011904761904761904,
                "475": 0.012353998203054807,
                "476": 0.014150943396226415,
                "477": 0.012578616352201259,
                "478": 0.016846361185983826,
                "479": 0.014824797843665768,
                "480": 0.01302785265049416,
                "481": 0.01302785265049416,
                "482": 0.014824797843665768,
                "483": 0.011680143755615454,
                "484": 0.010332434860736747,
                "485": 0.010107816711590296,
                "486": 0.010332434860736747,
                "487": 0.006289308176100629,
                "488": 0.008310871518418687,
                "489": 0.010557053009883199,
                "490": 0.006963162623539982,
                "491": 0.007412398921832884,
                "492": 0.006289308176100629,
                "493": 0.006064690026954178,
                "494": 0.00651392632524708,
                "495": 0.006963162623539982,
                "496": 0.005166217430368374,
                "497": 0.005840071877807727,
                "498": 0.0038185085354896678,
                "499": 0.004043126684636119,
                "500": 0.0029200359389038636,
                "501": 0.004492362982929021,
                "502": 0.0029200359389038636,
                "503": 0.0033692722371967657,
                "504": 0.0026954177897574125,
                "505": 0.0026954177897574125,
                "506": 0.0035938903863432167,
                "507": 0.0022461814914645105,
                "508": 0.0022461814914645105,
                "509": 0.0013477088948787063,
                "510": 0.0022461814914645105,
                "511": 0.0024707996406109615,
                "512": 0.0020215633423180594,
                "513": 0.0015723270440251573,
                "514": 0.0008984725965858042
            }
        },
        {
            "first_node": 4,
            "max_duration": 16.7,
            "min_duration": 6.0,
            "second_node": 8,
            "type": "stc"
        },
        {
            "first_node": 8,
            "max_duration": 33.5,
            "min_duration": 27.4,
            "second_node": 2,
            "type": "stcu_ordinary",
            "ProbabilityDistribution": {
                "274": 0.0058620689655172415,
                "275": 0.006206896551724138,
                "276": 0.006896551724137931,
                "277": 0.0058620689655172415,
                "278": 0.006896551724137931,
                "279": 0.007241379310344828,
                "280": 0.011379310344827587,
                "281": 0.011034482758620689,
                "282": 0.00896551724137931,
                "283": 0.01310344827586207,
                "284": 0.011034482758620689,
                "285": 0.016551724137931035,
                "286": 0.01310344827586207,
                "287": 0.023448275862068966,
                "288": 0.013793103448275862,
                "289": 0.018620689655172412,
                "290": 0.018620689655172412,
                "291": 0.022413793103448276,
                "292": 0.021379310344827585,
                "293": 0.023448275862068966,
                "294": 0.02379310344827586,
                "295": 0.02793103448275862,
                "296": 0.02689655172413793,
                "297": 0.022758620689655173,
                "298": 0.02482758620689655,
                "299": 0.02724137931034483,
                "300": 0.028965517241379312,
                "301": 0.018620689655172412,
                "302": 0.02586206896551724,
                "303": 0.028620689655172414,
                "304": 0.02724137931034483,
                "305": 0.022068965517241378,
                "306": 0.029310344827586206,
                "307": 0.02620689655172414,
                "308": 0.024482758620689656,
                "309": 0.019310344827586208,
                "310": 0.02724137931034483,
                "311": 0.020689655172413793,
                "312": 0.018620689655172412,
                "313": 0.02517241379310345,
                "314": 0.020344827586206895,
                "315": 0.02103448275862069,
                "316": 0.01793103448275862,
                "317": 0.01896551724137931,
                "318": 0.018620689655172412,
                "319": 0.014137931034482758,
                "320": 0.014827586206896552,
                "321": 0.01206896551724138,
                "322": 0.01310344827586207,
                "323": 0.007586206896551724,
                "324": 0.011724137931034483,
                "325": 0.008620689655172414,
                "326": 0.01,
                "327": 0.008620689655172414,
                "328": 0.007586206896551724,
                "329": 0.0058620689655172415,
                "330": 0.006206896551724138,
                "331": 0.007241379310344828,
                "332": 0.004827586206896552,
                "333": 0.003793103448275862,
                "334": 0.003103448275862069,
                "335": 0.0020689655172413794
            }
        },
        {
            "first_node": 5,
            "max_duration": 17.0,
            "min_duration": 5.9,
            "second_node": 6,
            "type": "stc"
        },
        {
            "first_node": 7,
            "max_duration": 17.3,
            "min_duration": 3.3,
            "second_node": 3,
            "type": "stc"
        }
    ],
    "nodes": [
        {
            "node_id": 1
        },
        {
            "node_id": 2
        },
        {
            "node_id": 3
        },
        {
            "node_id": 4
        },
        {
            "node_id": 5
        },
        {
            "node_id": 6
        },
        {
            "node_id": 7
        },
        {
            "node_id": 8
        }
    ],
    "n_decimals": 1
}