{
    "constraints": [
        {
            "first_node": 1,
            "max_duration": 58.9,
            "min_duration": 53.3,
            "second_node": 2,
            "type": "stcu_ordinary",
            "ProbabilityDistribution": {
                "533": 0.01449859041482078,
                "534": 0.023358840112766815,
                "535": 0.019331453886427707,
                "536": 0.02698348771647201,
                "537": 0.018928715263793798,
                "538": 0.022553362867498993,
                "539": 0.026580749093838098,
                "540": 0.020942408376963352,
                "541": 0.02174788562223117,
                "542": 0.030608135320177206,
                "543": 0.029399919452275474,
                "544": 0.031413612565445025,
                "545": 0.030205396697543293,
                "546": 0.03544099879178413,
                "547": 0.03664921465968586,
                "548": 0.03544099879178413,
                "549": 0.03946838501812324,
                "550": 0.030608135320177206,
                "551": 0.031413612565445025,
                "552": 0.030205396697543293,
                "553": 0.02899718082964156,
                "554": 0.029802658074909383,
                "555": 0.023358840112766815,
                "556": 0.028191703584373742,
                "557": 0.028191703584373742,
                "558": 0.024164317358034634,
                "559": 0.026580749093838098,
                "560": 0.025372533225936366,
                "561": 0.025372533225936366,
                "562": 0.014901329037454692,
                "563": 0.015304067660088603,
                "564": 0.024164317358034634,
                "565": 0.01852597664115989,
                "566": 0.014095851792186871,
                "567": 0.018123238018525976,
                "568": 0.010471204188481676,
                "569": 0.010068465565847765,
                "570": 0.00724929520741039,
                "571": 0.010471204188481676,
                "572": 0.008054772452678213,
                "573": 0.004430124848973017,
                "574": 0.00684655658477648,
                "575": 0.004832863471606927,
                "576": 0.00684655658477648,
                "577": 0.003221908981071285,
                "578": 0.003221908981071285,
                "579": 0.003624647603705195,
                "580": 0.0016109544905356424,
                "581": 0.004832863471606927,
                "582": 0.002819170358437374,
                "583": 0.004027386226339106,
                "584": 0.0024164317358034634,
                "585": 0.0008054772452678212,
                "586": 0.0012082158679017317,
                "587": 0.0008054772452678212,
                "588": 0.0004027386226339106,
                "589": 0.0008054772452678212
            }
        },
        {
            "first_node": 3,
            "max_duration": 314.1,
            "min_duration": 60.0,
            "second_node": 4,
            "type": "stc"
        },
        {
            "first_node": 5,
            "max_duration": 59.4,
            "min_duration": 53.8,
            "second_node": 6,
            "type": "stcu_ordinary",
            "ProbabilityDistribution": {
                "538": 0.03866100895803866,
                "539": 0.033474776049033476,
                "540": 0.037246581801037244,
                "541": 0.033474776049033476,
                "542": 0.034417727487034415,
                "543": 0.036303630363036306,
                "544": 0.034417727487034415,
                "545": 0.034417727487034415,
                "546": 0.036775106082036775,
                "547": 0.040075436115040074,
                "548": 0.037246581801037244,
                "549": 0.03253182461103253,
                "550": 0.03536067892503536,
                "551": 0.033474776049033476,
                "552": 0.03488920320603489,
                "553": 0.036303630363036306,
                "554": 0.031588873173031586,
                "555": 0.036775106082036775,
                "556": 0.033003300330033,
                "557": 0.02545968882602546,
                "558": 0.028288543140028287,
                "559": 0.029231494578029232,
                "560": 0.020744931636020744,
                "561": 0.021216407355021217,
                "562": 0.021216407355021217,
                "563": 0.017444601603017446,
                "564": 0.017444601603017446,
                "565": 0.01933050447901933,
                "566": 0.014615747289014616,
                "567": 0.014144271570014143,
                "568": 0.012258368694012258,
                "569": 0.01272984441301273,
                "570": 0.009900990099009901,
                "571": 0.009900990099009901,
                "572": 0.008958038661008957,
                "573": 0.010843941537010843,
                "574": 0.006129184347006129,
                "575": 0.006129184347006129,
                "576": 0.0033003300330033004,
                "577": 0.001885902876001886,
                "578": 0.002828854314002829,
                "579": 0.004243281471004243,
                "580": 0.0033003300330033004,
                "581": 0.001885902876001886,
                "582": 0.002828854314002829,
                "583": 0.000942951438000943,
                "584": 0.0004714757190004715,
                "585": 0.0,
                "586": 0.0,
                "587": 0.0,
                "588": 0.0004714757190004715,
                "589": 0.0,
                "590": 0.0004714757190004715,
                "591": 0.000942951438000943,
                "592": 0.0,
                "593": 0.0,
                "594": 0.0
            }
        },
        {
            "first_node": 7,
            "max_duration": 1440.0,
            "min_duration": 0.0,
            "second_node": 8,
            "type": "stc"
        },
        {
            "first_node": 9,
            "max_duration": 38.5,
            "min_duration": 34.8,
            "second_node": 10,
            "type": "stcu_ordinary",
            "ProbabilityDistribution": {
                "348": 0.0011918951132300357,
                "349": 0.0029797377830750892,
                "350": 0.003575685339690107,
                "351": 0.003575685339690107,
                "352": 0.004767580452920143,
                "353": 0.004767580452920143,
                "354": 0.005363528009535161,
                "355": 0.007151370679380214,
                "356": 0.01132300357568534,
                "357": 0.009535160905840286,
                "358": 0.016090584028605484,
                "359": 0.021454112038140644,
                "360": 0.02562574493444577,
                "361": 0.02205005959475566,
                "362": 0.028605482717520857,
                "363": 0.023837902264600714,
                "364": 0.03456495828367104,
                "365": 0.029201430274135878,
                "366": 0.03814064362336114,
                "367": 0.04410011918951132,
                "368": 0.041716328963051254,
                "369": 0.04529201430274136,
                "370": 0.04231227651966627,
                "371": 0.041120381406436236,
                "372": 0.041716328963051254,
                "373": 0.04231227651966627,
                "374": 0.04052443384982122,
                "375": 0.04290822407628129,
                "376": 0.043504171632896306,
                "377": 0.04946364719904649,
                "378": 0.048271752085816445,
                "379": 0.039928486293206195,
                "380": 0.027413587604290822,
                "381": 0.02562574493444577,
                "382": 0.02443384982121573,
                "383": 0.02205005959475566,
                "384": 0.02443384982121573,
                "385": 0.01907032181168057
            }
        },
        {
            "first_node": 11,
            "max_duration": 51.3,
            "min_duration": 46.5,
            "second_node": 12,
            "type": "stcu_ordinary",
            "ProbabilityDistribution": {
                "465": 0.002635046113306983,
                "466": 0.002635046113306983,
                "467": 0.002635046113306983,
                "468": 0.002635046113306983,
                "469": 0.005709266578831796,
                "470": 0.002635046113306983,
                "471": 0.003952569169960474,
                "472": 0.007026789635485288,
                "473": 0.006148440931049627,
                "474": 0.00834431269213878,
                "475": 0.00878348704435661,
                "476": 0.013614404918752744,
                "477": 0.014053579270970576,
                "478": 0.014931927975406236,
                "479": 0.016249451032059728,
                "480": 0.019762845849802372,
                "481": 0.021080368906455864,
                "482": 0.019762845849802372,
                "483": 0.01844532279314888,
                "484": 0.019762845849802372,
                "485": 0.025472112428634168,
                "486": 0.025911286780852,
                "487": 0.019762845849802372,
                "488": 0.029863855950812472,
                "489": 0.03689064558629776,
                "490": 0.03689064558629776,
                "491": 0.04567413263065437,
                "492": 0.03337725076855512,
                "493": 0.028985507246376812,
                "494": 0.033816425120772944,
                "495": 0.03337725076855512,
                "496": 0.03645147123407993,
                "497": 0.03689064558629776,
                "498": 0.03820816864295125,
                "499": 0.032498902064119456,
                "500": 0.032498902064119456,
                "501": 0.025472112428634168,
                "502": 0.022397891963109356,
                "503": 0.029424681598594644,
                "504": 0.030742204655248132,
                "505": 0.024593763724198508,
                "506": 0.021080368906455864,
                "507": 0.021080368906455864,
                "508": 0.024154589371980676,
                "509": 0.013175230566534914,
                "510": 0.015371102327624066,
                "511": 0.014931927975406236,
                "512": 0.010979358805445762,
                "513": 0.00922266139657444
            }
        },
        {
            "first_node": 13,
            "max_duration": 169.1,
            "min_duration": 60.0,
            "second_node": 12,
            "type": "stc"
        },
        {
            "first_node": 14,
            "max_duration": 10.5,
            "min_duration": 7.7,
            "second_node": 15,
            "type": "stc"
        },
        {
            "first_node": 16,
            "max_duration": 1440.0,
            "min_duration": 0.0,
            "second_node": 17,
            "type": "stc"
        },
        {
            "first_node": 18,
            "max_duration": 17.2,
            "min_duration": 15.5,
            "second_node": 19,
            "type": "stcu_ordinary",
            "ProbabilityDistribution": {
                "155": 0.06521739130434782,
                "156": 0.07201086956521739,
                "157": 0.08695652173913043,
                "158": 0.11005434782608696,
                "159": 0.09239130434782608,
                "160": 0.10733695652173914,
                "161": 0.09918478260869565,
                "162": 0.09239130434782608,
                "163": 0.06929347826086957,
                "164": 0.059782608695652176,
                "165": 0.04755434782608696,
                "166": 0.03260869565217391,
                "167": 0.019021739130434784,
                "168": 0.021739130434782608,
                "169": 0.006793478260869565,
                "170": 0.009510869565217392,
                "171": 0.004076086956521739,
                "172": 0.004076086956521739
            }
        },
        {
            "first_node": 2,
            "max_duration": 25.5,
            "min_duration": 8.6,
            "second_node": 20,
            "type": "stc"
        },
        {
            "first_node": 21,
            "max_duration": 6.9,
            "min_duration": 6.2,
            "second_node": 22,
            "type": "stcu_ordinary",
            "ProbabilityDistribution": {
                "62": 0.027950310559006212,
                "63": 0.062111801242236024,
                "64": 0.09316770186335403,
                "65": 0.17080745341614906,
                "66": 0.18633540372670807,
                "67": 0.2236024844720497,
                "68": 0.13664596273291926,
                "69": 0.09937888198757763
            }
        },
        {
            "first_node": 23,
            "max_duration": 15.0,
            "min_duration": 13.6,
            "second_node": 24,
            "type": "stcu_ordinary",
            "ProbabilityDistribution": {
                "136": 0.0,
                "137": 0.0027100271002710027,
                "138": 0.0,
                "139": 0.0,
                "140": 0.0,
                "141": 0.008130081300813009,
                "142": 0.013550135501355014,
                "143": 0.013550135501355014,
                "144": 0.04336043360433604,
                "145": 0.06233062330623306,
                "146": 0.11924119241192412,
                "147": 0.16260162601626016,
                "148": 0.16802168021680217,
                "149": 0.1951219512195122,
                "150": 0.21138211382113822
            }
        },
        {
            "first_node": 25,
            "max_duration": 328.9,
            "min_duration": 60.0,
            "second_node": 26,
            "type": "stc"
        },
        {
            "first_node": 10,
            "max_duration": 18.1,
            "min_duration": 7.1,
            "second_node": 27,
            "type": "stc"
        },
        {
            "first_node": 28,
            "max_duration": 58.6,
            "min_duration": 53.0,
            "second_node": 29,
            "type": "stcu_ordinary",
            "ProbabilityDistribution": {
                "530": 0.01058601134215501,
                "531": 0.00831758034026465,
                "532": 0.009829867674858222,
                "533": 0.009829867674858222,
                "534": 0.009829867674858222,
                "535": 0.013988657844990548,
                "536": 0.013232514177693762,
                "537": 0.017391304347826087,
                "538": 0.0166351606805293,
                "539": 0.01625708884688091,
                "540": 0.020415879017013232,
                "541": 0.0166351606805293,
                "542": 0.02495274102079395,
                "543": 0.02722117202268431,
                "544": 0.01776937618147448,
                "545": 0.028733459357277884,
                "546": 0.02608695652173913,
                "547": 0.023818525519848772,
                "548": 0.03100189035916824,
                "549": 0.02608695652173913,
                "550": 0.027977315689981096,
                "551": 0.03667296786389414,
                "552": 0.026465028355387523,
                "553": 0.03251417769376182,
                "554": 0.02835538752362949,
                "555": 0.028733459357277884,
                "556": 0.030245746691871456,
                "557": 0.02835538752362949,
                "558": 0.029111531190926274,
                "559": 0.02835538752362949,
                "560": 0.02495274102079395,
                "561": 0.02155009451795841,
                "562": 0.023440453686200378,
                "563": 0.02608695652173913,
                "564": 0.02835538752362949,
                "565": 0.019281663516068054,
                "566": 0.020415879017013232,
                "567": 0.019659735349716444,
                "568": 0.01776937618147448,
                "569": 0.01285444234404537,
                "570": 0.013232514177693762,
                "571": 0.013232514177693762,
                "572": 0.011720226843100189,
                "573": 0.01058601134215501,
                "574": 0.013610586011342156,
                "575": 0.005671077504725898,
                "576": 0.004914933837429111,
                "577": 0.007561436672967864,
                "578": 0.005293005671077505,
                "579": 0.00831758034026465,
                "580": 0.004914933837429111,
                "581": 0.004914933837429111,
                "582": 0.005671077504725898,
                "583": 0.0026465028355387526,
                "584": 0.004536862003780718,
                "585": 0.0011342155009451795,
                "586": 0.002268431001890359
            }
        },
        {
            "first_node": 30,
            "max_duration": 31.5,
            "min_duration": 28.5,
            "second_node": 31,
            "type": "stcu_ordinary",
            "ProbabilityDistribution": {
                "285": 0.003620564808110065,
                "286": 0.001448225923244026,
                "287": 0.002172338884866039,
                "288": 0.0065170166545981175,
                "289": 0.00941346850108617,
                "290": 0.005792903692976104,
                "291": 0.015930485155684286,
                "292": 0.0166545981173063,
                "293": 0.018102824040550327,
                "294": 0.020275162925416364,
                "295": 0.029688631426502535,
                "296": 0.03548153511947864,
                "297": 0.03982621288921072,
                "298": 0.03765387400434468,
                "299": 0.044170890658942794,
                "300": 0.05720492396813903,
                "301": 0.0499637943519189,
                "302": 0.06517016654598118,
                "303": 0.05141202027516292,
                "304": 0.04706734250543085,
                "305": 0.05865314989138305,
                "306": 0.05213613323678494,
                "307": 0.05430847212165098,
                "308": 0.05430847212165098,
                "309": 0.05865314989138305,
                "310": 0.042722664735698766,
                "311": 0.03403330919623461,
                "312": 0.029688631426502535,
                "313": 0.01882693700217234,
                "314": 0.023171614771904415,
                "315": 0.015930485155684286
            }
        },
        {
            "first_node": 32,
            "max_duration": 15.7,
            "min_duration": 6.3,
            "second_node": 33,
            "type": "stc"
        },
        {
            "first_node": 34,
            "max_duration": 39.4,
            "min_duration": 35.6,
            "second_node": 35,
            "type": "stcu_ordinary",
            "ProbabilityDistribution": {
                "356": 0.01957397812320092,
                "357": 0.017846862406447898,
                "358": 0.021301093839953943,
                "359": 0.03051237766263673,
                "360": 0.02360391479562464,
                "361": 0.02648244099021301,
                "362": 0.03281519861830743,
                "363": 0.04605641911341393,
                "364": 0.04029936672423719,
                "365": 0.042026482440990214,
                "366": 0.03742084052964882,
                "367": 0.046632124352331605,
                "368": 0.04260218767990789,
                "369": 0.039723661485319514,
                "370": 0.04317789291882556,
                "371": 0.04375359815774323,
                "372": 0.03684513529073115,
                "373": 0.048934945308002305,
                "374": 0.04720782959124928,
                "375": 0.04317789291882556,
                "376": 0.033966609096142776,
                "377": 0.03511801957397812,
                "378": 0.03223949337938975,
                "379": 0.031088082901554404,
                "380": 0.025331030512377662,
                "381": 0.01669545192861255,
                "382": 0.017271157167530225,
                "383": 0.013241220495106506,
                "384": 0.007484168105929764,
                "385": 0.012089810017271158,
                "386": 0.012089810017271158,
                "387": 0.008635578583765112,
                "388": 0.004029936672423719,
                "389": 0.008635578583765112,
                "390": 0.0028785261945883708,
                "391": 0.0057570523891767415,
                "392": 0.0017271157167530224,
                "393": 0.0011514104778353484,
                "394": 0.0005757052389176742
            }
        },
        {
            "first_node": 36,
            "max_duration": 26.4,
            "min_duration": 8.6,
            "second_node": 21,
            "type": "stc"
        },
        {
            "first_node": 37,
            "max_duration": 1440.0,
            "min_duration": 0.0,
            "second_node": 38,
            "type": "stc"
        },
        {
            "first_node": 13,
            "max_duration": 52.0,
            "min_duration": 47.0,
            "second_node": 39,
            "type": "stcu_ordinary",
            "ProbabilityDistribution": {
                "470": 0.0,
                "471": 0.0,
                "472": 0.0,
                "473": 0.0,
                "474": 0.0,
                "475": 0.0006357279084551812,
                "476": 0.0006357279084551812,
                "477": 0.0,
                "478": 0.0,
                "479": 0.0012714558169103624,
                "480": 0.0,
                "481": 0.0006357279084551812,
                "482": 0.0012714558169103624,
                "483": 0.0012714558169103624,
                "484": 0.0006357279084551812,
                "485": 0.0006357279084551812,
                "486": 0.003814367450731087,
                "487": 0.0025429116338207248,
                "488": 0.003814367450731087,
                "489": 0.00572155117609663,
                "490": 0.006357279084551812,
                "491": 0.003814367450731087,
                "492": 0.006357279084551812,
                "493": 0.007628734901462174,
                "494": 0.012078830260648443,
                "495": 0.014621741894469168,
                "496": 0.01080737444373808,
                "497": 0.015257469802924348,
                "498": 0.018436109345200253,
                "499": 0.02288620470438652,
                "500": 0.02288620470438652,
                "501": 0.029879211697393517,
                "502": 0.019707565162110616,
                "503": 0.026064844246662427,
                "504": 0.023521932612841703,
                "505": 0.03877940241576605,
                "506": 0.03877940241576605,
                "507": 0.03877940241576605,
                "508": 0.03941513032422123,
                "509": 0.03877940241576605,
                "510": 0.04577240940877304,
                "511": 0.04831532104259377,
                "512": 0.04513668150031786,
                "513": 0.050222504767959315,
                "514": 0.04513668150031786,
                "515": 0.04577240940877304,
                "516": 0.05530832803560076,
                "517": 0.04895104895104895,
                "518": 0.050222504767959315,
                "519": 0.055944055944055944,
                "520": 0.05149396058486968
            }
        },
        {
            "first_node": 40,
            "max_duration": 20.7,
            "min_duration": 1.7,
            "second_node": 9,
            "type": "stc"
        },
        {
            "first_node": 41,
            "max_duration": 21.2,
            "min_duration": 7.9,
            "second_node": 42,
            "type": "stc"
        },
        {
            "first_node": 43,
            "max_duration": 17.6,
            "min_duration": 3.5,
            "second_node": 44,
            "type": "stc"
        },
        {
            "first_node": 7,
            "max_duration": 9.7,
            "min_duration": 8.8,
            "second_node": 14,
            "type": "stcu_ordinary",
            "ProbabilityDistribution": {
                "88": 0.056338028169014086,
                "89": 0.0892018779342723,
                "90": 0.13849765258215962,
                "91": 0.16901408450704225,
                "92": 0.14788732394366197,
                "93": 0.1596244131455399,
                "94": 0.11737089201877934,
                "95": 0.08450704225352113,
                "96": 0.03286384976525822,
                "97": 0.004694835680751174
            }
        },
        {
            "first_node": 35,
            "max_duration": 17.9,
            "min_duration": 6.6,
            "second_node": 45,
            "type": "stc"
        },
        {
            "first_node": 27,
            "max_duration": 7.8,
            "min_duration": 7.1,
            "second_node": 26,
            "type": "stcu_ordinary",
            "ProbabilityDistribution": {
                "71": 0.1597222222222222,
                "72": 0.2361111111111111,
                "73": 0.23958333333333334,
                "74": 0.1875,
                "75": 0.11805555555555555,
                "76": 0.034722222222222224,
                "77": 0.024305555555555556,
                "78": 0.0
            }
        },
        {
            "first_node": 46,
            "max_duration": 16.3,
            "min_duration": 0.6,
            "second_node": 47,
            "type": "stc"
        },
        {
            "first_node": 48,
            "max_duration": 10.8,
            "min_duration": 1.2,
            "second_node": 30,
            "type": "stc"
        },
        {
            "first_node": 29,
            "max_duration": 22.5,
            "min_duration": 5.7,
            "second_node": 49,
            "type": "stc"
        },
        {
            "first_node": 44,
            "max_duration": 66.5,
            "min_duration": 60.2,
            "second_node": 40,
            "type": "stcu_ordinary",
            "ProbabilityDistribution": {
                "602": 0.0018063583815028901,
                "603": 0.000722543352601156,
                "604": 0.001083815028901734,
                "605": 0.001083815028901734,
                "606": 0.002167630057803468,
                "607": 0.001445086705202312,
                "608": 0.001083815028901734,
                "609": 0.001445086705202312,
                "610": 0.0018063583815028901,
                "611": 0.002890173410404624,
                "612": 0.0025289017341040463,
                "613": 0.0032514450867052024,
                "614": 0.0018063583815028901,
                "615": 0.004335260115606936,
                "616": 0.003973988439306358,
                "617": 0.002890173410404624,
                "618": 0.004696531791907515,
                "619": 0.008309248554913294,
                "620": 0.007947976878612716,
                "621": 0.008670520231213872,
                "622": 0.005780346820809248,
                "623": 0.008309248554913294,
                "624": 0.011199421965317919,
                "625": 0.013367052023121388,
                "626": 0.014089595375722543,
                "627": 0.012644508670520232,
                "628": 0.015895953757225433,
                "629": 0.019147398843930637,
                "630": 0.017341040462427744,
                "631": 0.017341040462427744,
                "632": 0.016979768786127166,
                "633": 0.017341040462427744,
                "634": 0.023121387283236993,
                "635": 0.022398843930635837,
                "636": 0.019508670520231215,
                "637": 0.02348265895953757,
                "638": 0.029624277456647398,
                "639": 0.027095375722543353,
                "640": 0.02348265895953757,
                "641": 0.026734104046242775,
                "642": 0.026734104046242775,
                "643": 0.028179190751445087,
                "644": 0.02601156069364162,
                "645": 0.03143063583815029,
                "646": 0.028179190751445087,
                "647": 0.03251445086705202,
                "648": 0.02745664739884393,
                "649": 0.026734104046242775,
                "650": 0.02926300578034682,
                "651": 0.031791907514450865,
                "652": 0.02601156069364162,
                "653": 0.029985549132947976,
                "654": 0.019508670520231215,
                "655": 0.022398843930635837,
                "656": 0.016618497109826588,
                "657": 0.020953757225433526,
                "658": 0.020953757225433526,
                "659": 0.019147398843930637,
                "660": 0.017341040462427744,
                "661": 0.01878612716763006,
                "662": 0.022760115606936415,
                "663": 0.019147398843930637,
                "664": 0.013728323699421965,
                "665": 0.015534682080924855
            }
        },
        {
            "first_node": 3,
            "max_duration": 31.0,
            "min_duration": 28.1,
            "second_node": 50,
            "type": "stcu_ordinary",
            "ProbabilityDistribution": {
                "281": 0.01322556943423953,
                "282": 0.018368846436443792,
                "283": 0.019103600293901544,
                "284": 0.02718589272593681,
                "285": 0.028655400440852314,
                "286": 0.03526818515797208,
                "287": 0.03306392358559882,
                "288": 0.04922850844966936,
                "289": 0.048493754592211606,
                "290": 0.041146216017634095,
                "291": 0.05804555473916238,
                "292": 0.05731080088170463,
                "293": 0.060249816311535635,
                "294": 0.05951506245407789,
                "295": 0.05437178545187362,
                "296": 0.04775900073475386,
                "297": 0.055841293166789124,
                "298": 0.045554739162380606,
                "299": 0.034533431300514325,
                "300": 0.04335047759000735,
                "301": 0.03306392358559882,
                "302": 0.03232916972814107,
                "303": 0.029390154298310066,
                "304": 0.012490815576781777,
                "305": 0.02204261572373255,
                "306": 0.020573108008817047,
                "307": 0.005143277002204262,
                "308": 0.00440852314474651,
                "309": 0.006612784717119765,
                "310": 0.0036737692872887582
            }
        },
        {
            "first_node": 31,
            "max_duration": 18.5,
            "min_duration": 9.5,
            "second_node": 23,
            "type": "stc"
        },
        {
            "first_node": 16,
            "max_duration": 46.5,
            "min_duration": 42.1,
            "second_node": 41,
            "type": "stcu_ordinary",
            "ProbabilityDistribution": {
                "421": 0.0,
                "422": 0.0,
                "423": 0.0,
                "424": 0.0,
                "425": 0.0,
                "426": 0.00066711140760507,
                "427": 0.00066711140760507,
                "428": 0.00133422281521014,
                "429": 0.00266844563042028,
                "430": 0.00133422281521014,
                "431": 0.0020013342228152103,
                "432": 0.00266844563042028,
                "433": 0.00066711140760507,
                "434": 0.0020013342228152103,
                "435": 0.00333555703802535,
                "436": 0.00533689126084056,
                "437": 0.00733822548365577,
                "438": 0.0020013342228152103,
                "439": 0.0066711140760507,
                "440": 0.009339559706470981,
                "441": 0.01067378252168112,
                "442": 0.01200800533689126,
                "443": 0.016010673782521682,
                "444": 0.018679119412941963,
                "445": 0.02601734489659773,
                "446": 0.022014676450967312,
                "447": 0.027351567711807873,
                "448": 0.027351567711807873,
                "449": 0.02334889926617745,
                "450": 0.0333555703802535,
                "451": 0.03602401601067378,
                "452": 0.03802535023348899,
                "453": 0.047364909939959975,
                "454": 0.040693795863909275,
                "455": 0.04269513008672448,
                "456": 0.047364909939959975,
                "457": 0.05470313542361575,
                "458": 0.061374249499666446,
                "459": 0.056037358238825885,
                "460": 0.046030687124749836,
                "461": 0.057371581054036024,
                "462": 0.057371581054036024,
                "463": 0.0533689126084056,
                "464": 0.047364909939959975,
                "465": 0.049366244162775186
            }
        },
        {
            "first_node": 51,
            "max_duration": 16.8,
            "min_duration": 0.2,
            "second_node": 52,
            "type": "stc"
        },
        {
            "first_node": 34,
            "max_duration": 1440.0,
            "min_duration": 0.0,
            "second_node": 53,
            "type": "stc"
        },
        {
            "first_node": 39,
            "max_duration": 19.9,
            "min_duration": 5.1,
            "second_node": 54,
            "type": "stc"
        },
        {
            "first_node": 55,
            "max_duration": 33.4,
            "min_duration": 30.2,
            "second_node": 48,
            "type": "stcu_ordinary",
            "ProbabilityDistribution": {
                "302": 0.026817219477769938,
                "303": 0.025405786873676783,
                "304": 0.0374029640084686,
                "305": 0.043048694424841216,
                "306": 0.04163726182074806,
                "307": 0.045871559633027525,
                "308": 0.04798870853916726,
                "309": 0.05434015525758645,
                "310": 0.05222300635144672,
                "311": 0.05081157374735357,
                "312": 0.05786873676781934,
                "313": 0.059280169371912494,
                "314": 0.05010585744530699,
                "315": 0.048694424841213835,
                "316": 0.043754410726887794,
                "317": 0.05010585744530699,
                "318": 0.04234297812279464,
                "319": 0.02893436838390967,
                "320": 0.03599153140437544,
                "321": 0.03175723359209598,
                "322": 0.020465772759350742,
                "323": 0.021877205363443897,
                "324": 0.019054340155257588,
                "325": 0.011291460832745237,
                "326": 0.016231474947071278,
                "327": 0.01058574453069866,
                "328": 0.0056457304163726185,
                "329": 0.007057163020465773,
                "330": 0.0056457304163726185,
                "331": 0.0035285815102328866,
                "332": 0.0028228652081863093,
                "333": 0.0,
                "334": 0.0014114326040931546
            }
        },
        {
            "first_node": 42,
            "max_duration": 69.4,
            "min_duration": 62.8,
            "second_node": 56,
            "type": "stcu_ordinary",
            "ProbabilityDistribution": {
                "628": 0.0,
                "629": 0.0,
                "630": 0.0,
                "631": 0.0003637686431429611,
                "632": 0.0007275372862859222,
                "633": 0.0003637686431429611,
                "634": 0.0007275372862859222,
                "635": 0.0,
                "636": 0.0021826118588577663,
                "637": 0.0007275372862859222,
                "638": 0.0010913059294288831,
                "639": 0.0018188432157148053,
                "640": 0.0007275372862859222,
                "641": 0.0018188432157148053,
                "642": 0.00327391778828665,
                "643": 0.0036376864314296106,
                "644": 0.0025463805020007274,
                "645": 0.004001455074572572,
                "646": 0.0029101491451436886,
                "647": 0.0036376864314296106,
                "648": 0.00327391778828665,
                "649": 0.005820298290287377,
                "650": 0.0061840669334303384,
                "651": 0.005456529647144416,
                "652": 0.009821753364859949,
                "653": 0.008366678792288106,
                "654": 0.01345943979628956,
                "655": 0.0061840669334303384,
                "656": 0.012731902510003638,
                "657": 0.010913059294288832,
                "658": 0.017824663514005093,
                "659": 0.01018552200800291,
                "660": 0.013823208439432522,
                "661": 0.01345943979628956,
                "662": 0.014550745725718442,
                "663": 0.018188432157148052,
                "664": 0.018915969443433975,
                "665": 0.02000727537286286,
                "666": 0.025100036376864313,
                "667": 0.022189887231720627,
                "668": 0.022553655874863587,
                "669": 0.027646416878865043,
                "670": 0.025827573663150236,
                "671": 0.02437249909057839,
                "672": 0.031647871953437615,
                "673": 0.02400873044743543,
                "674": 0.030920334667151692,
                "675": 0.02437249909057839,
                "676": 0.028010185522008003,
                "677": 0.028737722808293925,
                "678": 0.029465260094579847,
                "679": 0.02728264823572208,
                "680": 0.028737722808293925,
                "681": 0.032739177882866496,
                "682": 0.025463805020007276,
                "683": 0.03055656602400873,
                "684": 0.03128410331029465,
                "685": 0.03055656602400873,
                "686": 0.024736267733721354,
                "687": 0.021098581302291742,
                "688": 0.02437249909057839,
                "689": 0.024736267733721354,
                "690": 0.021098581302291742,
                "691": 0.027646416878865043,
                "692": 0.021826118588577664,
                "693": 0.021462349945434705,
                "694": 0.021826118588577664
            }
        },
        {
            "first_node": 18,
            "max_duration": 1440.0,
            "min_duration": 0.0,
            "second_node": 57,
            "type": "stc"
        },
        {
            "first_node": 58,
            "max_duration": 53.1,
            "min_duration": 48.0,
            "second_node": 38,
            "type": "stcu_ordinary",
            "ProbabilityDistribution": {
                "480": 0.050959629384513566,
                "481": 0.05956320317670417,
                "482": 0.04765056254136334,
                "483": 0.04500330906684315,
                "484": 0.05162144275314361,
                "485": 0.03970880211780278,
                "486": 0.04301786896095301,
                "487": 0.04897418927862343,
                "488": 0.05294506949040371,
                "489": 0.04765056254136334,
                "490": 0.045665122435473195,
                "491": 0.04367968232958306,
                "492": 0.04434149569821311,
                "493": 0.03838517538054269,
                "494": 0.04103242885506287,
                "495": 0.027796161482461945,
                "496": 0.03242885506287227,
                "497": 0.02382528127068167,
                "498": 0.02382528127068167,
                "499": 0.027796161482461945,
                "500": 0.025810721376571807,
                "501": 0.017207147584381206,
                "502": 0.01588352084712111,
                "503": 0.01588352084712111,
                "504": 0.013898080741230973,
                "505": 0.01786896095301125,
                "506": 0.009265387160820648,
                "507": 0.009265387160820648,
                "508": 0.008603573792190603,
                "509": 0.00727994705493051,
                "510": 0.005294506949040371,
                "511": 0.0033090668431502318,
                "512": 0.0013236267372600927,
                "513": 0.001985440105890139,
                "514": 0.0013236267372600927,
                "515": 0.001985440105890139,
                "516": 0.001985440105890139,
                "517": 0.0006618133686300463,
                "518": 0.0006618133686300463,
                "519": 0.001985440105890139,
                "520": 0.0,
                "521": 0.0006618133686300463,
                "522": 0.0,
                "523": 0.0,
                "524": 0.0,
                "525": 0.0006618133686300463,
                "526": 0.0006618133686300463,
                "527": 0.0006618133686300463,
                "528": 0.0,
                "529": 0.0,
                "530": 0.0,
                "531": 0.0
            }
        },
        {
            "first_node": 59,
            "max_duration": 58.0,
            "min_duration": 52.5,
            "second_node": 51,
            "type": "stcu_ordinary",
            "ProbabilityDistribution": {
                "525": 0.002306805074971165,
                "526": 0.0030757400999615533,
                "527": 0.0015378700499807767,
                "528": 0.0038446751249519417,
                "529": 0.002691272587466359,
                "530": 0.005382545174932718,
                "531": 0.0038446751249519417,
                "532": 0.004998077662437524,
                "533": 0.0057670126874279125,
                "534": 0.007689350249903883,
                "535": 0.006920415224913495,
                "536": 0.008073817762399077,
                "537": 0.010765090349865437,
                "538": 0.01384083044982699,
                "539": 0.014994232987312572,
                "540": 0.014994232987312572,
                "541": 0.00922722029988466,
                "542": 0.015378700499807767,
                "543": 0.0196078431372549,
                "544": 0.019992310649750097,
                "545": 0.02229911572472126,
                "546": 0.024605920799692427,
                "547": 0.016147635524798153,
                "548": 0.019223375624759707,
                "549": 0.02306805074971165,
                "550": 0.028450595924644367,
                "551": 0.029219530949634757,
                "552": 0.030757400999615533,
                "553": 0.026143790849673203,
                "554": 0.031526336024605923,
                "555": 0.028066128412149175,
                "556": 0.032679738562091505,
                "557": 0.024990388312187622,
                "558": 0.02768166089965398,
                "559": 0.029219530949634757,
                "560": 0.031910803537101115,
                "561": 0.0392156862745098,
                "562": 0.027297193387158785,
                "563": 0.023836985774702037,
                "564": 0.028066128412149175,
                "565": 0.02575932333717801,
                "566": 0.024605920799692427,
                "567": 0.022683583237216455,
                "568": 0.031526336024605923,
                "569": 0.0196078431372549,
                "570": 0.0196078431372549,
                "571": 0.02191464821222607,
                "572": 0.016916570549788543,
                "573": 0.014609765474817378,
                "574": 0.013071895424836602,
                "575": 0.012302960399846213,
                "576": 0.01653210303729335,
                "577": 0.009996155324875048,
                "578": 0.011534025374855825,
                "579": 0.011918492887351018,
                "580": 0.008073817762399077
            }
        },
        {
            "first_node": 60,
            "max_duration": 62.3,
            "min_duration": 56.4,
            "second_node": 36,
            "type": "stcu_ordinary",
            "ProbabilityDistribution": {
                "564": 0.0,
                "565": 0.0,
                "566": 0.0,
                "567": 0.00047281323877068556,
                "568": 0.0,
                "569": 0.00047281323877068556,
                "570": 0.00047281323877068556,
                "571": 0.0018912529550827422,
                "572": 0.002364066193853428,
                "573": 0.0,
                "574": 0.0014184397163120568,
                "575": 0.0018912529550827422,
                "576": 0.0014184397163120568,
                "577": 0.0014184397163120568,
                "578": 0.0037825059101654845,
                "579": 0.0018912529550827422,
                "580": 0.0018912529550827422,
                "581": 0.0018912529550827422,
                "582": 0.00425531914893617,
                "583": 0.0028368794326241137,
                "584": 0.005200945626477541,
                "585": 0.008037825059101654,
                "586": 0.005673758865248227,
                "587": 0.007565011820330969,
                "588": 0.008037825059101654,
                "589": 0.009929078014184398,
                "590": 0.008037825059101654,
                "591": 0.008983451536643027,
                "592": 0.011347517730496455,
                "593": 0.01276595744680851,
                "594": 0.01702127659574468,
                "595": 0.015130023640661938,
                "596": 0.021749408983451537,
                "597": 0.02033096926713948,
                "598": 0.017494089834515367,
                "599": 0.017966903073286054,
                "600": 0.02553191489361702,
                "601": 0.02269503546099291,
                "602": 0.026477541371158392,
                "603": 0.02695035460992908,
                "604": 0.025059101654846337,
                "605": 0.029314420803782507,
                "606": 0.02458628841607565,
                "607": 0.03971631205673759,
                "608": 0.03546099290780142,
                "609": 0.03215130023640662,
                "610": 0.03877068557919622,
                "611": 0.03829787234042553,
                "612": 0.03593380614657211,
                "613": 0.033569739952718676,
                "614": 0.034988179669030735,
                "615": 0.03215130023640662,
                "616": 0.04066193853427896,
                "617": 0.031205673758865248,
                "618": 0.03640661938534279,
                "619": 0.03593380614657211,
                "620": 0.03593380614657211,
                "621": 0.03309692671394799,
                "622": 0.02364066193853428,
                "623": 0.037825059101654845
            }
        },
        {
            "first_node": 15,
            "max_duration": 43.0,
            "min_duration": 38.9,
            "second_node": 61,
            "type": "stcu_ordinary",
            "ProbabilityDistribution": {
                "389": 0.06187443130118289,
                "390": 0.07370336669699727,
                "391": 0.06278434940855324,
                "392": 0.07097361237488627,
                "393": 0.0746132848043676,
                "394": 0.06278434940855324,
                "395": 0.051865332120109194,
                "396": 0.05732484076433121,
                "397": 0.051865332120109194,
                "398": 0.042766151046405826,
                "399": 0.05004549590536852,
                "400": 0.047315741583257506,
                "401": 0.051865332120109194,
                "402": 0.025477707006369428,
                "403": 0.023657870791628753,
                "404": 0.0272975432211101,
                "405": 0.0272975432211101,
                "406": 0.028207461328480437,
                "407": 0.01637852593266606,
                "408": 0.020018198362147407,
                "409": 0.014558689717925387,
                "410": 0.009099181073703366,
                "411": 0.011828935395814377,
                "412": 0.007279344858962694,
                "413": 0.004549590536851683,
                "414": 0.00818926296633303,
                "415": 0.00272975432211101,
                "416": 0.006369426751592357,
                "417": 0.0009099181073703367,
                "418": 0.0018198362147406734,
                "419": 0.0009099181073703367,
                "420": 0.0009099181073703367,
                "421": 0.0009099181073703367,
                "422": 0.0,
                "423": 0.0,
                "424": 0.0,
                "425": 0.0009099181073703367,
                "426": 0.0009099181073703367,
                "427": 0.0,
                "428": 0.0,
                "429": 0.0,
                "430": 0.0
            }
        },
        {
            "first_node": 5,
            "max_duration": 203.9,
            "min_duration": 60.0,
            "second_node": 22,
            "type": "stc"
        },
        {
            "first_node": 49,
            "max_duration": 57.8,
            "min_duration": 52.3,
            "second_node": 4,
            "type": "stcu_ordinary",
            "ProbabilityDistribution": {
                "523": 0.0,
                "524": 0.0,
                "525": 0.0005015045135406219,
                "526": 0.0010030090270812437,
                "527": 0.0005015045135406219,
                "528": 0.0,
                "529": 0.0010030090270812437,
                "530": 0.0010030090270812437,
                "531": 0.0005015045135406219,
                "532": 0.0015045135406218655,
                "533": 0.0,
                "534": 0.0010030090270812437,
                "535": 0.003009027081243731,
                "536": 0.0010030090270812437,
                "537": 0.0015045135406218655,
                "538": 0.004513540621865597,
                "539": 0.0020060180541624875,
                "540": 0.004513540621865597,
                "541": 0.005516549648946841,
                "542": 0.004513540621865597,
                "543": 0.005516549648946841,
                "544": 0.006018054162487462,
                "545": 0.007021063189568706,
                "546": 0.008525576730190571,
                "547": 0.013039117352056168,
                "548": 0.013039117352056168,
                "549": 0.014042126379137413,
                "550": 0.01905717151454363,
                "551": 0.015045135406218655,
                "552": 0.014543630892678034,
                "553": 0.02156469408224674,
                "554": 0.026078234704112337,
                "555": 0.02357071213640923,
                "556": 0.024072216649949848,
                "557": 0.02357071213640923,
                "558": 0.025075225677031094,
                "559": 0.025576730190571714,
                "560": 0.03159478435305918,
                "561": 0.033099297893681046,
                "562": 0.02958876629889669,
                "563": 0.03510531594784353,
                "564": 0.025576730190571714,
                "565": 0.03811434302908726,
                "566": 0.0366098294884654,
                "567": 0.03961885656970913,
                "568": 0.040621865596790374,
                "569": 0.0366098294884654,
                "570": 0.03861584754262788,
                "571": 0.03861584754262788,
                "572": 0.03560682046138415,
                "573": 0.037111334002006016,
                "574": 0.03460381143430291,
                "575": 0.03560682046138415,
                "576": 0.04162487462387161,
                "577": 0.03159478435305918,
                "578": 0.041123370110330994
            }
        },
        {
            "first_node": 62,
            "max_duration": 19.4,
            "min_duration": 1.6,
            "second_node": 11,
            "type": "stc"
        },
        {
            "first_node": 63,
            "max_duration": 34.4,
            "min_duration": 31.1,
            "second_node": 64,
            "type": "stcu_ordinary",
            "ProbabilityDistribution": {
                "311": 0.0013020833333333333,
                "312": 0.0013020833333333333,
                "313": 0.0032552083333333335,
                "314": 0.005859375,
                "315": 0.007161458333333333,
                "316": 0.013671875,
                "317": 0.009765625,
                "318": 0.014973958333333334,
                "319": 0.016276041666666668,
                "320": 0.018880208333333332,
                "321": 0.024088541666666668,
                "322": 0.024739583333333332,
                "323": 0.041015625,
                "324": 0.037109375,
                "325": 0.033854166666666664,
                "326": 0.054036458333333336,
                "327": 0.043619791666666664,
                "328": 0.041015625,
                "329": 0.042317708333333336,
                "330": 0.05078125,
                "331": 0.042317708333333336,
                "332": 0.05078125,
                "333": 0.057942708333333336,
                "334": 0.045572916666666664,
                "335": 0.044921875,
                "336": 0.055338541666666664,
                "337": 0.052734375,
                "338": 0.02734375,
                "339": 0.034505208333333336,
                "340": 0.024739583333333332,
                "341": 0.02734375,
                "342": 0.020833333333333332,
                "343": 0.020833333333333332,
                "344": 0.009765625
            }
        },
        {
            "first_node": 52,
            "max_duration": 20.4,
            "min_duration": 18.4,
            "second_node": 17,
            "type": "stcu_ordinary",
            "ProbabilityDistribution": {
                "184": 0.002544529262086514,
                "185": 0.001272264631043257,
                "186": 0.003816793893129771,
                "187": 0.002544529262086514,
                "188": 0.005089058524173028,
                "189": 0.006361323155216285,
                "190": 0.010178117048346057,
                "191": 0.020356234096692113,
                "192": 0.026717557251908396,
                "193": 0.026717557251908396,
                "194": 0.05216284987277354,
                "195": 0.07251908396946564,
                "196": 0.06361323155216285,
                "197": 0.07888040712468193,
                "198": 0.09669211195928754,
                "199": 0.09033078880407125,
                "200": 0.11577608142493638,
                "201": 0.08142493638676845,
                "202": 0.07760814249363868,
                "203": 0.09669211195928754,
                "204": 0.06870229007633588
            }
        },
        {
            "first_node": 47,
            "max_duration": 61.5,
            "min_duration": 55.6,
            "second_node": 53,
            "type": "stcu_ordinary",
            "ProbabilityDistribution": {
                "556": 0.0004149377593360996,
                "557": 0.0,
                "558": 0.0,
                "559": 0.0008298755186721991,
                "560": 0.0,
                "561": 0.0012448132780082987,
                "562": 0.0012448132780082987,
                "563": 0.0024896265560165973,
                "564": 0.0012448132780082987,
                "565": 0.0016597510373443983,
                "566": 0.004979253112033195,
                "567": 0.002074688796680498,
                "568": 0.0012448132780082987,
                "569": 0.002074688796680498,
                "570": 0.0037344398340248964,
                "571": 0.0037344398340248964,
                "572": 0.0053941908713692945,
                "573": 0.006224066390041493,
                "574": 0.0037344398340248964,
                "575": 0.0053941908713692945,
                "576": 0.007883817427385892,
                "577": 0.009543568464730291,
                "578": 0.008713692946058092,
                "579": 0.012448132780082987,
                "580": 0.011203319502074689,
                "581": 0.014937759336099586,
                "582": 0.015767634854771784,
                "583": 0.015767634854771784,
                "584": 0.014107883817427386,
                "585": 0.014522821576763486,
                "586": 0.014522821576763486,
                "587": 0.01991701244813278,
                "588": 0.023651452282157676,
                "589": 0.017427385892116183,
                "590": 0.022406639004149378,
                "591": 0.03319502074688797,
                "592": 0.02780082987551867,
                "593": 0.02780082987551867,
                "594": 0.028215767634854772,
                "595": 0.03319502074688797,
                "596": 0.02780082987551867,
                "597": 0.030705394190871368,
                "598": 0.026556016597510373,
                "599": 0.03029045643153527,
                "600": 0.035269709543568464,
                "601": 0.03278008298755187,
                "602": 0.02946058091286307,
                "603": 0.033609958506224065,
                "604": 0.03278008298755187,
                "605": 0.035269709543568464,
                "606": 0.03153526970954357,
                "607": 0.028215767634854772,
                "608": 0.025726141078838173,
                "609": 0.03734439834024896,
                "610": 0.026970954356846474,
                "611": 0.026141078838174275,
                "612": 0.024481327800829875,
                "613": 0.01950207468879668,
                "614": 0.02199170124481328,
                "615": 0.022821576763485476
            }
        },
        {
            "first_node": 63,
            "max_duration": 1440.0,
            "min_duration": 0.0,
            "second_node": 24,
            "type": "stc"
        },
        {
            "first_node": 45,
            "max_duration": 32.8,
            "min_duration": 29.7,
            "second_node": 32,
            "type": "stcu_ordinary",
            "ProbabilityDistribution": {
                "297": 0.11183355006501951,
                "298": 0.10403120936280884,
                "299": 0.08322496749024708,
                "300": 0.07802340702210664,
                "301": 0.09362808842652796,
                "302": 0.08322496749024708,
                "303": 0.06762028608582575,
                "304": 0.0741222366710013,
                "305": 0.05721716514954486,
                "306": 0.0377113133940182,
                "307": 0.03901170351105332,
                "308": 0.02600780234070221,
                "309": 0.0247074122236671,
                "310": 0.0247074122236671,
                "311": 0.018205461638491547,
                "312": 0.015604681404421327,
                "313": 0.007802340702210663,
                "314": 0.013003901170351105,
                "315": 0.010403120936280884,
                "316": 0.007802340702210663,
                "317": 0.011703511053315995,
                "318": 0.0039011703511053317,
                "319": 0.0013003901170351106,
                "320": 0.0013003901170351106,
                "321": 0.0013003901170351106,
                "322": 0.0,
                "323": 0.0,
                "324": 0.0013003901170351106,
                "325": 0.0013003901170351106,
                "326": 0.0,
                "327": 0.0,
                "328": 0.0
            }
        },
        {
            "first_node": 64,
            "max_duration": 16.6,
            "min_duration": 6.8,
            "second_node": 55,
            "type": "stc"
        },
        {
            "first_node": 65,
            "max_duration": 46.8,
            "min_duration": 42.4,
            "second_node": 8,
            "type": "stcu_ordinary",
            "ProbabilityDistribution": {
                "424": 0.017008504252126064,
                "425": 0.021010505252626314,
                "426": 0.02501250625312656,
                "427": 0.02451225612806403,
                "428": 0.02451225612806403,
                "429": 0.028514257128564282,
                "430": 0.028514257128564282,
                "431": 0.0335167583791896,
                "432": 0.03301650825412707,
                "433": 0.03401700850425213,
                "434": 0.03401700850425213,
                "435": 0.03751875937968985,
                "436": 0.04252126063031516,
                "437": 0.03801900950475238,
                "438": 0.04102051025512756,
                "439": 0.0335167583791896,
                "440": 0.04352176088044022,
                "441": 0.03951975987993997,
                "442": 0.03701850925462731,
                "443": 0.03701850925462731,
                "444": 0.026513256628314157,
                "445": 0.03401700850425213,
                "446": 0.029514757378689346,
                "447": 0.03501750875437719,
                "448": 0.02351175587793897,
                "449": 0.02501250625312656,
                "450": 0.02051025512756378,
                "451": 0.021010505252626314,
                "452": 0.018509254627313655,
                "453": 0.015507753876938469,
                "454": 0.013006503251625813,
                "455": 0.013006503251625813,
                "456": 0.016508254127063533,
                "457": 0.01150575287643822,
                "458": 0.009004502251125562,
                "459": 0.007503751875937969,
                "460": 0.006003001500750375,
                "461": 0.004502251125562781,
                "462": 0.00400200100050025,
                "463": 0.004502251125562781,
                "464": 0.002001000500250125,
                "465": 0.0030015007503751876,
                "466": 0.0010005002501250625,
                "467": 0.0010005002501250625,
                "468": 0.0010005002501250625
            }
        },
        {
            "first_node": 6,
            "max_duration": 22.1,
            "min_duration": 5.1,
            "second_node": 60,
            "type": "stc"
        },
        {
            "first_node": 61,
            "max_duration": 15.3,
            "min_duration": 3.0,
            "second_node": 65,
            "type": "stc"
        },
        {
            "first_node": 56,
            "max_duration": 24.6,
            "min_duration": 4.8,
            "second_node": 59,
            "type": "stc"
        },
        {
            "first_node": 25,
            "max_duration": 49.0,
            "min_duration": 44.4,
            "second_node": 43,
            "type": "stcu_ordinary",
            "ProbabilityDistribution": {
                "444": 0.012616822429906542,
                "445": 0.012616822429906542,
                "446": 0.016822429906542057,
                "447": 0.020560747663551402,
                "448": 0.01822429906542056,
                "449": 0.018691588785046728,
                "450": 0.02336448598130841,
                "451": 0.02663551401869159,
                "452": 0.028037383177570093,
                "453": 0.024299065420560748,
                "454": 0.022897196261682243,
                "455": 0.03364485981308411,
                "456": 0.037383177570093455,
                "457": 0.03177570093457944,
                "458": 0.03411214953271028,
                "459": 0.03177570093457944,
                "460": 0.035046728971962614,
                "461": 0.04018691588785047,
                "462": 0.043457943925233646,
                "463": 0.03785046728971963,
                "464": 0.03878504672897196,
                "465": 0.035981308411214954,
                "466": 0.035046728971962614,
                "467": 0.04018691588785047,
                "468": 0.0308411214953271,
                "469": 0.027570093457943926,
                "470": 0.028037383177570093,
                "471": 0.019626168224299065,
                "472": 0.022897196261682243,
                "473": 0.01822429906542056,
                "474": 0.02570093457943925,
                "475": 0.019626168224299065,
                "476": 0.017757009345794394,
                "477": 0.014018691588785047,
                "478": 0.013084112149532711,
                "479": 0.009345794392523364,
                "480": 0.009813084112149532,
                "481": 0.007476635514018692,
                "482": 0.007476635514018692,
                "483": 0.007009345794392523,
                "484": 0.005607476635514018,
                "485": 0.003738317757009346,
                "486": 0.0032710280373831778,
                "487": 0.0051401869158878505,
                "488": 0.0009345794392523365,
                "489": 0.0009345794392523365,
                "490": 0.001869158878504673
            }
        },
        {
            "first_node": 66,
            "max_duration": 23.0,
            "min_duration": 7.9,
            "second_node": 58,
            "type": "stc"
        },
        {
            "first_node": 54,
            "max_duration": 62.1,
            "min_duration": 56.2,
            "second_node": 62,
            "type": "stcu_ordinary",
            "ProbabilityDistribution": {
                "562": 0.007953723788864787,
                "563": 0.007953723788864787,
                "564": 0.009399855386840203,
                "565": 0.013015184381778741,
                "566": 0.011569052783803326,
                "567": 0.016992046276211134,
                "568": 0.014099783080260303,
                "569": 0.018799710773680405,
                "570": 0.015184381778741865,
                "571": 0.01373825018076645,
                "572": 0.018076644974692697,
                "573": 0.019161243673174257,
                "574": 0.019884309472161965,
                "575": 0.019161243673174257,
                "576": 0.023138105567606652,
                "577": 0.023138105567606652,
                "578": 0.023138105567606652,
                "579": 0.027838033261026754,
                "580": 0.027114967462039046,
                "581": 0.02964569775849602,
                "582": 0.02386117136659436,
                "583": 0.02566883586406363,
                "584": 0.026030368763557483,
                "585": 0.03109182935647144,
                "586": 0.026030368763557483,
                "587": 0.02964569775849602,
                "588": 0.028922631959508314,
                "589": 0.024584237165582067,
                "590": 0.021691973969631236,
                "591": 0.0274765003615329,
                "592": 0.0274765003615329,
                "593": 0.03289949385394071,
                "594": 0.02675343456254519,
                "595": 0.02639190166305134,
                "596": 0.025307302964569775,
                "597": 0.019161243673174257,
                "598": 0.019161243673174257,
                "599": 0.016630513376717282,
                "600": 0.016992046276211134,
                "601": 0.018799710773680405,
                "602": 0.013015184381778741,
                "603": 0.01482284887924801,
                "604": 0.017715112075198842,
                "605": 0.009761388286334056,
                "606": 0.009761388286334056,
                "607": 0.01012292118582791,
                "608": 0.008676789587852495,
                "609": 0.009399855386840203,
                "610": 0.007953723788864787,
                "611": 0.008315256688358641,
                "612": 0.0039768618944323935,
                "613": 0.004699927693420101,
                "614": 0.006507592190889371,
                "615": 0.005061460592913955,
                "616": 0.005061460592913955,
                "617": 0.004699927693420101,
                "618": 0.0018076644974692696,
                "619": 0.0021691973969631237,
                "620": 0.0028922631959508315,
                "621": 0.0
            }
        },
        {
            "first_node": 19,
            "max_duration": 5.9,
            "min_duration": 1.0,
            "second_node": 1,
            "type": "stc"
        },
        {
            "first_node": 50,
            "max_duration": 16.2,
            "min_duration": 7.3,
            "second_node": 28,
            "type": "stc"
        },
        {
            "first_node": 33,
            "max_duration": 54.9,
            "min_duration": 49.7,
            "second_node": 46,
            "type": "stcu_ordinary",
            "ProbabilityDistribution": {
                "497": 0.0012355848434925864,
                "498": 0.002059308072487644,
                "499": 0.002471169686985173,
                "500": 0.002471169686985173,
                "501": 0.004530477759472817,
                "502": 0.0032948929159802307,
                "503": 0.006177924217462933,
                "504": 0.002471169686985173,
                "505": 0.007825370675453048,
                "506": 0.00700164744645799,
                "507": 0.007825370675453048,
                "508": 0.01070840197693575,
                "509": 0.009060955518945634,
                "510": 0.01029654036243822,
                "511": 0.011120263591433279,
                "512": 0.013179571663920923,
                "513": 0.016062602965403624,
                "514": 0.01729818780889621,
                "515": 0.01688632619439868,
                "516": 0.022652388797364087,
                "517": 0.0214168039538715,
                "518": 0.023476112026359144,
                "519": 0.02800658978583196,
                "520": 0.025947281713344317,
                "521": 0.023887973640856673,
                "522": 0.028830313014827018,
                "523": 0.03542009884678748,
                "524": 0.03542009884678748,
                "525": 0.03459637561779242,
                "526": 0.02841845140032949,
                "527": 0.029654036243822075,
                "528": 0.03171334431630972,
                "529": 0.030065897858319604,
                "530": 0.030477759472817133,
                "531": 0.03500823723228995,
                "532": 0.036655683690280064,
                "533": 0.029654036243822075,
                "534": 0.025535420098846788,
                "535": 0.025535420098846788,
                "536": 0.03171334431630972,
                "537": 0.027182866556836903,
                "538": 0.0214168039538715,
                "539": 0.023887973640856673,
                "540": 0.023887973640856673,
                "541": 0.0214168039538715,
                "542": 0.01688632619439868,
                "543": 0.015650741350906095,
                "544": 0.018121911037891267,
                "545": 0.013179571663920923,
                "546": 0.013591433278418451,
                "547": 0.015650741350906095,
                "548": 0.009884678747940691,
                "549": 0.013179571663920923
            }
        },
        {
            "first_node": 37,
            "max_duration": 53.1,
            "min_duration": 48.0,
            "second_node": 66,
            "type": "stcu_ordinary",
            "ProbabilityDistribution": {
                "480": 0.0,
                "481": 0.0,
                "482": 0.0005494505494505495,
                "483": 0.0,
                "484": 0.0,
                "485": 0.001098901098901099,
                "486": 0.0,
                "487": 0.0,
                "488": 0.0005494505494505495,
                "489": 0.0005494505494505495,
                "490": 0.0,
                "491": 0.002197802197802198,
                "492": 0.0016483516483516484,
                "493": 0.0038461538461538464,
                "494": 0.0038461538461538464,
                "495": 0.0016483516483516484,
                "496": 0.006043956043956044,
                "497": 0.005494505494505495,
                "498": 0.005494505494505495,
                "499": 0.0038461538461538464,
                "500": 0.007692307692307693,
                "501": 0.01098901098901099,
                "502": 0.010439560439560439,
                "503": 0.00934065934065934,
                "504": 0.014835164835164835,
                "505": 0.015934065934065933,
                "506": 0.013186813186813187,
                "507": 0.014835164835164835,
                "508": 0.018131868131868133,
                "509": 0.023076923076923078,
                "510": 0.025824175824175823,
                "511": 0.024175824175824177,
                "512": 0.028021978021978023,
                "513": 0.02912087912087912,
                "514": 0.036813186813186814,
                "515": 0.03626373626373627,
                "516": 0.03901098901098901,
                "517": 0.03461538461538462,
                "518": 0.04010989010989011,
                "519": 0.03736263736263736,
                "520": 0.04230769230769231,
                "521": 0.03406593406593406,
                "522": 0.04450549450549451,
                "523": 0.03736263736263736,
                "524": 0.0489010989010989,
                "525": 0.035164835164835165,
                "526": 0.041758241758241756,
                "527": 0.0478021978021978,
                "528": 0.04285714285714286,
                "529": 0.04120879120879121,
                "530": 0.03571428571428571,
                "531": 0.041758241758241756
            }
        },
        {
            "first_node": 20,
            "max_duration": 50.0,
            "min_duration": 45.2,
            "second_node": 57,
            "type": "stcu_ordinary",
            "ProbabilityDistribution": {
                "452": 0.0,
                "453": 0.0,
                "454": 0.0,
                "455": 0.0005750431282346176,
                "456": 0.0,
                "457": 0.0017251293847038527,
                "458": 0.0005750431282346176,
                "459": 0.0017251293847038527,
                "460": 0.0005750431282346176,
                "461": 0.0,
                "462": 0.0005750431282346176,
                "463": 0.0005750431282346176,
                "464": 0.004600345025876941,
                "465": 0.004600345025876941,
                "466": 0.0034502587694077054,
                "467": 0.0034502587694077054,
                "468": 0.0097757331799885,
                "469": 0.0097757331799885,
                "470": 0.008050603795284647,
                "471": 0.013225991949396205,
                "472": 0.0097757331799885,
                "473": 0.013225991949396205,
                "474": 0.013801035077630822,
                "475": 0.018401380103507763,
                "476": 0.013801035077630822,
                "477": 0.02127659574468085,
                "478": 0.024726854514088556,
                "479": 0.025876940770557792,
                "480": 0.02185163887291547,
                "481": 0.025876940770557792,
                "482": 0.029902242668200116,
                "483": 0.02875215641173088,
                "484": 0.039102932719954,
                "485": 0.0425531914893617,
                "486": 0.0523289246693502,
                "487": 0.041978148361127086,
                "488": 0.039677975848188614,
                "489": 0.034502587694077054,
                "490": 0.04600345025876941,
                "491": 0.0488786658999425,
                "492": 0.039677975848188614,
                "493": 0.03852788959171938,
                "494": 0.044853364002300174,
                "495": 0.034502587694077054,
                "496": 0.03737780333525014,
                "497": 0.04370327774583094,
                "498": 0.03680276020701553,
                "499": 0.03852788959171938,
                "500": 0.030477285796434734
            }
        }
    ],
    "nodes": [
        {
            "node_id": 1
        },
        {
            "node_id": 2
        },
        {
            "node_id": 3
        },
        {
            "node_id": 4
        },
        {
            "node_id": 5
        },
        {
            "node_id": 6
        },
        {
            "node_id": 7
        },
        {
            "node_id": 8
        },
        {
            "node_id": 9
        },
        {
            "node_id": 10
        },
        {
            "node_id": 11
        },
        {
            "node_id": 12
        },
        {
            "node_id": 13
        },
        {
            "node_id": 14
        },
        {
            "node_id": 15
        },
        {
            "node_id": 16
        },
        {
            "node_id": 17
        },
        {
            "node_id": 18
        },
        {
            "node_id": 19
        },
        {
            "node_id": 20
        },
        {
            "node_id": 21
        },
        {
            "node_id": 22
        },
        {
            "node_id": 23
        },
        {
            "node_id": 24
        },
        {
            "node_id": 25
        },
        {
            "node_id": 26
        },
        {
            "node_id": 27
        },
        {
            "node_id": 28
        },
        {
            "node_id": 29
        },
        {
            "node_id": 30
        },
        {
            "node_id": 31
        },
        {
            "node_id": 32
        },
        {
            "node_id": 33
        },
        {
            "node_id": 34
        },
        {
            "node_id": 35
        },
        {
            "node_id": 36
        },
        {
            "node_id": 37
        },
        {
            "node_id": 38
        },
        {
            "node_id": 39
        },
        {
            "node_id": 40
        },
        {
            "node_id": 41
        },
        {
            "node_id": 42
        },
        {
            "node_id": 43
        },
        {
            "node_id": 44
        },
        {
            "node_id": 45
        },
        {
            "node_id": 46
        },
        {
            "node_id": 47
        },
        {
            "node_id": 48
        },
        {
            "node_id": 49
        },
        {
            "node_id": 50
        },
        {
            "node_id": 51
        },
        {
            "node_id": 52
        },
        {
            "node_id": 53
        },
        {
            "node_id": 54
        },
        {
            "node_id": 55
        },
        {
            "node_id": 56
        },
        {
            "node_id": 57
        },
        {
            "node_id": 58
        },
        {
            "node_id": 59
        },
        {
            "node_id": 60
        },
        {
            "node_id": 61
        },
        {
            "node_id": 62
        },
        {
            "node_id": 63
        },
        {
            "node_id": 64
        },
        {
            "node_id": 65
        },
        {
            "node_id": 66
        }
    ],
    "n_decimals": 1
}