{
    "constraints": [
        {
            "first_node": 1,
            "max_duration": 53.1,
            "min_duration": 48.0,
            "second_node": 2,
            "type": "stcu_ordinary",
            "ProbabilityDistribution": {
                "480": 0.0016604400166044002,
                "481": 0.0033208800332088003,
                "482": 0.005811540058115401,
                "483": 0.0016604400166044002,
                "484": 0.004151100041511001,
                "485": 0.0037359900373599006,
                "486": 0.005811540058115401,
                "487": 0.006641760066417601,
                "488": 0.008302200083022002,
                "489": 0.011623080116230802,
                "490": 0.0091324200913242,
                "491": 0.011623080116230802,
                "492": 0.010792860107928601,
                "493": 0.014528850145288501,
                "494": 0.0136986301369863,
                "495": 0.0182648401826484,
                "496": 0.0228310502283105,
                "497": 0.0203403902034039,
                "498": 0.0203403902034039,
                "499": 0.019925280199252802,
                "500": 0.029887920298879204,
                "501": 0.030718140307181403,
                "502": 0.026151930261519303,
                "503": 0.028642590286425903,
                "504": 0.0323785803237858,
                "505": 0.030303030303030304,
                "506": 0.039020340390203405,
                "507": 0.0327936903279369,
                "508": 0.0352843503528435,
                "509": 0.0323785803237858,
                "510": 0.024076380240763803,
                "511": 0.034039020340390205,
                "512": 0.030303030303030304,
                "513": 0.038605230386052306,
                "514": 0.024076380240763803,
                "515": 0.0319634703196347,
                "516": 0.031133250311332503,
                "517": 0.023661270236612703,
                "518": 0.024906600249066,
                "519": 0.026151930261519303,
                "520": 0.020755500207555,
                "521": 0.0203403902034039,
                "522": 0.019510170195101702,
                "523": 0.019510170195101702,
                "524": 0.0182648401826484,
                "525": 0.013283520132835201,
                "526": 0.0161892901618929,
                "527": 0.012868410128684102,
                "528": 0.0103777501037775,
                "529": 0.008717310087173101,
                "530": 0.0103777501037775,
                "531": 0.0091324200913242
            }
        },
        {
            "first_node": 3,
            "max_duration": 13.9,
            "min_duration": 12.6,
            "second_node": 4,
            "type": "stcu_ordinary",
            "ProbabilityDistribution": {
                "126": 0.16590909090909092,
                "127": 0.13636363636363635,
                "128": 0.1590909090909091,
                "129": 0.12954545454545455,
                "130": 0.1318181818181818,
                "131": 0.09772727272727273,
                "132": 0.056818181818181816,
                "133": 0.05,
                "134": 0.038636363636363635,
                "135": 0.022727272727272728,
                "136": 0.004545454545454545,
                "137": 0.0022727272727272726,
                "138": 0.0022727272727272726,
                "139": 0.0022727272727272726
            }
        },
        {
            "first_node": 5,
            "max_duration": 34.8,
            "min_duration": 31.5,
            "second_node": 6,
            "type": "stcu_ordinary",
            "ProbabilityDistribution": {
                "315": 0.02914642609299098,
                "316": 0.031228313671061762,
                "317": 0.0388619014573213,
                "318": 0.0388619014573213,
                "319": 0.0395558639833449,
                "320": 0.05412907702984039,
                "321": 0.05135322692574601,
                "322": 0.046495489243580844,
                "323": 0.05829285218598196,
                "324": 0.056210964607911175,
                "325": 0.05412907702984039,
                "326": 0.055517002081887576,
                "327": 0.046495489243580844,
                "328": 0.048577376821651634,
                "329": 0.041637751561415685,
                "330": 0.04371963913948647,
                "331": 0.04580152671755725,
                "332": 0.03261623872310895,
                "333": 0.028452463566967384,
                "334": 0.025676613462873005,
                "335": 0.02498265093684941,
                "336": 0.016655100624566273,
                "337": 0.018736988202637056,
                "338": 0.012491325468424705,
                "339": 0.013879250520471894,
                "340": 0.006245662734212352,
                "341": 0.009715475364330326,
                "342": 0.008327550312283136,
                "343": 0.008327550312283136,
                "344": 0.004163775156141568,
                "345": 0.005551700208188758,
                "346": 0.002775850104094379,
                "347": 0.0013879250520471894,
                "348": 0.0
            }
        },
        {
            "first_node": 7,
            "max_duration": 1440.0,
            "min_duration": 0.0,
            "second_node": 2,
            "type": "stc"
        },
        {
            "first_node": 7,
            "max_duration": 53.1,
            "min_duration": 48.0,
            "second_node": 8,
            "type": "stcu_ordinary",
            "ProbabilityDistribution": {
                "480": 0.007410456978180321,
                "481": 0.00699876492383697,
                "482": 0.005763688760806916,
                "483": 0.00699876492383697,
                "484": 0.007410456978180321,
                "485": 0.01070399341292713,
                "486": 0.011939069575957185,
                "487": 0.018114450391107453,
                "488": 0.019761218608480857,
                "489": 0.013585837793330589,
                "490": 0.019349526554137506,
                "491": 0.014820913956360642,
                "492": 0.02140798682585426,
                "493": 0.022231370934540962,
                "494": 0.025524907369287773,
                "495": 0.027171675586661177,
                "496": 0.027171675586661177,
                "497": 0.02881844380403458,
                "498": 0.03170028818443804,
                "499": 0.02881844380403458,
                "500": 0.02840675174969123,
                "501": 0.03252367229312474,
                "502": 0.033347056401811445,
                "503": 0.03293536434746809,
                "504": 0.0354055166735282,
                "505": 0.03087690407575134,
                "506": 0.026348291477974475,
                "507": 0.03170028818443804,
                "508": 0.03087690407575134,
                "509": 0.022643062988884313,
                "510": 0.03664059283655825,
                "511": 0.02881844380403458,
                "512": 0.025524907369287773,
                "513": 0.02470152326060107,
                "514": 0.020172910662824207,
                "515": 0.02799505969534788,
                "516": 0.016055990119390694,
                "517": 0.018526142445450804,
                "518": 0.01729106628242075,
                "519": 0.019761218608480857,
                "520": 0.0177027583367641,
                "521": 0.01399752984767394,
                "522": 0.012350761630300536,
                "523": 0.011115685467270481,
                "524": 0.01070399341292713,
                "525": 0.007410456978180321,
                "526": 0.009880609304240428,
                "527": 0.006587072869493619,
                "528": 0.002881844380403458,
                "529": 0.004116920543433511,
                "530": 0.005351996706463565,
                "531": 0.0016467682173734047
            }
        },
        {
            "first_node": 9,
            "max_duration": 24.7,
            "min_duration": 8.6,
            "second_node": 10,
            "type": "stc"
        },
        {
            "first_node": 11,
            "max_duration": 53.1,
            "min_duration": 48.0,
            "second_node": 12,
            "type": "stcu_ordinary",
            "ProbabilityDistribution": {
                "480": 0.00494641384995878,
                "481": 0.003709810387469085,
                "482": 0.004534212695795548,
                "483": 0.00741962077493817,
                "484": 0.004534212695795548,
                "485": 0.006595218466611707,
                "486": 0.011541632316570486,
                "487": 0.009068425391591096,
                "488": 0.01236603462489695,
                "489": 0.016488046166529265,
                "490": 0.018961253091508656,
                "491": 0.014014839241549877,
                "492": 0.01236603462489695,
                "493": 0.02019785655399835,
                "494": 0.018961253091508656,
                "495": 0.024319868095630668,
                "496": 0.02267106347897774,
                "497": 0.02267106347897774,
                "498": 0.023495465787304205,
                "499": 0.028441879637262985,
                "500": 0.023495465787304205,
                "501": 0.028441879637262985,
                "502": 0.031739488870568835,
                "503": 0.02926628194558945,
                "504": 0.033800494641384994,
                "505": 0.02967848309975268,
                "506": 0.03338829348722176,
                "507": 0.027617477328936522,
                "508": 0.02967848309975268,
                "509": 0.028029678483099753,
                "510": 0.0325638911788953,
                "511": 0.03297609233305853,
                "512": 0.02679307502061006,
                "513": 0.02514427040395713,
                "514": 0.030502885408079144,
                "515": 0.02267106347897774,
                "516": 0.030090684253915912,
                "517": 0.021434460016488046,
                "518": 0.01978565539983512,
                "519": 0.023495465787304205,
                "520": 0.015663643858202802,
                "521": 0.018549051937345424,
                "522": 0.02019785655399835,
                "523": 0.021022258862324814,
                "524": 0.010717230008244023,
                "525": 0.010305028854080791,
                "526": 0.014427040395713108,
                "527": 0.010305028854080791,
                "528": 0.008656224237427864,
                "529": 0.009068425391591096,
                "530": 0.00741962077493817,
                "531": 0.005770816158285243
            }
        },
        {
            "first_node": 13,
            "max_duration": 154.2,
            "min_duration": 60.0,
            "second_node": 14,
            "type": "stc"
        },
        {
            "first_node": 15,
            "max_duration": 15.3,
            "min_duration": 4.5,
            "second_node": 16,
            "type": "stc"
        },
        {
            "first_node": 17,
            "max_duration": 153.7,
            "min_duration": 60.0,
            "second_node": 18,
            "type": "stc"
        },
        {
            "first_node": 4,
            "max_duration": 7.7,
            "min_duration": 3.7,
            "second_node": 11,
            "type": "stc"
        },
        {
            "first_node": 10,
            "max_duration": 40.5,
            "min_duration": 36.7,
            "second_node": 19,
            "type": "stcu_ordinary",
            "ProbabilityDistribution": {
                "367": 0.0033821871476888386,
                "368": 0.003945885005636978,
                "369": 0.002818489289740699,
                "370": 0.002254791431792559,
                "371": 0.0033821871476888386,
                "372": 0.006764374295377677,
                "373": 0.007891770011273957,
                "374": 0.009019165727170236,
                "375": 0.010710259301014656,
                "376": 0.014656144306651634,
                "377": 0.018038331454340473,
                "378": 0.02480270574971815,
                "379": 0.02254791431792559,
                "380": 0.02367531003382187,
                "381": 0.020856820744081173,
                "382": 0.021984216459977453,
                "383": 0.02762119503945885,
                "384": 0.044532130777903044,
                "385": 0.03664036076662908,
                "386": 0.044532130777903044,
                "387": 0.032130777903043965,
                "388": 0.043968432919954906,
                "389": 0.0467869222096956,
                "390": 0.04565952649379933,
                "391": 0.03325817361894025,
                "392": 0.047914317925591886,
                "393": 0.05580608793686584,
                "394": 0.046223224351747465,
                "395": 0.02987598647125141,
                "396": 0.040586245772266064,
                "397": 0.04284103720405862,
                "398": 0.03551296505073281,
                "399": 0.030439684329199548,
                "400": 0.02987598647125141,
                "401": 0.015219842164599774,
                "402": 0.02254791431792559,
                "403": 0.016910935738444193,
                "404": 0.019165727170236752,
                "405": 0.015219842164599774
            }
        },
        {
            "first_node": 20,
            "max_duration": 12.6,
            "min_duration": 0.9,
            "second_node": 5,
            "type": "stc"
        },
        {
            "first_node": 21,
            "max_duration": 49.5,
            "min_duration": 44.8,
            "second_node": 22,
            "type": "stcu_ordinary",
            "ProbabilityDistribution": {
                "448": 0.013750592697961118,
                "449": 0.015647226173541962,
                "450": 0.01849217638691323,
                "451": 0.021811284969179705,
                "452": 0.028923660502607872,
                "453": 0.026078710289236605,
                "454": 0.023233760075865337,
                "455": 0.030346135609293504,
                "456": 0.03176861071597914,
                "457": 0.029871977240398292,
                "458": 0.03319108582266477,
                "459": 0.034613560929350404,
                "460": 0.031294452347083924,
                "461": 0.025604551920341393,
                "462": 0.03224276908487435,
                "463": 0.034139402560455195,
                "464": 0.04220009483167378,
                "465": 0.036510194404931244,
                "466": 0.03793266951161688,
                "467": 0.036510194404931244,
                "468": 0.036510194404931244,
                "469": 0.029871977240398292,
                "470": 0.02702702702702703,
                "471": 0.030346135609293504,
                "472": 0.023233760075865337,
                "473": 0.023233760075865337,
                "474": 0.02702702702702703,
                "475": 0.02797534376481745,
                "476": 0.01944049312470365,
                "477": 0.027501185395922237,
                "478": 0.01944049312470365,
                "479": 0.01896633475580844,
                "480": 0.016595542911332386,
                "481": 0.012802275960170697,
                "482": 0.008534850640113799,
                "483": 0.00995732574679943,
                "484": 0.00995732574679943,
                "485": 0.008060692271218587,
                "486": 0.008060692271218587,
                "487": 0.003793266951161688,
                "488": 0.005689900426742532,
                "489": 0.005215742057847321,
                "490": 0.002370791844476055,
                "491": 0.004267425320056899,
                "492": 0.002370791844476055,
                "493": 0.002844950213371266,
                "494": 0.003793266951161688,
                "495": 0.000948316737790422
            }
        },
        {
            "first_node": 21,
            "max_duration": 282.5,
            "min_duration": 60.0,
            "second_node": 12,
            "type": "stc"
        },
        {
            "first_node": 23,
            "max_duration": 9.6,
            "min_duration": 0.6,
            "second_node": 24,
            "type": "stc"
        },
        {
            "first_node": 25,
            "max_duration": 1440.0,
            "min_duration": 0.0,
            "second_node": 26,
            "type": "stc"
        },
        {
            "first_node": 19,
            "max_duration": 13.1,
            "min_duration": 1.5,
            "second_node": 27,
            "type": "stc"
        },
        {
            "first_node": 22,
            "max_duration": 22.3,
            "min_duration": 8.1,
            "second_node": 3,
            "type": "stc"
        },
        {
            "first_node": 6,
            "max_duration": 15.7,
            "min_duration": 5.8,
            "second_node": 28,
            "type": "stc"
        },
        {
            "first_node": 27,
            "max_duration": 25.6,
            "min_duration": 23.2,
            "second_node": 26,
            "type": "stcu_ordinary",
            "ProbabilityDistribution": {
                "232": 0.10147058823529412,
                "233": 0.11029411764705882,
                "234": 0.12352941176470589,
                "235": 0.11029411764705882,
                "236": 0.09558823529411764,
                "237": 0.09117647058823529,
                "238": 0.0661764705882353,
                "239": 0.06323529411764706,
                "240": 0.04852941176470588,
                "241": 0.061764705882352944,
                "242": 0.03529411764705882,
                "243": 0.020588235294117647,
                "244": 0.023529411764705882,
                "245": 0.016176470588235296,
                "246": 0.0058823529411764705,
                "247": 0.010294117647058823,
                "248": 0.004411764705882353,
                "249": 0.007352941176470588,
                "250": 0.0014705882352941176,
                "251": 0.0029411764705882353,
                "252": 0.0,
                "253": 0.0,
                "254": 0.0,
                "255": 0.0,
                "256": 0.0
            }
        },
        {
            "first_node": 8,
            "max_duration": 15.4,
            "min_duration": 0.3,
            "second_node": 1,
            "type": "stc"
        },
        {
            "first_node": 25,
            "max_duration": 56.5,
            "min_duration": 51.2,
            "second_node": 9,
            "type": "stcu_ordinary",
            "ProbabilityDistribution": {
                "512": 0.05126582278481013,
                "513": 0.052531645569620256,
                "514": 0.048734177215189876,
                "515": 0.053164556962025315,
                "516": 0.04556962025316456,
                "517": 0.056329113924050635,
                "518": 0.043037974683544304,
                "519": 0.046202531645569624,
                "520": 0.05569620253164557,
                "521": 0.048734177215189876,
                "522": 0.048734177215189876,
                "523": 0.039240506329113925,
                "524": 0.0310126582278481,
                "525": 0.03481012658227848,
                "526": 0.028481012658227847,
                "527": 0.0310126582278481,
                "528": 0.0310126582278481,
                "529": 0.029746835443037974,
                "530": 0.02721518987341772,
                "531": 0.02721518987341772,
                "532": 0.022151898734177215,
                "533": 0.021518987341772152,
                "534": 0.018354430379746836,
                "535": 0.015822784810126583,
                "536": 0.015822784810126583,
                "537": 0.00949367088607595,
                "538": 0.018354430379746836,
                "539": 0.006962025316455696,
                "540": 0.006962025316455696,
                "541": 0.006962025316455696,
                "542": 0.0012658227848101266,
                "543": 0.0031645569620253164,
                "544": 0.004430379746835443,
                "545": 0.005063291139240506,
                "546": 0.0012658227848101266,
                "547": 0.0037974683544303796,
                "548": 0.0012658227848101266,
                "549": 0.0018987341772151898,
                "550": 0.002531645569620253,
                "551": 0.0012658227848101266,
                "552": 0.0,
                "553": 0.0006329113924050633,
                "554": 0.0,
                "555": 0.0006329113924050633,
                "556": 0.0,
                "557": 0.0,
                "558": 0.0,
                "559": 0.0,
                "560": 0.0,
                "561": 0.0006329113924050633,
                "562": 0.0,
                "563": 0.0,
                "564": 0.0,
                "565": 0.0
            }
        },
        {
            "first_node": 13,
            "max_duration": 38.1,
            "min_duration": 34.5,
            "second_node": 15,
            "type": "stcu_ordinary",
            "ProbabilityDistribution": {
                "345": 0.06612244897959184,
                "346": 0.06448979591836734,
                "347": 0.05877551020408163,
                "348": 0.0653061224489796,
                "349": 0.061224489795918366,
                "350": 0.061224489795918366,
                "351": 0.06857142857142857,
                "352": 0.062040816326530614,
                "353": 0.0563265306122449,
                "354": 0.04816326530612245,
                "355": 0.053877551020408164,
                "356": 0.044897959183673466,
                "357": 0.03836734693877551,
                "358": 0.04081632653061224,
                "359": 0.029387755102040815,
                "360": 0.03346938775510204,
                "361": 0.024489795918367346,
                "362": 0.022857142857142857,
                "363": 0.026122448979591838,
                "364": 0.011428571428571429,
                "365": 0.0163265306122449,
                "366": 0.006530612244897959,
                "367": 0.008979591836734694,
                "368": 0.007346938775510204,
                "369": 0.007346938775510204,
                "370": 0.004081632653061225,
                "371": 0.0032653061224489797,
                "372": 0.0016326530612244899,
                "373": 0.0024489795918367346,
                "374": 0.0008163265306122449,
                "375": 0.0024489795918367346,
                "376": 0.0,
                "377": 0.0,
                "378": 0.0,
                "379": 0.0,
                "380": 0.0008163265306122449,
                "381": 0.0
            }
        },
        {
            "first_node": 16,
            "max_duration": 38.1,
            "min_duration": 34.5,
            "second_node": 14,
            "type": "stcu_ordinary",
            "ProbabilityDistribution": {
                "345": 0.030303030303030304,
                "346": 0.032196969696969696,
                "347": 0.03156565656565657,
                "348": 0.03535353535353535,
                "349": 0.04861111111111111,
                "350": 0.046085858585858584,
                "351": 0.04419191919191919,
                "352": 0.052398989898989896,
                "353": 0.045454545454545456,
                "354": 0.052398989898989896,
                "355": 0.056818181818181816,
                "356": 0.043560606060606064,
                "357": 0.05555555555555555,
                "358": 0.05303030303030303,
                "359": 0.046085858585858584,
                "360": 0.05366161616161616,
                "361": 0.04861111111111111,
                "362": 0.03156565656565657,
                "363": 0.036616161616161616,
                "364": 0.028409090909090908,
                "365": 0.022095959595959596,
                "366": 0.013888888888888888,
                "367": 0.015151515151515152,
                "368": 0.012626262626262626,
                "369": 0.013888888888888888,
                "370": 0.011994949494949494,
                "371": 0.00946969696969697,
                "372": 0.007575757575757576,
                "373": 0.006313131313131313,
                "374": 0.003787878787878788,
                "375": 0.003787878787878788,
                "376": 0.0025252525252525255,
                "377": 0.0012626262626262627,
                "378": 0.001893939393939394,
                "379": 0.0006313131313131314,
                "380": 0.0,
                "381": 0.0006313131313131314
            }
        },
        {
            "first_node": 24,
            "max_duration": 41.0,
            "min_duration": 37.0,
            "second_node": 20,
            "type": "stcu_ordinary",
            "ProbabilityDistribution": {
                "370": 0.0,
                "371": 0.0,
                "372": 0.0006242197253433209,
                "373": 0.0012484394506866417,
                "374": 0.0006242197253433209,
                "375": 0.0018726591760299626,
                "376": 0.0012484394506866417,
                "377": 0.003745318352059925,
                "378": 0.003121098626716604,
                "379": 0.004369538077403246,
                "380": 0.0056179775280898875,
                "381": 0.0056179775280898875,
                "382": 0.0056179775280898875,
                "383": 0.009363295880149813,
                "384": 0.012484394506866416,
                "385": 0.009363295880149813,
                "386": 0.018102372034956304,
                "387": 0.019975031210986267,
                "388": 0.015605493133583021,
                "389": 0.018726591760299626,
                "390": 0.02933832709113608,
                "391": 0.028089887640449437,
                "392": 0.02871410736579276,
                "393": 0.03433208489388265,
                "394": 0.038077403245942575,
                "395": 0.046192259675405745,
                "396": 0.04057428214731586,
                "397": 0.041822721598002495,
                "398": 0.048064918851435705,
                "399": 0.0449438202247191,
                "400": 0.03870162297128589,
                "401": 0.04431960049937578,
                "402": 0.0599250936329588,
                "403": 0.054307116104868915,
                "404": 0.05368289637952559,
                "405": 0.04119850187265917,
                "406": 0.033707865168539325,
                "407": 0.04556803995006242,
                "408": 0.04431960049937578,
                "409": 0.03870162297128589,
                "410": 0.028089887640449437
            }
        },
        {
            "first_node": 17,
            "max_duration": 31.6,
            "min_duration": 28.6,
            "second_node": 23,
            "type": "stcu_ordinary",
            "ProbabilityDistribution": {
                "286": 0.10467980295566502,
                "287": 0.08497536945812807,
                "288": 0.12315270935960591,
                "289": 0.08251231527093596,
                "290": 0.06773399014778325,
                "291": 0.0812807881773399,
                "292": 0.07758620689655173,
                "293": 0.04926108374384237,
                "294": 0.05665024630541872,
                "295": 0.04310344827586207,
                "296": 0.04926108374384237,
                "297": 0.04064039408866995,
                "298": 0.0332512315270936,
                "299": 0.023399014778325122,
                "300": 0.023399014778325122,
                "301": 0.01847290640394089,
                "302": 0.009852216748768473,
                "303": 0.006157635467980296,
                "304": 0.011083743842364532,
                "305": 0.003694581280788177,
                "306": 0.0024630541871921183,
                "307": 0.0012315270935960591,
                "308": 0.0024630541871921183,
                "309": 0.0012315270935960591,
                "310": 0.0012315270935960591,
                "311": 0.0012315270935960591,
                "312": 0.0,
                "313": 0.0,
                "314": 0.0,
                "315": 0.0,
                "316": 0.0
            }
        },
        {
            "first_node": 28,
            "max_duration": 41.0,
            "min_duration": 37.1,
            "second_node": 18,
            "type": "stcu_ordinary",
            "ProbabilityDistribution": {
                "371": 0.0005899705014749262,
                "372": 0.0005899705014749262,
                "373": 0.0011799410029498525,
                "374": 0.0011799410029498525,
                "375": 0.0017699115044247787,
                "376": 0.002359882005899705,
                "377": 0.00471976401179941,
                "378": 0.00471976401179941,
                "379": 0.002359882005899705,
                "380": 0.007079646017699115,
                "381": 0.007079646017699115,
                "382": 0.0058997050147492625,
                "383": 0.011209439528023599,
                "384": 0.007669616519174041,
                "385": 0.014749262536873156,
                "386": 0.018289085545722714,
                "387": 0.016519174041297935,
                "388": 0.02064896755162242,
                "389": 0.024778761061946902,
                "390": 0.02831858407079646,
                "391": 0.028908554572271386,
                "392": 0.03126843657817109,
                "393": 0.03480825958702065,
                "394": 0.035398230088495575,
                "395": 0.043067846607669616,
                "396": 0.04247787610619469,
                "397": 0.04896755162241888,
                "398": 0.05545722713864307,
                "399": 0.05486725663716814,
                "400": 0.05014749262536873,
                "401": 0.04188790560471976,
                "402": 0.044837758112094395,
                "403": 0.0471976401179941,
                "404": 0.03952802359882006,
                "405": 0.04129793510324484,
                "406": 0.04601769911504425,
                "407": 0.030678466076696165,
                "408": 0.03775811209439528,
                "409": 0.035398230088495575,
                "410": 0.02831858407079646
            }
        }
    ],
    "nodes": [
        {
            "node_id": 1
        },
        {
            "node_id": 2
        },
        {
            "node_id": 3
        },
        {
            "node_id": 4
        },
        {
            "node_id": 5
        },
        {
            "node_id": 6
        },
        {
            "node_id": 7
        },
        {
            "node_id": 8
        },
        {
            "node_id": 9
        },
        {
            "node_id": 10
        },
        {
            "node_id": 11
        },
        {
            "node_id": 12
        },
        {
            "node_id": 13
        },
        {
            "node_id": 14
        },
        {
            "node_id": 15
        },
        {
            "node_id": 16
        },
        {
            "node_id": 17
        },
        {
            "node_id": 18
        },
        {
            "node_id": 19
        },
        {
            "node_id": 20
        },
        {
            "node_id": 21
        },
        {
            "node_id": 22
        },
        {
            "node_id": 23
        },
        {
            "node_id": 24
        },
        {
            "node_id": 25
        },
        {
            "node_id": 26
        },
        {
            "node_id": 27
        },
        {
            "node_id": 28
        }
    ],
    "n_decimals": 1
}