{
    "constraints": [
        {
            "first_node": 1,
            "max_duration": 10.0,
            "min_duration": 5.0,
            "second_node": 2,
            "type": "stcu_ordinary",
            "ProbabilityDistribution": {
                "50": 0.046620046620046623,
                "51": 0.038461538461538464,
                "52": 0.04603729603729604,
                "53": 0.047785547785547784,
                "54": 0.04895104895104895,
                "55": 0.04020979020979021,
                "56": 0.04195804195804196,
                "57": 0.06235431235431235,
                "58": 0.047785547785547784,
                "59": 0.047785547785547784,
                "60": 0.03904428904428905,
                "61": 0.04079254079254079,
                "62": 0.039627039627039624,
                "63": 0.037296037296037296,
                "64": 0.04079254079254079,
                "65": 0.042540792540792544,
                "66": 0.02972027972027972,
                "67": 0.026223776223776224,
                "68": 0.024475524475524476,
                "69": 0.028554778554778556,
                "70": 0.015734265734265736,
                "71": 0.026223776223776224,
                "72": 0.02097902097902098,
                "73": 0.018648018648018648,
                "74": 0.0168997668997669,
                "75": 0.012237762237762238,
                "76": 0.007575757575757576,
                "77": 0.009324009324009324,
                "78": 0.008158508158508158,
                "79": 0.007575757575757576,
                "80": 0.009906759906759906,
                "81": 0.0034965034965034965,
                "82": 0.004079254079254079,
                "83": 0.002913752913752914,
                "84": 0.002331002331002331,
                "85": 0.002331002331002331,
                "86": 0.0034965034965034965,
                "87": 0.002913752913752914,
                "88": 0.002331002331002331,
                "89": 0.0011655011655011655,
                "90": 0.0011655011655011655,
                "91": 0.0005827505827505828,
                "92": 0.0005827505827505828,
                "93": 0.0005827505827505828,
                "94": 0.0,
                "95": 0.0,
                "96": 0.0011655011655011655,
                "97": 0.0005827505827505828,
                "98": 0.0,
                "99": 0.0,
                "100": 0.0
            }
        },
        {
            "first_node": 1,
            "max_duration": "inf",
            "min_duration": 4.0,
            "second_node": 3,
            "type": "stc"
        },
        {
            "first_node": 3,
            "max_duration": 2.0,
            "min_duration": 1.0,
            "second_node": 4,
            "type": "stcu_ordinary",
            "ProbabilityDistribution": {
                "10": 0.0,
                "11": 0.007556675062972292,
                "12": 0.010075566750629723,
                "13": 0.010075566750629723,
                "14": 0.05037783375314862,
                "15": 0.06801007556675064,
                "16": 0.12090680100755667,
                "17": 0.1385390428211587,
                "18": 0.2518891687657431,
                "19": 0.18639798488664988,
                "20": 0.1561712846347607
            }
        },
        {
            "first_node": 4,
            "max_duration": "inf",
            "min_duration": 0.0,
            "second_node": 2,
            "type": "stc"
        }
    ],
    "nodes": [
        {
            "node_id": 1
        },
        {
            "node_id": 2
        },
        {
            "node_id": 3
        },
        {
            "node_id": 4
        }
    ],
    "n_decimals": 1
}