{
    "constraints": [
        {
            "first_node": 1,
            "max_duration": 118.0,
            "min_duration": 60.0,
            "second_node": 2,
            "type": "stc"
        },
        {
            "first_node": 1,
            "max_duration": 32.4,
            "min_duration": 29.3,
            "second_node": 3,
            "type": "stcu_ordinary",
            "ProbabilityDistribution": {
                "293": 0.07541625857002938,
                "294": 0.0901077375122429,
                "295": 0.07835455435847209,
                "296": 0.06856023506366307,
                "297": 0.07933398628795299,
                "298": 0.07345739471106758,
                "299": 0.05778648383937316,
                "300": 0.05582761998041136,
                "301": 0.06268364348677767,
                "302": 0.061704211557296766,
                "303": 0.047992164544564155,
                "304": 0.04505386875612145,
                "305": 0.03721841332027424,
                "306": 0.030362389813907934,
                "307": 0.02742409402546523,
                "308": 0.02742409402546523,
                "309": 0.021547502448579822,
                "310": 0.012732615083251714,
                "311": 0.01665034280117532,
                "312": 0.007835455435847209,
                "313": 0.007835455435847209,
                "314": 0.002938295788442703,
                "315": 0.004897159647404506,
                "316": 0.0039177277179236044,
                "317": 0.0009794319294809011,
                "318": 0.0,
                "319": 0.0,
                "320": 0.0,
                "321": 0.0,
                "322": 0.0,
                "323": 0.0019588638589618022,
                "324": 0.0
            }
        },
        {
            "first_node": 4,
            "max_duration": 41.9,
            "min_duration": 37.9,
            "second_node": 5,
            "type": "stcu_ordinary",
            "ProbabilityDistribution": {
                "379": 0.017593643586833144,
                "380": 0.034619750283768444,
                "381": 0.02553916004540295,
                "382": 0.0340522133938706,
                "383": 0.032917139614074914,
                "384": 0.029511918274687854,
                "385": 0.039727582292849034,
                "386": 0.04199772985244041,
                "387": 0.04086265607264472,
                "388": 0.03518728717366629,
                "389": 0.038024971623155504,
                "390": 0.04426787741203178,
                "391": 0.041430192962542564,
                "392": 0.05221339387060159,
                "393": 0.05221339387060159,
                "394": 0.03916004540295119,
                "395": 0.04199772985244041,
                "396": 0.03688989784335982,
                "397": 0.04370034052213394,
                "398": 0.04029511918274688,
                "399": 0.028376844494892167,
                "400": 0.0340522133938706,
                "401": 0.026674233825198637,
                "402": 0.024404086265607264,
                "403": 0.019863791146424517,
                "404": 0.01872871736662883,
                "405": 0.017593643586833144,
                "406": 0.010783200908059024,
                "407": 0.012485811577752554,
                "408": 0.01021566401816118,
                "409": 0.004540295119182747,
                "410": 0.006242905788876277,
                "411": 0.007945516458569807,
                "412": 0.0022701475595913734,
                "413": 0.00510783200908059,
                "414": 0.004540295119182747,
                "415": 0.00170261066969353,
                "416": 0.0,
                "417": 0.0011350737797956867,
                "418": 0.0,
                "419": 0.0011350737797956867
            }
        },
        {
            "first_node": 3,
            "max_duration": 18.1,
            "min_duration": 8.8,
            "second_node": 4,
            "type": "stc"
        },
        {
            "first_node": 6,
            "max_duration": 30.4,
            "min_duration": 27.5,
            "second_node": 2,
            "type": "stcu_ordinary",
            "ProbabilityDistribution": {
                "275": 0.026865671641791045,
                "276": 0.019402985074626865,
                "277": 0.018656716417910446,
                "278": 0.030597014925373135,
                "279": 0.024626865671641792,
                "280": 0.04253731343283582,
                "281": 0.03955223880597015,
                "282": 0.05223880597014925,
                "283": 0.05223880597014925,
                "284": 0.06343283582089553,
                "285": 0.05298507462686567,
                "286": 0.057462686567164176,
                "287": 0.05373134328358209,
                "288": 0.06417910447761194,
                "289": 0.05373134328358209,
                "290": 0.05522388059701493,
                "291": 0.050746268656716415,
                "292": 0.03656716417910448,
                "293": 0.03507462686567164,
                "294": 0.03208955223880597,
                "295": 0.022388059701492536,
                "296": 0.028358208955223882,
                "297": 0.026119402985074626,
                "298": 0.013432835820895522,
                "299": 0.013432835820895522,
                "300": 0.009701492537313432,
                "301": 0.006716417910447761,
                "302": 0.008955223880597015,
                "303": 0.0029850746268656717,
                "304": 0.005970149253731343
            }
        },
        {
            "first_node": 5,
            "max_duration": 18.9,
            "min_duration": 6.9,
            "second_node": 6,
            "type": "stc"
        }
    ],
    "nodes": [
        {
            "node_id": 1
        },
        {
            "node_id": 2
        },
        {
            "node_id": 3
        },
        {
            "node_id": 4
        },
        {
            "node_id": 5
        },
        {
            "node_id": 6
        }
    ],
    "n_decimals": 1
}