{
    "constraints": [
        {
            "first_node": 1,
            "max_duration": 53.1,
            "min_duration": 48.0,
            "second_node": 2,
            "type": "stcu_ordinary",
            "ProbabilityDistribution": {
                "480": 0.04068522483940043,
                "481": 0.04068522483940043,
                "482": 0.03586723768736617,
                "483": 0.034261241970021415,
                "484": 0.042826552462526764,
                "485": 0.03800856531049251,
                "486": 0.04764453961456103,
                "487": 0.03693790149892934,
                "488": 0.03854389721627409,
                "489": 0.033190578158458245,
                "490": 0.046573875802997856,
                "491": 0.04068522483940043,
                "492": 0.03800856531049251,
                "493": 0.03586723768736617,
                "494": 0.033190578158458245,
                "495": 0.034261241970021415,
                "496": 0.032655246252676656,
                "497": 0.03693790149892934,
                "498": 0.028907922912205567,
                "499": 0.023554603854389723,
                "500": 0.032119914346895075,
                "501": 0.02462526766595289,
                "502": 0.021413276231263382,
                "503": 0.01980728051391863,
                "504": 0.025160599571734475,
                "505": 0.015524625267665952,
                "506": 0.008565310492505354,
                "507": 0.013383297644539615,
                "508": 0.011777301927194861,
                "509": 0.018201284796573874,
                "510": 0.009635974304068522,
                "511": 0.011241970021413276,
                "512": 0.009100642398286937,
                "513": 0.007494646680942184,
                "514": 0.003747323340471092,
                "515": 0.0053533190578158455,
                "516": 0.006959314775160599,
                "517": 0.004282655246252677,
                "518": 0.0021413276231263384,
                "519": 0.0021413276231263384,
                "520": 0.0016059957173447537,
                "521": 0.0016059957173447537,
                "522": 0.0021413276231263384,
                "523": 0.0016059957173447537,
                "524": 0.0,
                "525": 0.0010706638115631692,
                "526": 0.0,
                "527": 0.0,
                "528": 0.0,
                "529": 0.0,
                "530": 0.0,
                "531": 0.0
            }
        },
        {
            "first_node": 3,
            "max_duration": 13.9,
            "min_duration": 12.6,
            "second_node": 4,
            "type": "stcu_ordinary",
            "ProbabilityDistribution": {
                "126": 0.10357142857142858,
                "127": 0.10714285714285714,
                "128": 0.1375,
                "129": 0.11785714285714285,
                "130": 0.10535714285714286,
                "131": 0.11071428571428571,
                "132": 0.09107142857142857,
                "133": 0.0875,
                "134": 0.05892857142857143,
                "135": 0.033928571428571426,
                "136": 0.025,
                "137": 0.014285714285714285,
                "138": 0.0035714285714285713,
                "139": 0.0035714285714285713
            }
        },
        {
            "first_node": 5,
            "max_duration": 34.8,
            "min_duration": 31.5,
            "second_node": 6,
            "type": "stcu_ordinary",
            "ProbabilityDistribution": {
                "315": 0.037065637065637064,
                "316": 0.050965250965250966,
                "317": 0.044015444015444015,
                "318": 0.05405405405405406,
                "319": 0.055598455598455596,
                "320": 0.06795366795366796,
                "321": 0.05791505791505792,
                "322": 0.06023166023166023,
                "323": 0.06409266409266409,
                "324": 0.05714285714285714,
                "325": 0.04555984555984556,
                "326": 0.051737451737451735,
                "327": 0.04864864864864865,
                "328": 0.05019305019305019,
                "329": 0.03861003861003861,
                "330": 0.032432432432432434,
                "331": 0.03783783783783784,
                "332": 0.027799227799227798,
                "333": 0.018532818532818532,
                "334": 0.019305019305019305,
                "335": 0.019305019305019305,
                "336": 0.01776061776061776,
                "337": 0.008494208494208495,
                "338": 0.014671814671814672,
                "339": 0.003088803088803089,
                "340": 0.005405405405405406,
                "341": 0.003088803088803089,
                "342": 0.003088803088803089,
                "343": 0.0,
                "344": 0.0015444015444015444,
                "345": 0.0023166023166023165,
                "346": 0.0007722007722007722,
                "347": 0.0007722007722007722,
                "348": 0.0
            }
        },
        {
            "first_node": 7,
            "max_duration": 1440.0,
            "min_duration": 0.0,
            "second_node": 2,
            "type": "stc"
        },
        {
            "first_node": 7,
            "max_duration": 53.1,
            "min_duration": 48.0,
            "second_node": 8,
            "type": "stcu_ordinary",
            "ProbabilityDistribution": {
                "480": 0.0009629272989889263,
                "481": 0.0009629272989889263,
                "482": 0.0,
                "483": 0.0,
                "484": 0.0009629272989889263,
                "485": 0.0014443909484833895,
                "486": 0.0009629272989889263,
                "487": 0.0014443909484833895,
                "488": 0.0014443909484833895,
                "489": 0.0014443909484833895,
                "490": 0.003370245546461242,
                "491": 0.0038517091959557053,
                "492": 0.004333172845450169,
                "493": 0.0019258545979778526,
                "494": 0.008184882041405874,
                "495": 0.005296100144439095,
                "496": 0.005777563793933558,
                "497": 0.011073663938372653,
                "498": 0.008184882041405874,
                "499": 0.014443909484833895,
                "500": 0.0091478093403948,
                "501": 0.017332691381800675,
                "502": 0.014925373134328358,
                "503": 0.014443909484833895,
                "504": 0.020221473278767454,
                "505": 0.014925373134328358,
                "506": 0.021665864227250843,
                "507": 0.02455464612421762,
                "508": 0.020702936928261917,
                "509": 0.031295137217140105,
                "510": 0.03707270101107366,
                "511": 0.03322099181511796,
                "512": 0.026961964371689937,
                "513": 0.036109773712084736,
                "514": 0.033702455464612424,
                "515": 0.04092441020702937,
                "516": 0.0365912373615792,
                "517": 0.03514684641309581,
                "518": 0.0327395281656235,
                "519": 0.041405873856523834,
                "520": 0.0365912373615792,
                "521": 0.046701974000962924,
                "522": 0.03466538276360135,
                "523": 0.04092441020702937,
                "524": 0.0327395281656235,
                "525": 0.026480500722195474,
                "526": 0.03466538276360135,
                "527": 0.0274434280211844,
                "528": 0.02455464612421762,
                "529": 0.030813673567645642,
                "530": 0.025036109773712085,
                "531": 0.020221473278767454
            }
        },
        {
            "first_node": 9,
            "max_duration": 24.7,
            "min_duration": 8.6,
            "second_node": 10,
            "type": "stc"
        },
        {
            "first_node": 11,
            "max_duration": 53.1,
            "min_duration": 48.0,
            "second_node": 12,
            "type": "stcu_ordinary",
            "ProbabilityDistribution": {
                "480": 0.03335070349140177,
                "481": 0.03595622720166754,
                "482": 0.03491401771756123,
                "483": 0.04064616988014591,
                "484": 0.02709744658676394,
                "485": 0.044815007816571134,
                "486": 0.03699843668577384,
                "487": 0.0385617509119333,
                "488": 0.04116727462219906,
                "489": 0.034392912975508075,
                "490": 0.04585721730067743,
                "491": 0.04273058884835852,
                "492": 0.040125065138092754,
                "493": 0.042209484106305366,
                "494": 0.04116727462219906,
                "495": 0.03908285565398645,
                "496": 0.03230849400729546,
                "497": 0.03751954142782699,
                "498": 0.0297029702970297,
                "499": 0.027618551328817093,
                "500": 0.02553413236060448,
                "501": 0.02709744658676394,
                "502": 0.01928087545596665,
                "503": 0.022407503908285567,
                "504": 0.021886399166232414,
                "505": 0.020323084940072955,
                "506": 0.017196456487754037,
                "507": 0.015633142261594582,
                "508": 0.010943199583116207,
                "509": 0.012506513809275664,
                "510": 0.007295466388744137,
                "511": 0.004689942678478374,
                "512": 0.007816571130797291,
                "513": 0.006253256904637832,
                "514": 0.004689942678478374,
                "515": 0.004168837936425221,
                "516": 0.003126628452318916,
                "517": 0.004168837936425221,
                "518": 0.0026055237102657635,
                "519": 0.003126628452318916,
                "520": 0.004168837936425221,
                "521": 0.0010422094841063053,
                "522": 0.001563314226159458,
                "523": 0.0020844189682126106,
                "524": 0.0005211047420531526,
                "525": 0.001563314226159458,
                "526": 0.0005211047420531526,
                "527": 0.0010422094841063053,
                "528": 0.0005211047420531526,
                "529": 0.0,
                "530": 0.0,
                "531": 0.0
            }
        },
        {
            "first_node": 13,
            "max_duration": 154.2,
            "min_duration": 60.0,
            "second_node": 14,
            "type": "stc"
        },
        {
            "first_node": 15,
            "max_duration": 15.3,
            "min_duration": 4.5,
            "second_node": 16,
            "type": "stc"
        },
        {
            "first_node": 17,
            "max_duration": 153.7,
            "min_duration": 60.0,
            "second_node": 18,
            "type": "stc"
        },
        {
            "first_node": 4,
            "max_duration": 7.7,
            "min_duration": 3.7,
            "second_node": 11,
            "type": "stc"
        },
        {
            "first_node": 10,
            "max_duration": 40.5,
            "min_duration": 36.7,
            "second_node": 19,
            "type": "stcu_ordinary",
            "ProbabilityDistribution": {
                "367": 0.028134556574923548,
                "368": 0.024464831804281346,
                "369": 0.037920489296636085,
                "370": 0.03669724770642202,
                "371": 0.039755351681957186,
                "372": 0.04709480122324159,
                "373": 0.044648318042813454,
                "374": 0.04892966360856269,
                "375": 0.044648318042813454,
                "376": 0.05504587155963303,
                "377": 0.056269113149847096,
                "378": 0.039755351681957186,
                "379": 0.04159021406727829,
                "380": 0.052599388379204894,
                "381": 0.04342507645259939,
                "382": 0.04709480122324159,
                "383": 0.03669724770642202,
                "384": 0.03853211009174312,
                "385": 0.03547400611620795,
                "386": 0.029357798165137616,
                "387": 0.023853211009174313,
                "388": 0.023853211009174313,
                "389": 0.017737003058103974,
                "390": 0.02018348623853211,
                "391": 0.014678899082568808,
                "392": 0.014067278287461774,
                "393": 0.011620795107033639,
                "394": 0.009785932721712538,
                "395": 0.007339449541284404,
                "396": 0.0061162079510703364,
                "397": 0.00672782874617737,
                "398": 0.003669724770642202,
                "399": 0.0024464831804281344,
                "400": 0.0030581039755351682,
                "401": 0.001834862385321101,
                "402": 0.0030581039755351682,
                "403": 0.0006116207951070336,
                "404": 0.0012232415902140672,
                "405": 0.0
            }
        },
        {
            "first_node": 20,
            "max_duration": 12.6,
            "min_duration": 0.9,
            "second_node": 5,
            "type": "stc"
        },
        {
            "first_node": 21,
            "max_duration": 49.5,
            "min_duration": 44.8,
            "second_node": 22,
            "type": "stcu_ordinary",
            "ProbabilityDistribution": {
                "448": 0.010105649977032614,
                "449": 0.014699127239320165,
                "450": 0.013780431786862656,
                "451": 0.017455213596692696,
                "452": 0.018373909049150206,
                "453": 0.025264124942581533,
                "454": 0.025264124942581533,
                "455": 0.022967386311437757,
                "456": 0.022048690858980247,
                "457": 0.03123564538355535,
                "458": 0.022967386311437757,
                "459": 0.026182820395039046,
                "460": 0.02847955902618282,
                "461": 0.03031694993109784,
                "462": 0.033991731740927886,
                "463": 0.03215434083601286,
                "464": 0.03904455672944419,
                "465": 0.04088194763435921,
                "466": 0.04088194763435921,
                "467": 0.032613688562241616,
                "468": 0.03628847037207166,
                "469": 0.035829122645842905,
                "470": 0.03536977491961415,
                "471": 0.02847955902618282,
                "472": 0.03031694993109784,
                "473": 0.0316949931097841,
                "474": 0.0266421681212678,
                "475": 0.02572347266881029,
                "476": 0.028020211299954065,
                "477": 0.027101515847496555,
                "478": 0.018833256775378962,
                "479": 0.015617822691777675,
                "480": 0.023426734037666513,
                "481": 0.01607717041800643,
                "482": 0.01515847496554892,
                "483": 0.01423977951309141,
                "484": 0.00964630225080386,
                "485": 0.011024345429490124,
                "486": 0.006890215893431328,
                "487": 0.005512172714745062,
                "488": 0.0078089113458888375,
                "489": 0.003215434083601286,
                "490": 0.006890215893431328,
                "491": 0.0036747818098300414,
                "492": 0.0022967386311437757,
                "493": 0.00045934772622875517,
                "494": 0.0013780431786862655,
                "495": 0.0036747818098300414
            }
        },
        {
            "first_node": 21,
            "max_duration": 282.5,
            "min_duration": 60.0,
            "second_node": 12,
            "type": "stc"
        },
        {
            "first_node": 23,
            "max_duration": 9.6,
            "min_duration": 0.6,
            "second_node": 24,
            "type": "stc"
        },
        {
            "first_node": 25,
            "max_duration": 1440.0,
            "min_duration": 0.0,
            "second_node": 26,
            "type": "stc"
        },
        {
            "first_node": 19,
            "max_duration": 13.1,
            "min_duration": 1.5,
            "second_node": 27,
            "type": "stc"
        },
        {
            "first_node": 22,
            "max_duration": 22.3,
            "min_duration": 8.1,
            "second_node": 3,
            "type": "stc"
        },
        {
            "first_node": 6,
            "max_duration": 15.7,
            "min_duration": 5.8,
            "second_node": 28,
            "type": "stc"
        },
        {
            "first_node": 27,
            "max_duration": 25.6,
            "min_duration": 23.2,
            "second_node": 26,
            "type": "stcu_ordinary",
            "ProbabilityDistribution": {
                "232": 0.004393673110720563,
                "233": 0.006151142355008787,
                "234": 0.007908611599297012,
                "235": 0.012302284710017574,
                "236": 0.011423550087873463,
                "237": 0.020210896309314587,
                "238": 0.016695957820738138,
                "239": 0.023725834797891036,
                "240": 0.03427065026362039,
                "241": 0.050966608084358524,
                "242": 0.043936731107205626,
                "243": 0.07205623901581722,
                "244": 0.07644991212653779,
                "245": 0.06239015817223199,
                "246": 0.07469244288224956,
                "247": 0.056239015817223195,
                "248": 0.07469244288224956,
                "249": 0.0843585237258348,
                "250": 0.06239015817223199,
                "251": 0.05360281195079086,
                "252": 0.04569420035149385,
                "253": 0.04130052724077329,
                "254": 0.029876977152899824,
                "255": 0.016695957820738138,
                "256": 0.01757469244288225
            }
        },
        {
            "first_node": 8,
            "max_duration": 15.4,
            "min_duration": 0.3,
            "second_node": 1,
            "type": "stc"
        },
        {
            "first_node": 25,
            "max_duration": 56.5,
            "min_duration": 51.2,
            "second_node": 9,
            "type": "stcu_ordinary",
            "ProbabilityDistribution": {
                "512": 0.0,
                "513": 0.00045351473922902497,
                "514": 0.0,
                "515": 0.0022675736961451248,
                "516": 0.0013605442176870747,
                "517": 0.00045351473922902497,
                "518": 0.0009070294784580499,
                "519": 0.0013605442176870747,
                "520": 0.0013605442176870747,
                "521": 0.0031746031746031746,
                "522": 0.0018140589569160999,
                "523": 0.0036281179138321997,
                "524": 0.004081632653061225,
                "525": 0.0031746031746031746,
                "526": 0.006802721088435374,
                "527": 0.006802721088435374,
                "528": 0.009523809523809525,
                "529": 0.007709750566893424,
                "530": 0.00816326530612245,
                "531": 0.012244897959183673,
                "532": 0.009070294784580499,
                "533": 0.011791383219954649,
                "534": 0.013605442176870748,
                "535": 0.009977324263038548,
                "536": 0.018140589569160998,
                "537": 0.017687074829931974,
                "538": 0.018140589569160998,
                "539": 0.026303854875283448,
                "540": 0.02312925170068027,
                "541": 0.025396825396825397,
                "542": 0.027664399092970523,
                "543": 0.027664399092970523,
                "544": 0.034467120181405894,
                "545": 0.030385487528344673,
                "546": 0.031292517006802724,
                "547": 0.025396825396825397,
                "548": 0.039909297052154194,
                "549": 0.030839002267573697,
                "550": 0.034013605442176874,
                "551": 0.034013605442176874,
                "552": 0.031746031746031744,
                "553": 0.036734693877551024,
                "554": 0.048072562358276644,
                "555": 0.033560090702947847,
                "556": 0.031746031746031744,
                "557": 0.033560090702947847,
                "558": 0.031746031746031744,
                "559": 0.026757369614512472,
                "560": 0.02857142857142857,
                "561": 0.03219954648526077,
                "562": 0.028117913832199547,
                "563": 0.029024943310657598,
                "564": 0.024489795918367346,
                "565": 0.019501133786848073
            }
        },
        {
            "first_node": 13,
            "max_duration": 38.1,
            "min_duration": 34.5,
            "second_node": 15,
            "type": "stcu_ordinary",
            "ProbabilityDistribution": {
                "345": 0.0006609385327164573,
                "346": 0.0039656311962987445,
                "347": 0.0,
                "348": 0.0006609385327164573,
                "349": 0.0026437541308658294,
                "350": 0.0013218770654329147,
                "351": 0.003304692663582287,
                "352": 0.0026437541308658294,
                "353": 0.003304692663582287,
                "354": 0.0026437541308658294,
                "355": 0.006609385327164574,
                "356": 0.007270323859881031,
                "357": 0.01255783212161269,
                "358": 0.007931262392597489,
                "359": 0.015862524785194978,
                "360": 0.020489094514210177,
                "361": 0.020489094514210177,
                "362": 0.025776602775941838,
                "363": 0.028420356906807668,
                "364": 0.0356906807666887,
                "365": 0.03767349636483807,
                "366": 0.0495703899537343,
                "367": 0.031064111037673495,
                "368": 0.046265697290152015,
                "369": 0.038334434897554524,
                "370": 0.05287508261731659,
                "371": 0.06080634500991408,
                "372": 0.05750165234633179,
                "373": 0.05551883674818242,
                "374": 0.058823529411764705,
                "375": 0.048909451421017845,
                "376": 0.05551883674818242,
                "377": 0.05551883674818242,
                "378": 0.034368803701255786,
                "379": 0.04824851288830139,
                "380": 0.031725049570389956,
                "381": 0.03502974223397224
            }
        },
        {
            "first_node": 16,
            "max_duration": 38.1,
            "min_duration": 34.5,
            "second_node": 14,
            "type": "stcu_ordinary",
            "ProbabilityDistribution": {
                "345": 0.0,
                "346": 0.0,
                "347": 0.0010787486515641855,
                "348": 0.0,
                "349": 0.0,
                "350": 0.0,
                "351": 0.0,
                "352": 0.0,
                "353": 0.0,
                "354": 0.0,
                "355": 0.0010787486515641855,
                "356": 0.004314994606256742,
                "357": 0.0,
                "358": 0.007551240560949299,
                "359": 0.004314994606256742,
                "360": 0.007551240560949299,
                "361": 0.005393743257820928,
                "362": 0.006472491909385114,
                "363": 0.005393743257820928,
                "364": 0.015102481121898598,
                "365": 0.016181229773462782,
                "366": 0.019417475728155338,
                "367": 0.030204962243797196,
                "368": 0.016181229773462782,
                "369": 0.030204962243797196,
                "370": 0.03559870550161812,
                "371": 0.045307443365695796,
                "372": 0.05285868392664509,
                "373": 0.0593311758360302,
                "374": 0.06040992448759439,
                "375": 0.06040992448759439,
                "376": 0.08845738942826321,
                "377": 0.07011866235167206,
                "378": 0.09600862998921252,
                "379": 0.08306364617044229,
                "380": 0.08737864077669903,
                "381": 0.09061488673139159
            }
        },
        {
            "first_node": 24,
            "max_duration": 41.0,
            "min_duration": 37.0,
            "second_node": 20,
            "type": "stcu_ordinary",
            "ProbabilityDistribution": {
                "370": 0.034934497816593885,
                "371": 0.031815346225826574,
                "372": 0.037429819089207735,
                "373": 0.042420461634435434,
                "374": 0.038053649407361195,
                "375": 0.041172800998128506,
                "376": 0.048658764815970056,
                "377": 0.044915782907049284,
                "378": 0.043668122270742356,
                "379": 0.056144728633811605,
                "380": 0.046163443543356206,
                "381": 0.040548970679975045,
                "382": 0.043668122270742356,
                "383": 0.03867747972551466,
                "384": 0.048034934497816595,
                "385": 0.047411104179663134,
                "386": 0.03618215845290081,
                "387": 0.031191515907673113,
                "388": 0.034934497816593885,
                "389": 0.03368683718028696,
                "390": 0.031191515907673113,
                "391": 0.025577043044291953,
                "392": 0.018714909544603867,
                "393": 0.01933873986275733,
                "394": 0.013100436681222707,
                "395": 0.01684341859014348,
                "396": 0.009981285090455396,
                "397": 0.006862133499688085,
                "398": 0.008109794135995009,
                "399": 0.007485963817841547,
                "400": 0.0037429819089207735,
                "401": 0.0037429819089207735,
                "402": 0.006238303181534623,
                "403": 0.002495321272613849,
                "404": 0.0031191515907673115,
                "405": 0.002495321272613849,
                "406": 0.0006238303181534623,
                "407": 0.0,
                "408": 0.0006238303181534623,
                "409": 0.0,
                "410": 0.0
            }
        },
        {
            "first_node": 17,
            "max_duration": 31.6,
            "min_duration": 28.6,
            "second_node": 23,
            "type": "stcu_ordinary",
            "ProbabilityDistribution": {
                "286": 0.08550185873605948,
                "287": 0.08302354399008674,
                "288": 0.10780669144981413,
                "289": 0.09789343246592318,
                "290": 0.09541511771995044,
                "291": 0.08550185873605948,
                "292": 0.08550185873605948,
                "293": 0.0644361833952912,
                "294": 0.04337050805452292,
                "295": 0.042131350681536554,
                "296": 0.04708798017348203,
                "297": 0.03345724907063197,
                "298": 0.03469640644361834,
                "299": 0.021065675340768277,
                "300": 0.021065675340768277,
                "301": 0.007434944237918215,
                "302": 0.006195786864931847,
                "303": 0.0161090458488228,
                "304": 0.004956629491945477,
                "305": 0.006195786864931847,
                "306": 0.0,
                "307": 0.0024783147459727386,
                "308": 0.0024783147459727386,
                "309": 0.0024783147459727386,
                "310": 0.0012391573729863693,
                "311": 0.0012391573729863693,
                "312": 0.0012391573729863693,
                "313": 0.0,
                "314": 0.0,
                "315": 0.0,
                "316": 0.0
            }
        },
        {
            "first_node": 28,
            "max_duration": 41.0,
            "min_duration": 37.1,
            "second_node": 18,
            "type": "stcu_ordinary",
            "ProbabilityDistribution": {
                "371": 0.06818181818181818,
                "372": 0.050156739811912224,
                "373": 0.06347962382445141,
                "374": 0.06269592476489028,
                "375": 0.04467084639498432,
                "376": 0.06504702194357367,
                "377": 0.055642633228840124,
                "378": 0.06583072100313479,
                "379": 0.0493730407523511,
                "380": 0.052507836990595615,
                "381": 0.0603448275862069,
                "382": 0.050940438871473356,
                "383": 0.04075235109717868,
                "384": 0.03213166144200627,
                "385": 0.04623824451410658,
                "386": 0.023510971786833857,
                "387": 0.0274294670846395,
                "388": 0.022727272727272728,
                "389": 0.014890282131661442,
                "390": 0.019592476489028215,
                "391": 0.017241379310344827,
                "392": 0.01018808777429467,
                "393": 0.016457680250783698,
                "394": 0.006269592476489028,
                "395": 0.007053291536050157,
                "396": 0.003918495297805642,
                "397": 0.004702194357366771,
                "398": 0.004702194357366771,
                "399": 0.003918495297805642,
                "400": 0.0023510971786833857,
                "401": 0.001567398119122257,
                "402": 0.001567398119122257,
                "403": 0.0023510971786833857,
                "404": 0.0007836990595611285,
                "405": 0.0007836990595611285,
                "406": 0.0,
                "407": 0.0,
                "408": 0.0,
                "409": 0.0,
                "410": 0.0
            }
        }
    ],
    "nodes": [
        {
            "node_id": 1
        },
        {
            "node_id": 2
        },
        {
            "node_id": 3
        },
        {
            "node_id": 4
        },
        {
            "node_id": 5
        },
        {
            "node_id": 6
        },
        {
            "node_id": 7
        },
        {
            "node_id": 8
        },
        {
            "node_id": 9
        },
        {
            "node_id": 10
        },
        {
            "node_id": 11
        },
        {
            "node_id": 12
        },
        {
            "node_id": 13
        },
        {
            "node_id": 14
        },
        {
            "node_id": 15
        },
        {
            "node_id": 16
        },
        {
            "node_id": 17
        },
        {
            "node_id": 18
        },
        {
            "node_id": 19
        },
        {
            "node_id": 20
        },
        {
            "node_id": 21
        },
        {
            "node_id": 22
        },
        {
            "node_id": 23
        },
        {
            "node_id": 24
        },
        {
            "node_id": 25
        },
        {
            "node_id": 26
        },
        {
            "node_id": 27
        },
        {
            "node_id": 28
        }
    ],
    "n_decimals": 1
}