{
    "constraints": [{
            "first_node": 1,
            "max_duration": 31.3,
            "min_duration": 28.3,
            "second_node": 2,
            "type": "stcu"
        }, {
            "first_node": 3,
            "max_duration": 1000000.0,
            "min_duration": 0.0,
            "second_node": 2,
            "type": "stc"
        }, {
            "first_node": 4,
            "max_duration": 15.3,
            "min_duration": 2.2,
            "second_node": 5,
            "type": "stc"
        }, {
            "first_node": 6,
            "max_duration": 141.0,
            "min_duration": 60.0,
            "second_node": 7,
            "type": "stc"
        }, {
            "first_node": 8,
            "max_duration": 20.8,
            "min_duration": 3.6,
            "second_node": 9,
            "type": "stc"
        }, {
            "first_node": 3,
            "max_duration": 29.9,
            "min_duration": 27.0,
            "second_node": 10,
            "type": "stcu"
        }, {
            "first_node": 11,
            "max_duration": 11.7,
            "min_duration": 2.7,
            "second_node": 1,
            "type": "stc"
        }, {
            "first_node": 12,
            "max_duration": 1000000.0,
            "min_duration": 0.0,
            "second_node": 13,
            "type": "stc"
        }, {
            "first_node": 14,
            "max_duration": 46.7,
            "min_duration": 42.3,
            "second_node": 15,
            "type": "stcu"
        }, {
            "first_node": 12,
            "max_duration": 45.5,
            "min_duration": 41.2,
            "second_node": 16,
            "type": "stcu"
        }, {
            "first_node": 17,
            "max_duration": 48.4,
            "min_duration": 43.8,
            "second_node": 18,
            "type": "stcu"
        }, {
            "first_node": 19,
            "max_duration": 60.2,
            "min_duration": 54.5,
            "second_node": 8,
            "type": "stcu"
        }, {
            "first_node": 6,
            "max_duration": 1000000.0,
            "min_duration": 0.0,
            "second_node": 20,
            "type": "stc"
        }, {
            "first_node": 10,
            "max_duration": 11.5,
            "min_duration": 3.0,
            "second_node": 14,
            "type": "stc"
        }, {
            "first_node": 15,
            "max_duration": 14.6,
            "min_duration": 1.3,
            "second_node": 21,
            "type": "stc"
        }, {
            "first_node": 3,
            "max_duration": 139.7,
            "min_duration": 60.0,
            "second_node": 20,
            "type": "stc"
        }, {
            "first_node": 21,
            "max_duration": 45.7,
            "min_duration": 41.4,
            "second_node": 4,
            "type": "stcu"
        }, {
            "first_node": 22,
            "max_duration": 18.8,
            "min_duration": 9.3,
            "second_node": 23,
            "type": "stc"
        }, {
            "first_node": 24,
            "max_duration": 33.0,
            "min_duration": 29.8,
            "second_node": 22,
            "type": "stcu"
        }, {
            "first_node": 25,
            "max_duration": 31.3,
            "min_duration": 28.3,
            "second_node": 11,
            "type": "stcu"
        }, {
            "first_node": 6,
            "max_duration": 42.6,
            "min_duration": 38.5,
            "second_node": 26,
            "type": "stcu"
        }, {
            "first_node": 26,
            "max_duration": 19.4,
            "min_duration": 7.2,
            "second_node": 19,
            "type": "stc"
        }, {
            "first_node": 16,
            "max_duration": 21.2,
            "min_duration": 8.1,
            "second_node": 24,
            "type": "stc"
        }, {
            "first_node": 25,
            "max_duration": 1000000.0,
            "min_duration": 0.0,
            "second_node": 27,
            "type": "stc"
        }, {
            "first_node": 23,
            "max_duration": 50.0,
            "min_duration": 45.3,
            "second_node": 27,
            "type": "stcu"
        }, {
            "first_node": 25,
            "max_duration": 174.5,
            "min_duration": 60.0,
            "second_node": 2,
            "type": "stc"
        }, {
            "first_node": 17,
            "max_duration": 1440.0,
            "min_duration": 0.0,
            "second_node": 7,
            "type": "stc"
        }, {
            "first_node": 12,
            "max_duration": 187.4,
            "min_duration": 60.0,
            "second_node": 27,
            "type": "stc"
        }, {
            "first_node": 17,
            "max_duration": 264.7,
            "min_duration": 60.0,
            "second_node": 13,
            "type": "stc"
        }, {
            "first_node": 9,
            "max_duration": 31.4,
            "min_duration": 28.4,
            "second_node": 7,
            "type": "stcu"
        }, {
            "first_node": 5,
            "max_duration": 7.7,
            "min_duration": 7.0,
            "second_node": 20,
            "type": "stcu"
        }, {
            "first_node": 28,
            "max_duration": 48.4,
            "min_duration": 43.8,
            "second_node": 13,
            "type": "stcu"
        }, {
            "first_node": 18,
            "max_duration": 20.3,
            "min_duration": 6.4,
            "second_node": 28,
            "type": "stc"
        }],
    "nodes": [{
            "node_id": 1
        }, {
            "node_id": 2
        }, {
            "node_id": 3
        }, {
            "node_id": 4
        }, {
            "node_id": 5
        }, {
            "node_id": 6
        }, {
            "node_id": 7
        }, {
            "node_id": 8
        }, {
            "node_id": 9
        }, {
            "node_id": 10
        }, {
            "node_id": 11
        }, {
            "node_id": 12
        }, {
            "node_id": 13
        }, {
            "node_id": 14
        }, {
            "node_id": 15
        }, {
            "node_id": 16
        }, {
            "node_id": 17
        }, {
            "node_id": 18
        }, {
            "node_id": 19
        }, {
            "node_id": 20
        }, {
            "node_id": 21
        }, {
            "node_id": 22
        }, {
            "node_id": 23
        }, {
            "node_id": 24
        }, {
            "node_id": 25
        }, {
            "node_id": 26
        }, {
            "node_id": 27
        }, {
            "node_id": 28
        }]
}