{
    "constraints": [{
            "first_node": 1,
            "max_duration": 17.2795,
            "min_duration": 4.15,
            "second_node": 2,
            "type": "stc"
        }, {
            "first_node": 3,
            "max_duration": 49.7387,
            "min_duration": 46.8413,
            "second_node": 4,
            "type": "stcu"
        }, {
            "first_node": 5,
            "max_duration": 185.28,
            "min_duration": 60.0,
            "second_node": 6,
            "type": "stc"
        }, {
            "first_node": 5,
            "max_duration": 1000000.0,
            "min_duration": 0.0,
            "second_node": 7,
            "type": "stc"
        }, {
            "first_node": 8,
            "max_duration": 140.73000000000002,
            "min_duration": 60.0,
            "second_node": 7,
            "type": "stc"
        }, {
            "first_node": 2,
            "max_duration": 36.33325,
            "min_duration": 34.21675,
            "second_node": 7,
            "type": "stcu"
        }, {
            "first_node": 8,
            "max_duration": 44.47025,
            "min_duration": 41.879749999999994,
            "second_node": 9,
            "type": "stcu"
        }, {
            "first_node": 9,
            "max_duration": 13.532499999999999,
            "min_duration": 0.58,
            "second_node": 10,
            "type": "stc"
        }, {
            "first_node": 10,
            "max_duration": 45.07795,
            "min_duration": 42.45205,
            "second_node": 1,
            "type": "stcu"
        }, {
            "first_node": 11,
            "max_duration": 20.6605,
            "min_duration": 7.33,
            "second_node": 12,
            "type": "stc"
        }, {
            "first_node": 8,
            "max_duration": 1440.0,
            "min_duration": 0.0,
            "second_node": 13,
            "type": "stc"
        }, {
            "first_node": 14,
            "max_duration": 1000000.0,
            "min_duration": 0.0,
            "second_node": 6,
            "type": "stc"
        }, {
            "first_node": 5,
            "max_duration": 45.76805,
            "min_duration": 43.10195,
            "second_node": 11,
            "type": "stcu"
        }, {
            "first_node": 14,
            "max_duration": 205.53,
            "min_duration": 60.0,
            "second_node": 13,
            "type": "stc"
        }, {
            "first_node": 14,
            "max_duration": 30.1275,
            "min_duration": 28.3725,
            "second_node": 15,
            "type": "stcu"
        }, {
            "first_node": 16,
            "max_duration": 16.7795,
            "min_duration": 2.75,
            "second_node": 3,
            "type": "stc"
        }, {
            "first_node": 17,
            "max_duration": 30.1275,
            "min_duration": 28.3725,
            "second_node": 13,
            "type": "stcu"
        }, {
            "first_node": 18,
            "max_duration": 35.9882,
            "min_duration": 33.891799999999996,
            "second_node": 6,
            "type": "stcu"
        }, {
            "first_node": 15,
            "max_duration": 14.545,
            "min_duration": 5.77,
            "second_node": 17,
            "type": "stc"
        }, {
            "first_node": 4,
            "max_duration": 15.336999999999998,
            "min_duration": 0.85,
            "second_node": 18,
            "type": "stc"
        }, {
            "first_node": 12,
            "max_duration": 48.16795,
            "min_duration": 45.36205,
            "second_node": 16,
            "type": "stcu"
        }],
    "nodes": [{
            "node_id": 1
        }, {
            "node_id": 2
        }, {
            "node_id": 3
        }, {
            "node_id": 4
        }, {
            "node_id": 5
        }, {
            "node_id": 6
        }, {
            "node_id": 7
        }, {
            "node_id": 8
        }, {
            "node_id": 9
        }, {
            "node_id": 10
        }, {
            "node_id": 11
        }, {
            "node_id": 12
        }, {
            "node_id": 13
        }, {
            "node_id": 14
        }, {
            "node_id": 15
        }, {
            "node_id": 16
        }, {
            "node_id": 17
        }, {
            "node_id": 18
        }]
}