{
    "constraints": [{
            "first_node": 1,
            "max_duration": 73.1,
            "min_duration": 59.8,
            "second_node": 2,
            "type": "stcu"
        }, {
            "first_node": 3,
            "max_duration": 66.5,
            "min_duration": 54.4,
            "second_node": 4,
            "type": "stcu"
        }, {
            "first_node": 5,
            "max_duration": 28.5,
            "min_duration": 23.3,
            "second_node": 6,
            "type": "stcu"
        }, {
            "first_node": 7,
            "max_duration": 1000000.0,
            "min_duration": 0.0,
            "second_node": 8,
            "type": "stc"
        }, {
            "first_node": 4,
            "max_duration": 27.4,
            "min_duration": 9.2,
            "second_node": 9,
            "type": "stc"
        }, {
            "first_node": 10,
            "max_duration": 55.4,
            "min_duration": 45.4,
            "second_node": 11,
            "type": "stcu"
        }, {
            "first_node": 9,
            "max_duration": 66.5,
            "min_duration": 54.4,
            "second_node": 8,
            "type": "stcu"
        }, {
            "first_node": 10,
            "max_duration": 240.9,
            "min_duration": 60.0,
            "second_node": 2,
            "type": "stc"
        }, {
            "first_node": 7,
            "max_duration": 41.7,
            "min_duration": 34.1,
            "second_node": 12,
            "type": "stcu"
        }, {
            "first_node": 6,
            "max_duration": 17.8,
            "min_duration": 10.0,
            "second_node": 13,
            "type": "stc"
        }, {
            "first_node": 10,
            "max_duration": 1440.0,
            "min_duration": 0.0,
            "second_node": 14,
            "type": "stc"
        }, {
            "first_node": 15,
            "max_duration": 27.0,
            "min_duration": 2.2,
            "second_node": 1,
            "type": "stc"
        }, {
            "first_node": 3,
            "max_duration": 1000000.0,
            "min_duration": 0.0,
            "second_node": 2,
            "type": "stc"
        }, {
            "first_node": 16,
            "max_duration": 41.7,
            "min_duration": 34.1,
            "second_node": 14,
            "type": "stcu"
        }, {
            "first_node": 3,
            "max_duration": 162.3,
            "min_duration": 60.0,
            "second_node": 8,
            "type": "stc"
        }, {
            "first_node": 7,
            "max_duration": 127.8,
            "min_duration": 60.0,
            "second_node": 14,
            "type": "stc"
        }, {
            "first_node": 11,
            "max_duration": 18.5,
            "min_duration": 3.4,
            "second_node": 5,
            "type": "stc"
        }, {
            "first_node": 12,
            "max_duration": 20.5,
            "min_duration": 9.1,
            "second_node": 16,
            "type": "stc"
        }, {
            "first_node": 13,
            "max_duration": 91.1,
            "min_duration": 74.5,
            "second_node": 15,
            "type": "stcu"
        }],
    "nodes": [{
            "node_id": 1
        }, {
            "node_id": 2
        }, {
            "node_id": 3
        }, {
            "node_id": 4
        }, {
            "node_id": 5
        }, {
            "node_id": 6
        }, {
            "node_id": 7
        }, {
            "node_id": 8
        }, {
            "node_id": 9
        }, {
            "node_id": 10
        }, {
            "node_id": 11
        }, {
            "node_id": 12
        }, {
            "node_id": 13
        }, {
            "node_id": 14
        }, {
            "node_id": 15
        }, {
            "node_id": 16
        }]
}