{
    "constraints": [{
            "first_node": 1,
            "max_duration": 30.4571,
            "min_duration": 28.6829,
            "second_node": 2,
            "type": "stcu"
        }, {
            "first_node": 3,
            "max_duration": 198.24,
            "min_duration": 60.0,
            "second_node": 4,
            "type": "stc"
        }, {
            "first_node": 5,
            "max_duration": 23.604,
            "min_duration": 8.64,
            "second_node": 6,
            "type": "stc"
        }, {
            "first_node": 7,
            "max_duration": 62.35620000000001,
            "min_duration": 58.723800000000004,
            "second_node": 8,
            "type": "stcu"
        }, {
            "first_node": 2,
            "max_duration": 16.761,
            "min_duration": 7.89,
            "second_node": 9,
            "type": "stc"
        }, {
            "first_node": 10,
            "max_duration": 51.3764,
            "min_duration": 48.383599999999994,
            "second_node": 5,
            "type": "stcu"
        }, {
            "first_node": 3,
            "max_duration": 8.059750000000001,
            "min_duration": 7.59025,
            "second_node": 11,
            "type": "stcu"
        }, {
            "first_node": 12,
            "max_duration": 15.447,
            "min_duration": 8.04,
            "second_node": 1,
            "type": "stc"
        }, {
            "first_node": 6,
            "max_duration": 36.642250000000004,
            "min_duration": 34.50775,
            "second_node": 13,
            "type": "stcu"
        }, {
            "first_node": 14,
            "max_duration": 27.336499999999997,
            "min_duration": 9.71,
            "second_node": 7,
            "type": "stc"
        }, {
            "first_node": 15,
            "max_duration": 25.430699999999998,
            "min_duration": 23.949299999999997,
            "second_node": 12,
            "type": "stcu"
        }, {
            "first_node": 16,
            "max_duration": 49.30094999999999,
            "min_duration": 46.42905,
            "second_node": 4,
            "type": "stcu"
        }, {
            "first_node": 17,
            "max_duration": 51.0674,
            "min_duration": 48.0926,
            "second_node": 18,
            "type": "stcu"
        }, {
            "first_node": 9,
            "max_duration": 40.3451,
            "min_duration": 37.9949,
            "second_node": 19,
            "type": "stcu"
        }, {
            "first_node": 10,
            "max_duration": 1000000.0,
            "min_duration": 0.0,
            "second_node": 4,
            "type": "stc"
        }, {
            "first_node": 13,
            "max_duration": 12.492500000000001,
            "min_duration": 1.82,
            "second_node": 17,
            "type": "stc"
        }, {
            "first_node": 19,
            "max_duration": 20.711,
            "min_duration": 8.96,
            "second_node": 20,
            "type": "stc"
        }, {
            "first_node": 11,
            "max_duration": 9.02122,
            "min_duration": 5.58,
            "second_node": 21,
            "type": "stc"
        }, {
            "first_node": 15,
            "max_duration": 249.0,
            "min_duration": 60.0,
            "second_node": 22,
            "type": "stc"
        }, {
            "first_node": 20,
            "max_duration": 54.75995,
            "min_duration": 51.57005000000001,
            "second_node": 22,
            "type": "stcu"
        }, {
            "first_node": 21,
            "max_duration": 60.517649999999996,
            "min_duration": 56.992349999999995,
            "second_node": 14,
            "type": "stcu"
        }, {
            "first_node": 8,
            "max_duration": 24.832,
            "min_duration": 6.67,
            "second_node": 16,
            "type": "stc"
        }, {
            "first_node": 10,
            "max_duration": 201.75,
            "min_duration": 60.0,
            "second_node": 18,
            "type": "stc"
        }, {
            "first_node": 3,
            "max_duration": 1440.0,
            "min_duration": 0.0,
            "second_node": 22,
            "type": "stc"
        }, {
            "first_node": 15,
            "max_duration": 1000000.0,
            "min_duration": 0.0,
            "second_node": 18,
            "type": "stc"
        }],
    "nodes": [{
            "node_id": 1
        }, {
            "node_id": 2
        }, {
            "node_id": 3
        }, {
            "node_id": 4
        }, {
            "node_id": 5
        }, {
            "node_id": 6
        }, {
            "node_id": 7
        }, {
            "node_id": 8
        }, {
            "node_id": 9
        }, {
            "node_id": 10
        }, {
            "node_id": 11
        }, {
            "node_id": 12
        }, {
            "node_id": 13
        }, {
            "node_id": 14
        }, {
            "node_id": 15
        }, {
            "node_id": 16
        }, {
            "node_id": 17
        }, {
            "node_id": 18
        }, {
            "node_id": 19
        }, {
            "node_id": 20
        }, {
            "node_id": 21
        }, {
            "node_id": 22
        }]
}