{
    "constraints": [{
            "first_node": 1,
            "max_duration": 166.11,
            "min_duration": 60.0,
            "second_node": 2,
            "type": "stc"
        }, {
            "first_node": 3,
            "max_duration": 36.84825000000001,
            "min_duration": 34.701750000000004,
            "second_node": 4,
            "type": "stcu"
        }, {
            "first_node": 1,
            "max_duration": 38.321149999999996,
            "min_duration": 36.08885,
            "second_node": 5,
            "type": "stcu"
        }, {
            "first_node": 6,
            "max_duration": 48.10615,
            "min_duration": 45.30385,
            "second_node": 7,
            "type": "stcu"
        }, {
            "first_node": 4,
            "max_duration": 16.712500000000002,
            "min_duration": 5.98,
            "second_node": 8,
            "type": "stc"
        }, {
            "first_node": 8,
            "max_duration": 31.373800000000003,
            "min_duration": 29.5462,
            "second_node": 2,
            "type": "stcu"
        }, {
            "first_node": 5,
            "max_duration": 17.0215,
            "min_duration": 5.86,
            "second_node": 6,
            "type": "stc"
        }, {
            "first_node": 7,
            "max_duration": 17.2915,
            "min_duration": 3.28,
            "second_node": 3,
            "type": "stc"
        }],
    "nodes": [{
            "node_id": 1
        }, {
            "node_id": 2
        }, {
            "node_id": 3
        }, {
            "node_id": 4
        }, {
            "node_id": 5
        }, {
            "node_id": 6
        }, {
            "node_id": 7
        }, {
            "node_id": 8
        }]
}