{
    "constraints": [{
            "first_node": 1,
            "max_duration": 52.6,
            "min_duration": 43.0,
            "second_node": 2,
            "type": "stcu"
        }, {
            "first_node": 3,
            "max_duration": 36.4,
            "min_duration": 29.7,
            "second_node": 4,
            "type": "stcu"
        }, {
            "first_node": 5,
            "max_duration": 1440.0,
            "min_duration": 0.0,
            "second_node": 6,
            "type": "stc"
        }, {
            "first_node": 7,
            "max_duration": 74.0,
            "min_duration": 60.0,
            "second_node": 4,
            "type": "stc"
        }, {
            "first_node": 8,
            "max_duration": 184.2,
            "min_duration": 60.0,
            "second_node": 9,
            "type": "stc"
        }, {
            "first_node": 10,
            "max_duration": 43.8,
            "min_duration": 35.9,
            "second_node": 11,
            "type": "stcu"
        }, {
            "first_node": 12,
            "max_duration": 21.6,
            "min_duration": 2.8,
            "second_node": 13,
            "type": "stc"
        }, {
            "first_node": 8,
            "max_duration": 69.1,
            "min_duration": 56.5,
            "second_node": 12,
            "type": "stcu"
        }, {
            "first_node": 14,
            "max_duration": 19.7,
            "min_duration": 9.8,
            "second_node": 3,
            "type": "stc"
        }, {
            "first_node": 15,
            "max_duration": 52.6,
            "min_duration": 43.0,
            "second_node": 16,
            "type": "stcu"
        }, {
            "first_node": 17,
            "max_duration": 1440.0,
            "min_duration": 0.0,
            "second_node": 11,
            "type": "stc"
        }, {
            "first_node": 2,
            "max_duration": 17.8,
            "min_duration": 3.4,
            "second_node": 15,
            "type": "stc"
        }, {
            "first_node": 17,
            "max_duration": 50.6,
            "min_duration": 41.4,
            "second_node": 18,
            "type": "stcu"
        }, {
            "first_node": 19,
            "max_duration": 25.5,
            "min_duration": 9.6,
            "second_node": 20,
            "type": "stc"
        }, {
            "first_node": 21,
            "max_duration": 18.0,
            "min_duration": 0.9,
            "second_node": 10,
            "type": "stc"
        }, {
            "first_node": 13,
            "max_duration": 69.1,
            "min_duration": 56.5,
            "second_node": 9,
            "type": "stcu"
        }, {
            "first_node": 18,
            "max_duration": 19.8,
            "min_duration": 6.0,
            "second_node": 22,
            "type": "stc"
        }, {
            "first_node": 5,
            "max_duration": 58.3,
            "min_duration": 47.7,
            "second_node": 19,
            "type": "stcu"
        }, {
            "first_node": 22,
            "max_duration": 62.9,
            "min_duration": 51.4,
            "second_node": 21,
            "type": "stcu"
        }, {
            "first_node": 1,
            "max_duration": 281.4,
            "min_duration": 60.0,
            "second_node": 16,
            "type": "stc"
        }, {
            "first_node": 7,
            "max_duration": 36.4,
            "min_duration": 29.7,
            "second_node": 14,
            "type": "stcu"
        }, {
            "first_node": 20,
            "max_duration": 58.3,
            "min_duration": 47.7,
            "second_node": 6,
            "type": "stcu"
        }],
    "nodes": [{
            "node_id": 1
        }, {
            "node_id": 2
        }, {
            "node_id": 3
        }, {
            "node_id": 4
        }, {
            "node_id": 5
        }, {
            "node_id": 6
        }, {
            "node_id": 7
        }, {
            "node_id": 8
        }, {
            "node_id": 9
        }, {
            "node_id": 10
        }, {
            "node_id": 11
        }, {
            "node_id": 12
        }, {
            "node_id": 13
        }, {
            "node_id": 14
        }, {
            "node_id": 15
        }, {
            "node_id": 16
        }, {
            "node_id": 17
        }, {
            "node_id": 18
        }, {
            "node_id": 19
        }, {
            "node_id": 20
        }, {
            "node_id": 21
        }, {
            "node_id": 22
        }]
}