{
    "constraints": [{
            "first_node": 1,
            "max_duration": 21.656,
            "min_duration": 5.12,
            "second_node": 2,
            "type": "stc"
        }, {
            "first_node": 3,
            "max_duration": 200.13,
            "min_duration": 60.0,
            "second_node": 4,
            "type": "stc"
        }, {
            "first_node": 3,
            "max_duration": 38.321149999999996,
            "min_duration": 36.08885,
            "second_node": 5,
            "type": "stcu"
        }, {
            "first_node": 6,
            "max_duration": 30.53435,
            "min_duration": 28.75565,
            "second_node": 7,
            "type": "stcu"
        }, {
            "first_node": 8,
            "max_duration": 27.79455,
            "min_duration": 26.175449999999998,
            "second_node": 9,
            "type": "stcu"
        }, {
            "first_node": 9,
            "max_duration": 15.3555,
            "min_duration": 7.26,
            "second_node": 10,
            "type": "stc"
        }, {
            "first_node": 11,
            "max_duration": 180.15,
            "min_duration": 60.0,
            "second_node": 7,
            "type": "stc"
        }, {
            "first_node": 12,
            "max_duration": 256.02,
            "min_duration": 60.0,
            "second_node": 13,
            "type": "stc"
        }, {
            "first_node": 14,
            "max_duration": 1000000.0,
            "min_duration": 0.0,
            "second_node": 13,
            "type": "stc"
        }, {
            "first_node": 14,
            "max_duration": 18.7357,
            "min_duration": 17.6443,
            "second_node": 15,
            "type": "stcu"
        }, {
            "first_node": 16,
            "max_duration": 1000000.0,
            "min_duration": 0.0,
            "second_node": 4,
            "type": "stc"
        }, {
            "first_node": 16,
            "max_duration": 186.63,
            "min_duration": 60.0,
            "second_node": 17,
            "type": "stc"
        }, {
            "first_node": 15,
            "max_duration": 9.617,
            "min_duration": 4.16,
            "second_node": 18,
            "type": "stc"
        }, {
            "first_node": 11,
            "max_duration": 23.4325,
            "min_duration": 22.0675,
            "second_node": 19,
            "type": "stcu"
        }, {
            "first_node": 12,
            "max_duration": 1440.0,
            "min_duration": 0.0,
            "second_node": 17,
            "type": "stc"
        }, {
            "first_node": 20,
            "max_duration": 35.2775,
            "min_duration": 33.2225,
            "second_node": 21,
            "type": "stcu"
        }, {
            "first_node": 22,
            "max_duration": 56.773599999999995,
            "min_duration": 53.4664,
            "second_node": 1,
            "type": "stcu"
        }, {
            "first_node": 23,
            "max_duration": 27.3865,
            "min_duration": 9.73,
            "second_node": 6,
            "type": "stc"
        }, {
            "first_node": 12,
            "max_duration": 48.31215,
            "min_duration": 45.49785,
            "second_node": 24,
            "type": "stcu"
        }, {
            "first_node": 19,
            "max_duration": 8.575,
            "min_duration": 1.75,
            "second_node": 25,
            "type": "stc"
        }, {
            "first_node": 3,
            "max_duration": 1000000.0,
            "min_duration": 0.0,
            "second_node": 7,
            "type": "stc"
        }, {
            "first_node": 14,
            "max_duration": 264.65999999999997,
            "min_duration": 60.0,
            "second_node": 21,
            "type": "stc"
        }, {
            "first_node": 26,
            "max_duration": 60.620650000000005,
            "min_duration": 57.08935,
            "second_node": 23,
            "type": "stcu"
        }, {
            "first_node": 27,
            "max_duration": 8.687999999999999,
            "min_duration": 0.09,
            "second_node": 22,
            "type": "stc"
        }, {
            "first_node": 5,
            "max_duration": 14.2015,
            "min_duration": 3.04,
            "second_node": 28,
            "type": "stc"
        }, {
            "first_node": 28,
            "max_duration": 22.20165,
            "min_duration": 20.90835,
            "second_node": 29,
            "type": "stcu"
        }, {
            "first_node": 10,
            "max_duration": 44.001599999999996,
            "min_duration": 41.4384,
            "second_node": 30,
            "type": "stcu"
        }, {
            "first_node": 31,
            "max_duration": 8.9965,
            "min_duration": 2.65,
            "second_node": 32,
            "type": "stc"
        }, {
            "first_node": 2,
            "max_duration": 40.38629999999999,
            "min_duration": 38.033699999999996,
            "second_node": 17,
            "type": "stcu"
        }, {
            "first_node": 16,
            "max_duration": 29.519799999999996,
            "min_duration": 27.800199999999997,
            "second_node": 27,
            "type": "stcu"
        }, {
            "first_node": 33,
            "max_duration": 21.621000000000002,
            "min_duration": 6.66,
            "second_node": 26,
            "type": "stc"
        }, {
            "first_node": 11,
            "max_duration": 1000000.0,
            "min_duration": 0.0,
            "second_node": 21,
            "type": "stc"
        }, {
            "first_node": 34,
            "max_duration": 30.7661,
            "min_duration": 28.9739,
            "second_node": 4,
            "type": "stcu"
        }, {
            "first_node": 30,
            "max_duration": 15.905999999999999,
            "min_duration": 3.09,
            "second_node": 35,
            "type": "stc"
        }, {
            "first_node": 32,
            "max_duration": 37.72375,
            "min_duration": 35.52625,
            "second_node": 36,
            "type": "stcu"
        }, {
            "first_node": 25,
            "max_duration": 51.3661,
            "min_duration": 48.373900000000006,
            "second_node": 33,
            "type": "stcu"
        }, {
            "first_node": 29,
            "max_duration": 12.756499999999999,
            "min_duration": 6.29,
            "second_node": 34,
            "type": "stc"
        }, {
            "first_node": 18,
            "max_duration": 21.78965,
            "min_duration": 20.52035,
            "second_node": 31,
            "type": "stcu"
        }, {
            "first_node": 24,
            "max_duration": 14.461500000000001,
            "min_duration": 0.39,
            "second_node": 8,
            "type": "stc"
        }, {
            "first_node": 36,
            "max_duration": 15.257499999999999,
            "min_duration": 4.27,
            "second_node": 20,
            "type": "stc"
        }, {
            "first_node": 35,
            "max_duration": 25.5955,
            "min_duration": 24.1045,
            "second_node": 13,
            "type": "stcu"
        }],
    "nodes": [{
            "node_id": 1
        }, {
            "node_id": 2
        }, {
            "node_id": 3
        }, {
            "node_id": 4
        }, {
            "node_id": 5
        }, {
            "node_id": 6
        }, {
            "node_id": 7
        }, {
            "node_id": 8
        }, {
            "node_id": 9
        }, {
            "node_id": 10
        }, {
            "node_id": 11
        }, {
            "node_id": 12
        }, {
            "node_id": 13
        }, {
            "node_id": 14
        }, {
            "node_id": 15
        }, {
            "node_id": 16
        }, {
            "node_id": 17
        }, {
            "node_id": 18
        }, {
            "node_id": 19
        }, {
            "node_id": 20
        }, {
            "node_id": 21
        }, {
            "node_id": 22
        }, {
            "node_id": 23
        }, {
            "node_id": 24
        }, {
            "node_id": 25
        }, {
            "node_id": 26
        }, {
            "node_id": 27
        }, {
            "node_id": 28
        }, {
            "node_id": 29
        }, {
            "node_id": 30
        }, {
            "node_id": 31
        }, {
            "node_id": 32
        }, {
            "node_id": 33
        }, {
            "node_id": 34
        }, {
            "node_id": 35
        }, {
            "node_id": 36
        }]
}