{
    "constraints": [{
            "first_node": 1,
            "max_duration": 145.6,
            "min_duration": 60.0,
            "second_node": 2,
            "type": "stc"
        }, {
            "first_node": 3,
            "max_duration": 9.8,
            "min_duration": 2.5,
            "second_node": 4,
            "type": "stc"
        }, {
            "first_node": 5,
            "max_duration": 17.9,
            "min_duration": 5.7,
            "second_node": 6,
            "type": "stc"
        }, {
            "first_node": 7,
            "max_duration": 17.1,
            "min_duration": 14.0,
            "second_node": 8,
            "type": "stcu"
        }, {
            "first_node": 9,
            "max_duration": 8.7,
            "min_duration": 5.2,
            "second_node": 10,
            "type": "stc"
        }, {
            "first_node": 11,
            "max_duration": 201.5,
            "min_duration": 60.0,
            "second_node": 12,
            "type": "stc"
        }, {
            "first_node": 13,
            "max_duration": 41.5,
            "min_duration": 34.0,
            "second_node": 12,
            "type": "stcu"
        }, {
            "first_node": 14,
            "max_duration": 44.5,
            "min_duration": 36.4,
            "second_node": 5,
            "type": "stcu"
        }, {
            "first_node": 6,
            "max_duration": 63.8,
            "min_duration": 52.2,
            "second_node": 15,
            "type": "stcu"
        }, {
            "first_node": 16,
            "max_duration": 16.5,
            "min_duration": 0.4,
            "second_node": 17,
            "type": "stc"
        }, {
            "first_node": 18,
            "max_duration": 57.1,
            "min_duration": 46.8,
            "second_node": 19,
            "type": "stcu"
        }, {
            "first_node": 20,
            "max_duration": 1440.0,
            "min_duration": 0.0,
            "second_node": 21,
            "type": "stc"
        }, {
            "first_node": 22,
            "max_duration": 79.6,
            "min_duration": 65.1,
            "second_node": 23,
            "type": "stcu"
        }, {
            "first_node": 24,
            "max_duration": 5.6,
            "min_duration": 4.6,
            "second_node": 25,
            "type": "stcu"
        }, {
            "first_node": 26,
            "max_duration": 1440.0,
            "min_duration": 0.0,
            "second_node": 27,
            "type": "stc"
        }, {
            "first_node": 15,
            "max_duration": 21.8,
            "min_duration": 4.4,
            "second_node": 28,
            "type": "stc"
        }, {
            "first_node": 29,
            "max_duration": 1440.0,
            "min_duration": 0.0,
            "second_node": 23,
            "type": "stc"
        }, {
            "first_node": 30,
            "max_duration": 58.8,
            "min_duration": 48.1,
            "second_node": 16,
            "type": "stcu"
        }, {
            "first_node": 31,
            "max_duration": 26.1,
            "min_duration": 21.3,
            "second_node": 32,
            "type": "stcu"
        }, {
            "first_node": 33,
            "max_duration": 5.6,
            "min_duration": 4.6,
            "second_node": 34,
            "type": "stcu"
        }, {
            "first_node": 17,
            "max_duration": 58.8,
            "min_duration": 48.1,
            "second_node": 35,
            "type": "stcu"
        }, {
            "first_node": 36,
            "max_duration": 14.2,
            "min_duration": 2.6,
            "second_node": 7,
            "type": "stc"
        }, {
            "first_node": 37,
            "max_duration": 16.5,
            "min_duration": 4.1,
            "second_node": 38,
            "type": "stc"
        }, {
            "first_node": 39,
            "max_duration": 1440.0,
            "min_duration": 0.0,
            "second_node": 40,
            "type": "stc"
        }, {
            "first_node": 26,
            "max_duration": 44.8,
            "min_duration": 36.7,
            "second_node": 41,
            "type": "stcu"
        }, {
            "first_node": 42,
            "max_duration": 26.8,
            "min_duration": 6.0,
            "second_node": 43,
            "type": "stc"
        }, {
            "first_node": 33,
            "max_duration": 1440.0,
            "min_duration": 0.0,
            "second_node": 25,
            "type": "stc"
        }, {
            "first_node": 41,
            "max_duration": 21.3,
            "min_duration": 9.1,
            "second_node": 31,
            "type": "stc"
        }, {
            "first_node": 44,
            "max_duration": 15.7,
            "min_duration": 0.3,
            "second_node": 45,
            "type": "stc"
        }, {
            "first_node": 46,
            "max_duration": 6.8,
            "min_duration": 2.3,
            "second_node": 22,
            "type": "stc"
        }, {
            "first_node": 47,
            "max_duration": 56.6,
            "min_duration": 46.3,
            "second_node": 44,
            "type": "stcu"
        }, {
            "first_node": 48,
            "max_duration": 26.7,
            "min_duration": 21.9,
            "second_node": 3,
            "type": "stcu"
        }, {
            "first_node": 49,
            "max_duration": 16.9,
            "min_duration": 9.5,
            "second_node": 48,
            "type": "stc"
        }, {
            "first_node": 10,
            "max_duration": 33.0,
            "min_duration": 27.0,
            "second_node": 40,
            "type": "stcu"
        }, {
            "first_node": 30,
            "max_duration": 166.1,
            "min_duration": 60.0,
            "second_node": 35,
            "type": "stc"
        }, {
            "first_node": 1,
            "max_duration": 52.9,
            "min_duration": 43.3,
            "second_node": 50,
            "type": "stcu"
        }, {
            "first_node": 51,
            "max_duration": 24.8,
            "min_duration": 9.0,
            "second_node": 18,
            "type": "stc"
        }, {
            "first_node": 39,
            "max_duration": 45.3,
            "min_duration": 37.1,
            "second_node": 37,
            "type": "stcu"
        }, {
            "first_node": 52,
            "max_duration": 16.0,
            "min_duration": 3.5,
            "second_node": 13,
            "type": "stc"
        }, {
            "first_node": 43,
            "max_duration": 8.2,
            "min_duration": 6.7,
            "second_node": 53,
            "type": "stcu"
        }, {
            "first_node": 11,
            "max_duration": 57.8,
            "min_duration": 47.3,
            "second_node": 51,
            "type": "stcu"
        }, {
            "first_node": 54,
            "max_duration": 34.7,
            "min_duration": 28.4,
            "second_node": 27,
            "type": "stcu"
        }, {
            "first_node": 29,
            "max_duration": 76.3,
            "min_duration": 62.4,
            "second_node": 42,
            "type": "stcu"
        }, {
            "first_node": 45,
            "max_duration": 56.6,
            "min_duration": 46.3,
            "second_node": 55,
            "type": "stcu"
        }, {
            "first_node": 56,
            "max_duration": 16.5,
            "min_duration": 13.5,
            "second_node": 46,
            "type": "stcu"
        }, {
            "first_node": 34,
            "max_duration": 11.4,
            "min_duration": 9.8,
            "second_node": 24,
            "type": "stc"
        }, {
            "first_node": 14,
            "max_duration": 1440.0,
            "min_duration": 0.0,
            "second_node": 8,
            "type": "stc"
        }, {
            "first_node": 57,
            "max_duration": 45.9,
            "min_duration": 37.5,
            "second_node": 52,
            "type": "stcu"
        }, {
            "first_node": 28,
            "max_duration": 42.6,
            "min_duration": 34.8,
            "second_node": 36,
            "type": "stcu"
        }, {
            "first_node": 38,
            "max_duration": 13.1,
            "min_duration": 10.7,
            "second_node": 9,
            "type": "stcu"
        }, {
            "first_node": 32,
            "max_duration": 14.8,
            "min_duration": 7.7,
            "second_node": 54,
            "type": "stc"
        }, {
            "first_node": 58,
            "max_duration": 52.9,
            "min_duration": 43.3,
            "second_node": 2,
            "type": "stcu"
        }, {
            "first_node": 4,
            "max_duration": 29.1,
            "min_duration": 23.8,
            "second_node": 21,
            "type": "stcu"
        }, {
            "first_node": 20,
            "max_duration": 27.2,
            "min_duration": 22.3,
            "second_node": 49,
            "type": "stcu"
        }, {
            "first_node": 47,
            "max_duration": 218.2,
            "min_duration": 60.0,
            "second_node": 55,
            "type": "stc"
        }, {
            "first_node": 19,
            "max_duration": 25.1,
            "min_duration": 9.6,
            "second_node": 57,
            "type": "stc"
        }, {
            "first_node": 53,
            "max_duration": 8.3,
            "min_duration": 5.6,
            "second_node": 56,
            "type": "stc"
        }, {
            "first_node": 50,
            "max_duration": 24.3,
            "min_duration": 9.9,
            "second_node": 58,
            "type": "stc"
        }],
    "nodes": [{
            "node_id": 1
        }, {
            "node_id": 2
        }, {
            "node_id": 3
        }, {
            "node_id": 4
        }, {
            "node_id": 5
        }, {
            "node_id": 6
        }, {
            "node_id": 7
        }, {
            "node_id": 8
        }, {
            "node_id": 9
        }, {
            "node_id": 10
        }, {
            "node_id": 11
        }, {
            "node_id": 12
        }, {
            "node_id": 13
        }, {
            "node_id": 14
        }, {
            "node_id": 15
        }, {
            "node_id": 16
        }, {
            "node_id": 17
        }, {
            "node_id": 18
        }, {
            "node_id": 19
        }, {
            "node_id": 20
        }, {
            "node_id": 21
        }, {
            "node_id": 22
        }, {
            "node_id": 23
        }, {
            "node_id": 24
        }, {
            "node_id": 25
        }, {
            "node_id": 26
        }, {
            "node_id": 27
        }, {
            "node_id": 28
        }, {
            "node_id": 29
        }, {
            "node_id": 30
        }, {
            "node_id": 31
        }, {
            "node_id": 32
        }, {
            "node_id": 33
        }, {
            "node_id": 34
        }, {
            "node_id": 35
        }, {
            "node_id": 36
        }, {
            "node_id": 37
        }, {
            "node_id": 38
        }, {
            "node_id": 39
        }, {
            "node_id": 40
        }, {
            "node_id": 41
        }, {
            "node_id": 42
        }, {
            "node_id": 43
        }, {
            "node_id": 44
        }, {
            "node_id": 45
        }, {
            "node_id": 46
        }, {
            "node_id": 47
        }, {
            "node_id": 48
        }, {
            "node_id": 49
        }, {
            "node_id": 50
        }, {
            "node_id": 51
        }, {
            "node_id": 52
        }, {
            "node_id": 53
        }, {
            "node_id": 54
        }, {
            "node_id": 55
        }, {
            "node_id": 56
        }, {
            "node_id": 57
        }, {
            "node_id": 58
        }]
}